74511	72274	CDS
				locus_tag	Rv0066c
				product	Probable isocitrate dehydrogenase [NADP] Icd2 (oxalosuccinate decarboxylase) (IDH) (NADP+-specific ICDH) (IDP)
				note	FunctionalCategory: intermediary metabolism and respiration
				gene	icd2
