39829	39056	CDS
				locus_tag	Rv0036c
				product	Conserved protein/putative thiol-dependent DinB-like metalloenzyme
				note	FunctionalCategory: conserved hypotheticals
				note	identified by similarity of predicted tertiary structure to PDB 2nsgA,2nsfA
				inference	ab initio prediction:I-TASSER:5.1
				inference	alignment:TM-align:PDB:2nsgA,2nsfA
				note	Shares the four-helix up-down-down-up bundle, salt-bridge domain-linking residues, metal-coordinating histidine triad, and predicted metal-binding site characteristic of DinB family metalloenzymes
				note	Has the thiol-interacting Trp and Arg residues of the catalytic center conserved
				note	potential mycothiol-dependent S-transferase (EC 2.-.-.-)
				
				gene	Rv0036c
