23737	23270	CDS
				locus_tag	Rv0019c
				gene	fipA
				product	FtsZ-interacting protein A, FipA
				experiment	DESCRIPTION:Gene knockout and complementation study, intramacrophagal growth assay, cell lysate co-immunoprecipitation, in vitro kinase assay [PMID: 20066037]
				note	FunctionalCategory: regulatory proteins
				note	Interacts with membrane proteins PapA5, GtsQ, and FtsZ [PMID: 19826007]
				note	Forms a ternary complex with FtsZ and FtsQ, the formation of which is PknA-phosphorylation dependent [PMID: 20066037]
				note	Likely involved in regulating cell division under oxidative stress [PMID: 20066037]
				note	Possibly involved in the regulation of PDIM biosynthesis [PMID: 20487298]
				ncnote	Few publications refer to this gene as fhaB [PMID: 22000520]
				
