77622	76237	CDS
				locus_tag	Rv0069c
				product	Probable L-serine dehydratase SdaA (L-serine deaminase) (SDH) (L-SD)
				note	FunctionalCategory: intermediary metabolism and respiration
				gene	sdaA
