89022	89480	CDS
				locus_tag	Rv0080
				product	Conserved hypothetical protein
				note	FunctionalCategory: conserved hypotheticals
                                note    possible component of dormancy regulating DosR regulon [PMID: 28261197]

				
				gene	Rv0080
