55696	57378	CDS
				locus_tag	Rv0051
				product	Probable conserved transmembrane protein
				note	FunctionalCategory: cell wall and cell processes
				ncnote	gene predicted to be polyprenol-dependent mannosyltransferase based on homology, but gene knockout studies disprove this prediction [PMID: 16803893]
				
				gene	Rv0051
