208417	208971	CDS
				locus_tag	Rv0177
				product	Probable conserved Mce associated protein
				inference	profile:STRING database [PMID: 22485162]
				inference	similar to AA sequence:NOG:11769 [PMID: 22485162]
				note	FunctionalCategory: conserved hypotheticals
				note	Putatively involved in membrane associated processes 
				
				gene	Rv0177
