212250	210892	CDS
				locus_tag	Rv0180c
				product	Probable cell surface protein
				inference	protein motif:Scanprosite [PMID: 20883740]
				experiment	DESCRIPTION:high activity binding protein latex bead internalization [PMID: 20883740]
				note	FunctionalCategory: cell wall and cell processes
				note	contains Plasmodium Export Element (PEXEL)/Host Cell-Targeting Signal (HCT) motif [PMID: 20883740]
				note	contains 13 high-activity binding peptides (HABPs) (possibly involved in invasion of mammalian cells) [PMID: 20883740]
				note	co-transcribed with sigG and involved in host cell invasion [PMID: 23871545]
				note 	possible role in mammalian cell invasion [PMID: 20883740]
				
				gene	Rv0180c
