149533	150996	CDS
				locus_tag	Rv0124
				gene	PE_PGRS2
				experiment	EXISTENCE: Liquid chromatography-mass spectrometry [PMID: 21085642]
				product	PE-PGRS family protein PE_PGRS2
				note	FunctionalCategory: PE/PPE
				note	Expressed in vivo in guinea pig lung at both 30 and 90 days post-infection. [PMID: 21085642]
				
