161771	162673	CDS
				locus_tag	Rv0134
				product	Possible epoxide hydrolase EphF (epoxide hydratase) (arene-oxide hydratase)
				note	FunctionalCategory: virulence, detoxification, adaptation
				gene	ephF
