122173	119915	CDS
				locus_tag	Rv0103c
				product	Probable cation-transporter P-type ATPase B CtpB
				note	FunctionalCategory: cell wall and cell processes
				experiment	COORDINATES:N-terminal peptide mass spectrometry [PMID: 26536359]
				gene	ctpB
