238389	237892	CDS
				locus_tag	Rv0201c
				product	Conserved protein
				note	FunctionalCategory: conserved hypotheticals
                note    putatively involved in membrane associated processes 
				inference	profile:STRING database (protein-protein interactions)[PMID: 22485162]
				inference	similar to AA sequence:NOG:11925 [PMID: 22485162]
				experiment	COORDINATES:N-terminal peptide mass spectrometry [PMID: 26536359]
				experiment	COORDINATES:N-terminal peptide mass spectrometry [PMID: 26536359]
				
				gene	Rv0201c
