311517	310774	CDS
				locus_tag	Rv0259c
				product	Putative lyase
				note	FunctionalCategory: conserved hypotheticals
				EC_number	4.99.1.- (Putative)
				go_function	sirohydrochlorin cobaltochelatase activity|0016852|ISS
				note	identified by similarity of predicted tertiary structure to PDB 2jh3A,4ccsA
				inference	ab initio prediction:I-TASSER:5.1
				inference	alignment:TM-align:PDB:2jh3A,4ccsA
				go_function	4 iron, 4 sulfur cluster binding|0051539|ISS
				note	identified by similarity of predicted tertiary structure to PDB 2jh3A
				inference	ab initio prediction:I-TASSER:5.1
				inference	alignment:TM-align:PDB:2jh3A
				go_process	cobalamin biosynthetic process|0009236|ISS
				note	identified by similarity of predicted tertiary structure to PDB 2jh3A,4ccsA
				inference	ab initio prediction:I-TASSER:5.1
				inference	alignment:TM-align:PDB:2jh3A,4ccsA
				go_function	iron-sulfur cluster binding|0051536|ISS
				note	identified by similarity of predicted tertiary structure to PDB 2jh3A
				inference	ab initio prediction:I-TASSER:5.1
				inference	alignment:TM-align:PDB:2jh3A
				go_function	metal ion binding|0046872|ISS
				note	identified by similarity of predicted tertiary structure to PDB 2jh3A
				inference	ab initio prediction:I-TASSER:5.1
				inference	alignment:TM-align:PDB:2jh3A
				go_component	ribosome|0005840|ISS
				note	identified by similarity of predicted tertiary structure to PDB 2jh3A
				inference	ab initio prediction:I-TASSER:5.1
				inference	alignment:TM-align:PDB:2jh3A
				
				gene	Rv0259c
