278585	279529	CDS
				locus_tag	Rv0233
				product	Ribonucleoside-diphosphate reductase (beta chain) NrdB (ribonucleotide reductase small chain)
				note	FunctionalCategory: information pathways
				gene	nrdB
