314168	312759	CDS
				locus_tag	Rv0261c
				product	Probable integral membrane nitrite extrusion protein NarK3 (nitrite facilitator)
				note	FunctionalCategory: cell wall and cell processes
				gene	narK3
