353083	354501	CDS
				locus_tag	Rv0290
				product	ESX conserved component EccD3. ESX-3 type VII secretion system protein. Probable transmembrane protein.
				note	FunctionalCategory: cell wall and cell processes
				gene	eccD3
