418949	419608	CDS
				locus_tag	Rv0349
				product	Hypothetical protein
				inference	profile:STRING database (protein-protein interactions)[PMID: 22485162]
				inference	similar to AA sequence:NOG:81154 [PMID: 22485162]
				note	FunctionalCategory: conserved hypotheticals
                                note    Putatively involved in DNA associated processes

				
				gene	Rv0349
