468335	469594	CDS
				locus_tag	Rv0389
				product	Probable phosphoribosylglycinamide formyltransferase 2 PurT (GART 2) (gar transformylase 2) (5'-phosphoribosylglycinamide transformylase 2) (formate-dependent gar transformylase)
				note	FunctionalCategory: intermediary metabolism and respiration
				experiment	COORDINATES:N-terminal peptide mass spectrometry [PMID: 26536359]
				gene	purT
