458380	457841	CDS
				locus_tag	Rv0382c
				product	Probable orotate phosphoribosyltransferase PyrE (OPRT) (oprtase)
				note	FunctionalCategory: intermediary metabolism and respiration
				gene	pyrE
