419835	421712	CDS
				locus_tag	Rv0350
				product	Probable chaperone protein DnaK (heat shock protein 70) (heat shock 70 kDa protein) (HSP70)
				note	FunctionalCategory: virulence, detoxification, adaptation
				gene	dnaK
