448633	448040	CDS
				locus_tag	Rv0371c
				product	Putative nucleotidyltransferase
				note	FunctionalCategory: conserved hypotheticals
				EC_number	2.7.7.- (Putative)
				note	identified by similarity of predicted tertiary structure to PDB:4kt7A,3fwwA,2y6pA,1g3lD,1yp3C,3hl3A,2xwlA,4cvhA,1vpaA,5i1fA,1wvcA,1i52A,1hm8A,2vsiB,2e3dC,2yqjA,2pa4B,3d8vA,5l6sA,5ddtA
				inference	ab initio prediction:I-TASSER:5.1
				go_process	entry of bacterium into host cell|0035635|ISS
				note	identified by similarity of predicted tertiary structure to PDB 3d8vA
				inference	ab initio prediction:I-TASSER:5.1
				inference	alignment:TM-align:PDB:3d8vA
				go_function	3-deoxy-manno-octulosonate cytidylyltransferase activity|0008690|ISS
				note	identified by similarity of predicted tertiary structure to PDB 2y6pA
				inference	ab initio prediction:I-TASSER:5.1
				inference	alignment:TM-align:PDB:2y6pA
				go_process	protein homotetramerization|0051289|ISS
				note	identified by similarity of predicted tertiary structure to PDB 2e3dC,5l6sA
				inference	ab initio prediction:I-TASSER:5.1
				inference	alignment:TM-align:PDB:2e3dC,5l6sA
				go_function	glucosamine-1-phosphate N-acetyltransferase activity|0019134|ISS
				note	identified by similarity of predicted tertiary structure to PDB 3fwwA,2w0wA,3d8vA,1hm8A
				inference	ab initio prediction:I-TASSER:5.1
				inference	alignment:TM-align:PDB:3fwwA,2w0wA,3d8vA,1hm8A
				go_process	galactose catabolic process via UDP-galactose|0033499|ISS
				note	identified by similarity of predicted tertiary structure to PDB 2e3dC
				inference	ab initio prediction:I-TASSER:5.1
				inference	alignment:TM-align:PDB:2e3dC
				go_process	isopentenyl diphosphate biosynthetic process, methylerythritol 4-phosphate pathway|0019288|ISS
				note	identified by similarity of predicted tertiary structure to PDB 4kt7A,2xwlA,1vpaA,1i52A,5ddtA
				inference	ab initio prediction:I-TASSER:5.1
				inference	alignment:TM-align:PDB:4kt7A,2xwlA,1vpaA,1i52A,5ddtA
				go_function	UDP-N-acetylglucosamine diphosphorylase activity|0003977|ISS
				note	identified by similarity of predicted tertiary structure to PDB 3fwwA,2w0wA,3d8vA,1hm8A,2yqjA
				inference	ab initio prediction:I-TASSER:5.1
				inference	alignment:TM-align:PDB:3fwwA,2w0wA,3d8vA,1hm8A,2yqjA
				go_function	2-C-methyl-D-erythritol 4-phosphate cytidylyltransferase activity|0050518|ISS
				note	identified by similarity of predicted tertiary structure to PDB 4kt7A,2xwlA,1vpaA,1i52A,5ddtA
				inference	ab initio prediction:I-TASSER:5.1
				inference	alignment:TM-align:PDB:4kt7A,2xwlA,1vpaA,1i52A,5ddtA
				go_process	peptidoglycan biosynthetic process|0009252|ISS
				note	identified by similarity of predicted tertiary structure to PDB 3fwwA,2w0wA,3d8vA,1hm8A
				inference	ab initio prediction:I-TASSER:5.1
				inference	alignment:TM-align:PDB:3fwwA,2w0wA,3d8vA,1hm8A
				go_process	axon guidance|0007411|ISS
				note	identified by similarity of predicted tertiary structure to PDB 4cvhA
				inference	ab initio prediction:I-TASSER:5.1
				inference	alignment:TM-align:PDB:4cvhA
				go_process	extracellular polysaccharide biosynthetic process|0045226|ISS
				note	identified by similarity of predicted tertiary structure to PDB 1g3lD
				inference	ab initio prediction:I-TASSER:5.1
				inference	alignment:TM-align:PDB:1g3lD
				go_process	lipopolysaccharide biosynthetic process|0009103|ISS
				note	identified by similarity of predicted tertiary structure to PDB 3fwwA,2w0wA,3d8vA,2y6pA,1wvcA,1hm8A
				inference	ab initio prediction:I-TASSER:5.1
				inference	alignment:TM-align:PDB:3fwwA,2w0wA,3d8vA,2y6pA,1wvcA,1hm8A
				go_component	cytoplasm|0005737|ISS
				note	identified by similarity of predicted tertiary structure to PDB 3fwwA,2w0wA,3d8vA,2y6pA,4cvhA,1hm8A,2yqjA
				inference	ab initio prediction:I-TASSER:5.1
				inference	alignment:TM-align:PDB:3fwwA,2w0wA,3d8vA,2y6pA,4cvhA,1hm8A,2yqjA
				go_process	protein O-linked mannosylation|0035269|ISS
				note	identified by similarity of predicted tertiary structure to PDB 4cvhA
				inference	ab initio prediction:I-TASSER:5.1
				inference	alignment:TM-align:PDB:4cvhA
				go_process	cell morphogenesis|0000902|ISS
				note	identified by similarity of predicted tertiary structure to PDB 3fwwA,2w0wA,3d8vA,1hm8A
				inference	ab initio prediction:I-TASSER:5.1
				inference	alignment:TM-align:PDB:3fwwA,2w0wA,3d8vA,1hm8A
				go_process	CMP-keto-3-deoxy-D-manno-octulosonic acid biosynthetic process|0033468|ISS
				note	identified by similarity of predicted tertiary structure to PDB 2y6pA
				inference	ab initio prediction:I-TASSER:5.1
				inference	alignment:TM-align:PDB:2y6pA
				go_function	magnesium ion binding|0000287|ISS
				note	identified by similarity of predicted tertiary structure to PDB 3fwwA,2w0wA,3d8vA,1i52A,1hm8A,2e3dC,5l6sA
				inference	ab initio prediction:I-TASSER:5.1
				inference	alignment:TM-align:PDB:3fwwA,2w0wA,3d8vA,1i52A,1hm8A,2e3dC,5l6sA
				go_process	UDP-glucose metabolic process|0006011|ISS
				note	identified by similarity of predicted tertiary structure to PDB 5i1fA,2e3dC
				inference	ab initio prediction:I-TASSER:5.1
				inference	alignment:TM-align:PDB:5i1fA,2e3dC
				go_function	nucleotide binding|0000166|ISS
				note	identified by similarity of predicted tertiary structure to PDB 1g3lD,2xwlA,1wvcA,5l6sA
				inference	ab initio prediction:I-TASSER:5.1
				inference	alignment:TM-align:PDB:1g3lD,2xwlA,1wvcA,5l6sA
				go_process	cell wall organization|0071555|ISS
				note	identified by similarity of predicted tertiary structure to PDB 3fwwA,2w0wA,3d8vA,1hm8A
				inference	ab initio prediction:I-TASSER:5.1
				inference	alignment:TM-align:PDB:3fwwA,2w0wA,3d8vA,1hm8A
				go_function	transferase activity|0016740|ISS
				note	identified by similarity of predicted tertiary structure to PDB 3fwwA,2w0wA,3d8vA,4kt7A,2y6pA,1g3lD,3hl3A,2xwlA,4cvhA,1vpaA,5i1fA,1wvcA,1i52A,1hm8A,2e3dC,2yqjA,5l6sA,5ddtA
				inference	ab initio prediction:I-TASSER:5.1
				inference	alignment:TM-align:PDB:3fwwA,2w0wA,3d8vA,4kt7A,2y6pA,1g3lD,3hl3A,2xwlA,4cvhA,1vpaA,5i1fA,1wvcA,1i52A,1hm8A,2e3dC,2yqjA,5l6sA,5ddtA
				go_process	adhesion of symbiont to host cell|0044650|ISS
				note	identified by similarity of predicted tertiary structure to PDB 3d8vA
				inference	ab initio prediction:I-TASSER:5.1
				inference	alignment:TM-align:PDB:3d8vA
				go_function	transferase activity, transferring acyl groups|0016746|ISS
				note	identified by similarity of predicted tertiary structure to PDB 3fwwA,2w0wA,3d8vA,1hm8A
				inference	ab initio prediction:I-TASSER:5.1
				inference	alignment:TM-align:PDB:3fwwA,2w0wA,3d8vA,1hm8A
				go_function	metal ion binding|0046872|ISS
				note	identified by similarity of predicted tertiary structure to PDB 3fwwA,2w0wA,3d8vA,1g3lD,1wvcA,1hm8A
				inference	ab initio prediction:I-TASSER:5.1
				inference	alignment:TM-align:PDB:3fwwA,2w0wA,3d8vA,1g3lD,1wvcA,1hm8A
				go_function	UTP:glucose-1-phosphate uridylyltransferase activity|0003983|ISS
				note	identified by similarity of predicted tertiary structure to PDB 5i1fA,2e3dC
				inference	ab initio prediction:I-TASSER:5.1
				inference	alignment:TM-align:PDB:5i1fA,2e3dC
				go_function	identical protein binding|0042802|ISS
				note	identified by similarity of predicted tertiary structure to PDB 1i52A,2e3dC,5l6sA
				inference	ab initio prediction:I-TASSER:5.1
				inference	alignment:TM-align:PDB:1i52A,2e3dC,5l6sA
				go_function	protein homodimerization activity|0042803|ISS
				note	identified by similarity of predicted tertiary structure to PDB 4cvhA
				inference	ab initio prediction:I-TASSER:5.1
				inference	alignment:TM-align:PDB:4cvhA
				go_function	AMP binding|0016208|ISS
				note	identified by similarity of predicted tertiary structure to PDB 5l6sA
				inference	ab initio prediction:I-TASSER:5.1
				inference	alignment:TM-align:PDB:5l6sA
				go_process	O antigen biosynthetic process|0009243|ISS
				note	identified by similarity of predicted tertiary structure to PDB 3hl3A,1wvcA
				inference	ab initio prediction:I-TASSER:5.1
				inference	alignment:TM-align:PDB:3hl3A,1wvcA
				go_process	colanic acid biosynthetic process|0009242|ISS
				note	identified by similarity of predicted tertiary structure to PDB 2e3dC
				inference	ab initio prediction:I-TASSER:5.1
				inference	alignment:TM-align:PDB:2e3dC
				go_function	glucose-1-phosphate thymidylyltransferase activity|0008879|ISS
				note	identified by similarity of predicted tertiary structure to PDB 1g3lD,3hl3A
				inference	ab initio prediction:I-TASSER:5.1
				inference	alignment:TM-align:PDB:1g3lD,3hl3A
				go_function	glucose-1-phosphate adenylyltransferase activity|0008878|ISS
				note	identified by similarity of predicted tertiary structure to PDB 1yp3C,5l6sA
				inference	ab initio prediction:I-TASSER:5.1
				inference	alignment:TM-align:PDB:1yp3C,5l6sA
				go_process	osmoregulated periplasmic glucan biosynthetic process|1900727|ISS
				note	identified by similarity of predicted tertiary structure to PDB 2e3dC
				inference	ab initio prediction:I-TASSER:5.1
				inference	alignment:TM-align:PDB:2e3dC
				go_process	lipid A biosynthetic process|0009245|ISS
				note	identified by similarity of predicted tertiary structure to PDB 3fwwA,2w0wA,3d8vA,1hm8A
				inference	ab initio prediction:I-TASSER:5.1
				inference	alignment:TM-align:PDB:3fwwA,2w0wA,3d8vA,1hm8A
				go_process	lipopolysaccharide core region biosynthetic process|0009244|ISS
				note	identified by similarity of predicted tertiary structure to PDB 1g3lD,2e3dC
				inference	ab initio prediction:I-TASSER:5.1
				inference	alignment:TM-align:PDB:1g3lD,2e3dC
				go_function	catalytic activity|0003824|ISS
				note	identified by similarity of predicted tertiary structure to PDB 3fwwA,2w0wA,3d8vA,4kt7A,2xwlA,4cvhA,1vpaA,1i52A,1hm8A,2vsiB,5l6sA,5ddtA
				inference	ab initio prediction:I-TASSER:5.1
				inference	alignment:TM-align:PDB:3fwwA,2w0wA,3d8vA,4kt7A,2xwlA,4cvhA,1vpaA,1i52A,1hm8A,2vsiB,5l6sA,5ddtA
				go_process	biosynthetic process|0009058|ISS
				note	identified by similarity of predicted tertiary structure to PDB 1g3lD,1yp3C,3hl3A,5i1fA,1wvcA,1hm8A,2e3dC,2pa4B,5l6sA
				inference	ab initio prediction:I-TASSER:5.1
				inference	alignment:TM-align:PDB:1g3lD,1yp3C,3hl3A,5i1fA,1wvcA,1hm8A,2e3dC,2pa4B,5l6sA
				go_process	regulation of cell shape|0008360|ISS
				note	identified by similarity of predicted tertiary structure to PDB 3fwwA,2w0wA,3d8vA,1hm8A
				inference	ab initio prediction:I-TASSER:5.1
				inference	alignment:TM-align:PDB:3fwwA,2w0wA,3d8vA,1hm8A
				go_process	metabolic process|0008152|ISS
				note	identified by similarity of predicted tertiary structure to PDB 3fwwA,2w0wA,3d8vA,1hm8A,2yqjA,5l6sA
				inference	ab initio prediction:I-TASSER:5.1
				inference	alignment:TM-align:PDB:3fwwA,2w0wA,3d8vA,1hm8A,2yqjA,5l6sA
				go_process	growth|0040007|ISS
				note	identified by similarity of predicted tertiary structure to PDB 3d8vA
				inference	ab initio prediction:I-TASSER:5.1
				inference	alignment:TM-align:PDB:3d8vA
				go_process	UDP-N-acetylglucosamine biosynthetic process|0006048|ISS
				note	identified by similarity of predicted tertiary structure to PDB 3fwwA,2w0wA,3d8vA,1hm8A,2yqjA
				inference	ab initio prediction:I-TASSER:5.1
				inference	alignment:TM-align:PDB:3fwwA,2w0wA,3d8vA,1hm8A,2yqjA
				go_function	nucleotidyltransferase activity|0016779|ISS
				note	identified by similarity of predicted tertiary structure to PDB 3fwwA,2w0wA,3d8vA,4kt7A,2y6pA,1g3lD,1yp3C,3hl3A,2xwlA,4cvhA,1vpaA,5i1fA,1wvcA,1i52A,1hm8A,2e3dC,2yqjA,2pa4B,5l6sA,5ddtA
				inference	ab initio prediction:I-TASSER:5.1
				inference	alignment:TM-align:PDB:3fwwA,2w0wA,3d8vA,4kt7A,2y6pA,1g3lD,1yp3C,3hl3A,2xwlA,4cvhA,1vpaA,5i1fA,1wvcA,1i52A,1hm8A,2e3dC,2yqjA,2pa4B,5l6sA,5ddtA
				go_process	carbohydrate metabolic process|0005975|ISS
				note	identified by similarity of predicted tertiary structure to PDB 5l6sA
				inference	ab initio prediction:I-TASSER:5.1
				inference	alignment:TM-align:PDB:5l6sA
				go_process	protein glycosylation|0006486|ISS
				note	identified by similarity of predicted tertiary structure to PDB 4cvhA
				inference	ab initio prediction:I-TASSER:5.1
				inference	alignment:TM-align:PDB:4cvhA
				go_process	glycogen metabolic process|0005977|ISS
				note	identified by similarity of predicted tertiary structure to PDB 5l6sA
				inference	ab initio prediction:I-TASSER:5.1
				inference	alignment:TM-align:PDB:5l6sA
				go_process	glycogen biosynthetic process|0005978|ISS
				note	identified by similarity of predicted tertiary structure to PDB 1yp3C,5l6sA
				inference	ab initio prediction:I-TASSER:5.1
				inference	alignment:TM-align:PDB:1yp3C,5l6sA
				go_component	cytosol|0005829|ISS
				note	identified by similarity of predicted tertiary structure to PDB 4cvhA,1i52A,2e3dC
				inference	ab initio prediction:I-TASSER:5.1
				inference	alignment:TM-align:PDB:4cvhA,1i52A,2e3dC
				go_function	cytidylyltransferase activity|0070567|ISS
				note	identified by similarity of predicted tertiary structure to PDB 4kt7A,2xwlA,4cvhA,1vpaA,1i52A,2vsiB,5ddtA
				inference	ab initio prediction:I-TASSER:5.1
				inference	alignment:TM-align:PDB:4kt7A,2xwlA,4cvhA,1vpaA,1i52A,2vsiB,5ddtA
				go_process	isoprenoid biosynthetic process|0008299|ISS
				note	identified by similarity of predicted tertiary structure to PDB 4kt7A,2xwlA,4cvhA,1vpaA,1i52A,2vsiB,5ddtA
				inference	ab initio prediction:I-TASSER:5.1
				inference	alignment:TM-align:PDB:4kt7A,2xwlA,4cvhA,1vpaA,1i52A,2vsiB,5ddtA
				go_function	glucose-1-phosphate cytidylyltransferase activity|0047343|ISS
				note	identified by similarity of predicted tertiary structure to PDB 1wvcA
				inference	ab initio prediction:I-TASSER:5.1
				inference	alignment:TM-align:PDB:1wvcA
				go_function	ATP binding|0005524|ISS
				note	identified by similarity of predicted tertiary structure to PDB 5l6sA
				inference	ab initio prediction:I-TASSER:5.1
				inference	alignment:TM-align:PDB:5l6sA
				go_function	protein binding|0005515|ISS
				note	identified by similarity of predicted tertiary structure to PDB 3d8vA
				inference	ab initio prediction:I-TASSER:5.1
				inference	alignment:TM-align:PDB:3d8vA
				go_function	D-ribitol-5-phosphate cytidylyltransferase activity|0047349|ISS
				note	identified by similarity of predicted tertiary structure to PDB 4cvhA,2vsiB
				inference	ab initio prediction:I-TASSER:5.1
				inference	alignment:TM-align:PDB:4cvhA,2vsiB
				go_process	terpenoid biosynthetic process|0016114|ISS
				note	identified by similarity of predicted tertiary structure to PDB 2xwlA
				inference	ab initio prediction:I-TASSER:5.1
				inference	alignment:TM-align:PDB:2xwlA
				go_process	dTDP-rhamnose biosynthetic process|0019305|ISS
				note	identified by similarity of predicted tertiary structure to PDB 1g3lD,3hl3A
				inference	ab initio prediction:I-TASSER:5.1
				inference	alignment:TM-align:PDB:1g3lD,3hl3A
				go_function	uridylyltransferase activity|0070569|ISS
				note	identified by similarity of predicted tertiary structure to PDB 3d8vA,2yqjA
				inference	ab initio prediction:I-TASSER:5.1
				inference	alignment:TM-align:PDB:3d8vA,2yqjA
				
				gene	Rv0371c
