385943	385173	CDS
				locus_tag	Rv0317c
				product	Possible glycerophosphoryl diester phosphodiesterase GlpQ2 (glycerophosphodiester phosphodiesterase)
				note	FunctionalCategory: intermediary metabolism and respiration
				gene	glpQ2
