532214	530751	CDS
				locus_tag	Rv0442c
				gene	PPE10
				product	PPE family protein PPE10
				experiment	EXISTENCE:Liquid chromatography-mass spectrometry. [PMID: 21085642]
				note	FunctionalCategory: PE/PPE
				note	Expressed in vivo in guinea pig lung at both 30 and 90 days post-infection. [PMID: 21085642]

				note	identified by similarity of predicted tertiary structure to PDB:4ut1A
				inference	ab initio prediction:I-TASSER:5.1
				note	possible flagellar-hook protein
				note	Very strong structural similarity to a flagellar-hook protein				
				
