589183	590058	CDS
				locus_tag	Rv0499
				product	Putative thiolester hydrolase
				note	FunctionalCategory: conserved hypotheticals
				EC_number	3.1.2.- (Putative)
				note	identified by similarity of predicted tertiary structure to PDB:1c8uA
				inference	ab initio prediction:I-TASSER:5.1
				go_process	acyl-CoA metabolic process|0006637|ISS
				note	identified by similarity of predicted tertiary structure to PDB 1c8uA
				inference	ab initio prediction:I-TASSER:5.1
				inference	alignment:TM-align:PDB:1c8uA
				go_process	fatty acid catabolic process|0009062|ISS
				note	identified by similarity of predicted tertiary structure to PDB 1c8uA
				inference	ab initio prediction:I-TASSER:5.1
				inference	alignment:TM-align:PDB:1c8uA
				go_function	identical protein binding|0042802|ISS
				note	identified by similarity of predicted tertiary structure to PDB 1c8uA
				inference	ab initio prediction:I-TASSER:5.1
				inference	alignment:TM-align:PDB:1c8uA
				go_function	hydrolase activity|0016787|ISS
				note	identified by similarity of predicted tertiary structure to PDB 1c8uA
				inference	ab initio prediction:I-TASSER:5.1
				inference	alignment:TM-align:PDB:1c8uA
				go_function	acyl-CoA hydrolase activity|0047617|ISS
				note	identified by similarity of predicted tertiary structure to PDB 1c8uA
				inference	ab initio prediction:I-TASSER:5.1
				inference	alignment:TM-align:PDB:1c8uA
				go_component	cytosol|0005829|ISS
				note	identified by similarity of predicted tertiary structure to PDB 1c8uA
				inference	ab initio prediction:I-TASSER:5.1
				inference	alignment:TM-align:PDB:1c8uA
				
				gene	Rv0499
