543174	544730	CDS
				locus_tag	Rv0453
				gene	PPE11
				product	PPE family protein PPE11
				experiment	EXISTENCE:Liquid chromatography-mass spectrometry. [PMID: 21085642]
				experiment	EXISTENCE:2D gel electrophoresis, liquid chromatography mass spectrometry [PMID: 17443846]
				note	FunctionalCategory: PE/PPE
				note	Expressed in vivo in guinea pig lung at 30 but not 90 days post-infection. [PMID: 21085642]
				note	probably secreted, found expressed in the culture filtrate [PMID: 17443846]
				note	enhances biofilm growth [PMID: 28036246] 

				note	potential endotoxin
				note	structurally similar to many endotoxins
				note	identified by similarity of predicted tertiary structure to PDB 1ciyA
				inference	ab initio prediction:I-TASSER:5.1
				inference	alignment:TM-align:PDB:1ciyA
				
