520324	521454	CDS
				locus_tag	Rv0433
				product	Putative peptide synthase
				note	FunctionalCategory: conserved hypotheticals
				EC_number	6.3.2.- (Putative)
				note	identified by similarity of predicted tertiary structure to PDB:2gwcF,3nztA,3ln7A,3ln6A,2d33A,3ig5A
				inference	ab initio prediction:I-TASSER:5.1
				go_process	metabolic process|0008152|ISS
				note	identified by similarity of predicted tertiary structure to PDB 3ln7A,3ln6A
				inference	ab initio prediction:I-TASSER:5.1
				inference	alignment:TM-align:PDB:3ln7A,3ln6A
				go_process	cellular modified amino acid biosynthetic process|0042398|ISS
				note	identified by similarity of predicted tertiary structure to PDB 2gwcF
				inference	ab initio prediction:I-TASSER:5.1
				inference	alignment:TM-align:PDB:2gwcF
				go_component	glutamate-cysteine ligase complex|0017109|ISS
				note	identified by similarity of predicted tertiary structure to PDB 3ig5A
				inference	ab initio prediction:I-TASSER:5.1
				inference	alignment:TM-align:PDB:3ig5A
				go_process	cellular response to arsenic-containing substance|0071243|ISS
				note	identified by similarity of predicted tertiary structure to PDB 2d33A
				inference	ab initio prediction:I-TASSER:5.1
				inference	alignment:TM-align:PDB:2d33A
				go_component	cytoplasm|0005737|ISS
				note	identified by similarity of predicted tertiary structure to PDB 3ig5A
				inference	ab initio prediction:I-TASSER:5.1
				inference	alignment:TM-align:PDB:3ig5A
				go_function	glutathione synthase activity|0004363|ISS
				note	identified by similarity of predicted tertiary structure to PDB 3ln7A,3ln6A
				inference	ab initio prediction:I-TASSER:5.1
				inference	alignment:TM-align:PDB:3ln7A,3ln6A
				go_function	nucleotide binding|0000166|ISS
				note	identified by similarity of predicted tertiary structure to PDB 3nztA,3ln7A,3ln6A,2d33A,3ig5A
				inference	ab initio prediction:I-TASSER:5.1
				inference	alignment:TM-align:PDB:3nztA,3ln7A,3ln6A,2d33A,3ig5A
				go_process	response to cadmium ion|0046686|ISS
				note	identified by similarity of predicted tertiary structure to PDB 3ig5A
				inference	ab initio prediction:I-TASSER:5.1
				inference	alignment:TM-align:PDB:3ig5A
				go_function	metal ion binding|0046872|ISS
				note	identified by similarity of predicted tertiary structure to PDB 3ln7A,3ln6A,2d33A
				inference	ab initio prediction:I-TASSER:5.1
				inference	alignment:TM-align:PDB:3ln7A,3ln6A,2d33A
				go_function	ATP binding|0005524|ISS
				note	identified by similarity of predicted tertiary structure to PDB 3nztA,3ln7A,3ln6A,2d33A,3ig5A
				inference	ab initio prediction:I-TASSER:5.1
				inference	alignment:TM-align:PDB:3nztA,3ln7A,3ln6A,2d33A,3ig5A
				go_function	catalytic activity|0003824|ISS
				note	identified by similarity of predicted tertiary structure to PDB 3ln7A,3ln6A
				inference	ab initio prediction:I-TASSER:5.1
				inference	alignment:TM-align:PDB:3ln7A,3ln6A
				go_process	hyperosmotic response|0006972|ISS
				note	identified by similarity of predicted tertiary structure to PDB 2d33A
				inference	ab initio prediction:I-TASSER:5.1
				inference	alignment:TM-align:PDB:2d33A
				go_function	ligase activity|0016874|ISS
				note	identified by similarity of predicted tertiary structure to PDB 3nztA,3ln7A,3ln6A,2d33A,3ig5A
				inference	ab initio prediction:I-TASSER:5.1
				inference	alignment:TM-align:PDB:3nztA,3ln7A,3ln6A,2d33A,3ig5A
				go_process	response to hydrogen peroxide|0042542|ISS
				note	identified by similarity of predicted tertiary structure to PDB 3ig5A
				inference	ab initio prediction:I-TASSER:5.1
				inference	alignment:TM-align:PDB:3ig5A
				go_process	cellular response to mercury ion|0071288|ISS
				note	identified by similarity of predicted tertiary structure to PDB 2d33A
				inference	ab initio prediction:I-TASSER:5.1
				inference	alignment:TM-align:PDB:2d33A
				go_function	glutamate-cysteine ligase activity|0004357|ISS
				note	identified by similarity of predicted tertiary structure to PDB 2gwcF,3nztA,3ln7A,3ln6A,2d33A,3ig5A
				inference	ab initio prediction:I-TASSER:5.1
				inference	alignment:TM-align:PDB:2gwcF,3nztA,3ln7A,3ln6A,2d33A,3ig5A
				go_component	cytosol|0005829|ISS
				note	identified by similarity of predicted tertiary structure to PDB 2d33A
				inference	ab initio prediction:I-TASSER:5.1
				inference	alignment:TM-align:PDB:2d33A
				go_component	intracellular|0005622|ISS
				note	identified by similarity of predicted tertiary structure to PDB 3ig5A
				inference	ab initio prediction:I-TASSER:5.1
				inference	alignment:TM-align:PDB:3ig5A
				go_function	protein binding|0005515|ISS
				note	identified by similarity of predicted tertiary structure to PDB 3ig5A
				inference	ab initio prediction:I-TASSER:5.1
				inference	alignment:TM-align:PDB:3ig5A
				go_process	glutathione biosynthetic process|0006750|ISS
				note	identified by similarity of predicted tertiary structure to PDB 2gwcF,3nztA,3ln7A,3ln6A,2d33A,3ig5A
				inference	ab initio prediction:I-TASSER:5.1
				inference	alignment:TM-align:PDB:2gwcF,3nztA,3ln7A,3ln6A,2d33A,3ig5A
				
				gene	Rv0433
