601857	602786	CDS
				locus_tag	Rv0510
				product	Probable porphobilinogen deaminase HemC (PBG) (hydroxymethylbilane synthase) (HMBS) (pre-uroporphyrinogen synthase)
				note	FunctionalCategory: intermediary metabolism and respiration
				gene	hemC
