631743	632375	CDS
				locus_tag	Rv0539
				product	Probable dolichyl-phosphate sugar synthase (dolichol-phosphate sugar synthetase) (dolichol-phosphate sugar transferase) (sugar phosphoryldolichol synthase)
				note	FunctionalCategory: intermediary metabolism and respiration
				gene	Rv0539
