655949	654924	CDS
				locus_tag	Rv0564c
				product	Probable glycerol-3-phosphate dehydrogenase [NAD(P)+] GpdA1 (NAD(P)H-dependent glycerol-3-phosphate dehydrogenase) (NAD(P)H-dependent dihydroxyacetone-phosphate reductase)
				note	FunctionalCategory: lipid metabolism
				gene	gpdA1
