685129	685926	CDS
				locus_tag	Rv0587
				gene	yrbE2A
				product	Conserved hypothetical integral membrane protein YrbE2A
				note	FunctionalCategory: virulence, detoxification, adaptation
				note	possibly part of ABC - phospholipid transporter [PMID: 27973588]
				
