679229	681862	CDS
				locus_tag	Rv0584
				product	Possible conserved exported protein/putative glycosidase
				note	FunctionalCategory: cell wall and cell processes
				note	possible alpha-mannosidase [PMID: 27697825]
				EC_number	3.2.1.- (Putative)
				note	identified by similarity of predicted tertiary structure to PDB:2xsgA
				inference	ab initio prediction:I-TASSER:5.1
				go_function	carbohydrate binding|0030246|ISS
				note	identified by similarity of predicted tertiary structure to PDB 2xsgA
				inference	ab initio prediction:I-TASSER:5.1
				inference	alignment:TM-align:PDB:2xsgA
				go_function	catalytic activity|0003824|ISS
				note	identified by similarity of predicted tertiary structure to PDB 2xsgA
				inference	ab initio prediction:I-TASSER:5.1
				inference	alignment:TM-align:PDB:2xsgA
				
				gene	Rv0584
