594779	593871	CDS
				locus_tag	Rv0503c
				product	Cyclopropane-fatty-acyl-phospholipid synthase 2 CmaA2 (cyclopropane fatty acid synthase) (CFA synthase) (cyclopropane mycolic acid synthase 2) (mycolic acid trans-cyclopropane synthetase)
				note	FunctionalCategory: lipid metabolism
				experiment	COORDINATES:N-terminal peptide mass spectrometry [PMID: 26536359]
				gene	cmaA2
