614835	616223	CDS
				locus_tag	Rv0524
				product	Probable glutamate-1-semialdehyde 2,1-aminomutase HemL (GSA) (glutamate-1-semialdehyde aminotransferase) (GSA-at)
				note	FunctionalCategory: intermediary metabolism and respiration
				gene	hemL
