634404	633055	CDS
				locus_tag	Rv0541c
				product	Probable conserved integral membrane protein
				note	FunctionalCategory: cell wall and cell processes
				note	Possible mannosyl transferase function based on conserved amino acid domain similarity to Rv1002c and clustering on the Mtb chromosome with Rv0539 (not annotated in UniProt) [PMID: 17261566]

				
				gene	Rv0541c
