606551	608062	CDS
				locus_tag	Rv0515
				product	Conserved 13E12 repeat family protein
				experiment	DESCRIPTION:ChIP-seq [PMID: 22528497]
                                note    FunctionalCategory: insertion seqs and phages
                                note    Bound and likely regulated by LexA, an activator of DNA damage response proteins [PMID: 22528497]

				
				gene	Rv0515
