616223	616831	CDS
				locus_tag	Rv0525
				product	probable protease/probable protease/Putative phosphotransferase
				note	FunctionalCategory: conserved hypotheticals
				experiment	DESCRIPTION:Protein expression and purification, beta-casein enzymatic assay click-chemistry activity-based probe, liquid chromatography Mass Spectrometry[PMID: 26853625]
				EC_number	3.4.-.-
				EC_number	5.4.2.- (Putative)
				note	identified by similarity of predicted tertiary structure to PDB:1riiA,1e58A,2a6pA,1qhfA,1yjxA,2hhjA,3gp5A,1fztA,4embA
				inference	ab initio prediction:I-TASSER:5.1
				go_process	protein homotetramerization|0051289|ISS
				note	identified by similarity of predicted tertiary structure to PDB 1riiA
				inference	ab initio prediction:I-TASSER:5.1
				inference	alignment:TM-align:PDB:1riiA
				go_process	canonical glycolysis|0061621|ISS
				note	identified by similarity of predicted tertiary structure to PDB 1yjxA,2hhjA,1fztA
				inference	ab initio prediction:I-TASSER:5.1
				inference	alignment:TM-align:PDB:1yjxA,2hhjA,1fztA
				go_function	intramolecular transferase activity, phosphotransferases|0016868|ISS
				note	identified by similarity of predicted tertiary structure to PDB 1riiA,1e58A,1qhfA,1yjxA,2hhjA,3gp5A,1fztA,4embA
				inference	ab initio prediction:I-TASSER:5.1
				inference	alignment:TM-align:PDB:1riiA,1e58A,1qhfA,1yjxA,2hhjA,3gp5A,1fztA,4embA
				go_component	myelin sheath|0043209|ISS
				note	identified by similarity of predicted tertiary structure to PDB 1yjxA
				inference	ab initio prediction:I-TASSER:5.1
				inference	alignment:TM-align:PDB:1yjxA
				go_component	membrane|0016020|ISS
				note	identified by similarity of predicted tertiary structure to PDB 1qhfA,1yjxA
				inference	ab initio prediction:I-TASSER:5.1
				inference	alignment:TM-align:PDB:1qhfA,1yjxA
				go_function	bisphosphoglycerate mutase activity|0004082|ISS
				note	identified by similarity of predicted tertiary structure to PDB 1yjxA,2hhjA
				inference	ab initio prediction:I-TASSER:5.1
				inference	alignment:TM-align:PDB:1yjxA,2hhjA
				go_function	protein kinase binding|0019901|ISS
				note	identified by similarity of predicted tertiary structure to PDB 1yjxA
				inference	ab initio prediction:I-TASSER:5.1
				inference	alignment:TM-align:PDB:1yjxA
				go_component	secretory granule lumen|0034774|ISS
				note	identified by similarity of predicted tertiary structure to PDB 1yjxA
				inference	ab initio prediction:I-TASSER:5.1
				inference	alignment:TM-align:PDB:1yjxA
				go_component	protein complex|0043234|ISS
				note	identified by similarity of predicted tertiary structure to PDB 1riiA
				inference	ab initio prediction:I-TASSER:5.1
				inference	alignment:TM-align:PDB:1riiA
				go_component	cytosol|0005829|ISS
				note	identified by similarity of predicted tertiary structure to PDB 1riiA,1e58A,1qhfA,1yjxA,2hhjA,1fztA,4embA
				inference	ab initio prediction:I-TASSER:5.1
				inference	alignment:TM-align:PDB:1riiA,1e58A,1qhfA,1yjxA,2hhjA,1fztA,4embA
				go_function	2,3-bisphosphoglycerate-dependent phosphoglycerate mutase activity|0046538|ISS
				note	identified by similarity of predicted tertiary structure to PDB 1riiA,1e58A,1qhfA,1yjxA,2hhjA,1fztA
				inference	ab initio prediction:I-TASSER:5.1
				inference	alignment:TM-align:PDB:1riiA,1e58A,1qhfA,1yjxA,2hhjA,1fztA
				go_process	regulation of glycolytic process|0006110|ISS
				note	identified by similarity of predicted tertiary structure to PDB 1yjxA
				inference	ab initio prediction:I-TASSER:5.1
				inference	alignment:TM-align:PDB:1yjxA
				go_function	hydrolase activity|0016787|ISS
				note	identified by similarity of predicted tertiary structure to PDB 1yjxA,2hhjA
				inference	ab initio prediction:I-TASSER:5.1
				inference	alignment:TM-align:PDB:1yjxA,2hhjA
				go_process	respiratory gaseous exchange|0007585|ISS
				note	identified by similarity of predicted tertiary structure to PDB 2hhjA
				inference	ab initio prediction:I-TASSER:5.1
				inference	alignment:TM-align:PDB:2hhjA
				go_function	catalytic activity|0003824|ISS
				note	identified by similarity of predicted tertiary structure to PDB 1riiA,1e58A,1qhfA,1yjxA,2hhjA,3gp5A,1fztA,4embA
				inference	ab initio prediction:I-TASSER:5.1
				inference	alignment:TM-align:PDB:1riiA,1e58A,1qhfA,1yjxA,2hhjA,3gp5A,1fztA,4embA
				go_process	metabolic process|0008152|ISS
				note	identified by similarity of predicted tertiary structure to PDB 1riiA,1e58A,1qhfA,1yjxA,2hhjA,3gp5A,1fztA,4embA
				inference	ab initio prediction:I-TASSER:5.1
				inference	alignment:TM-align:PDB:1riiA,1e58A,1qhfA,1yjxA,2hhjA,3gp5A,1fztA,4embA
				go_process	neutrophil degranulation|0043312|ISS
				note	identified by similarity of predicted tertiary structure to PDB 1yjxA
				inference	ab initio prediction:I-TASSER:5.1
				inference	alignment:TM-align:PDB:1yjxA
				go_process	respiratory burst|0045730|ISS
				note	identified by similarity of predicted tertiary structure to PDB 1yjxA
				inference	ab initio prediction:I-TASSER:5.1
				inference	alignment:TM-align:PDB:1yjxA
				go_component	ficolin-1-rich granule lumen|1904813|ISS
				note	identified by similarity of predicted tertiary structure to PDB 1yjxA
				inference	ab initio prediction:I-TASSER:5.1
				inference	alignment:TM-align:PDB:1yjxA
				go_component	cytoplasm|0005737|ISS
				note	identified by similarity of predicted tertiary structure to PDB 1e58A,1qhfA,1yjxA
				inference	ab initio prediction:I-TASSER:5.1
				inference	alignment:TM-align:PDB:1e58A,1qhfA,1yjxA
				go_component	nucleus|0005634|ISS
				note	identified by similarity of predicted tertiary structure to PDB 1fztA
				inference	ab initio prediction:I-TASSER:5.1
				inference	alignment:TM-align:PDB:1fztA
				go_component	mitochondrion|0005739|ISS
				note	identified by similarity of predicted tertiary structure to PDB 1qhfA
				inference	ab initio prediction:I-TASSER:5.1
				inference	alignment:TM-align:PDB:1qhfA
				go_function	phosphoglycerate mutase activity|0004619|ISS
				note	identified by similarity of predicted tertiary structure to PDB 1riiA,1e58A,1qhfA,1yjxA,2hhjA,3gp5A,1fztA,4embA
				inference	ab initio prediction:I-TASSER:5.1
				inference	alignment:TM-align:PDB:1riiA,1e58A,1qhfA,1yjxA,2hhjA,3gp5A,1fztA,4embA
				go_function	identical protein binding|0042802|ISS
				note	identified by similarity of predicted tertiary structure to PDB 1riiA
				inference	ab initio prediction:I-TASSER:5.1
				inference	alignment:TM-align:PDB:1riiA
				go_function	isomerase activity|0016853|ISS
				note	identified by similarity of predicted tertiary structure to PDB 1riiA,1e58A,1qhfA,1yjxA,2hhjA,3gp5A,1fztA,4embA
				inference	ab initio prediction:I-TASSER:5.1
				inference	alignment:TM-align:PDB:1riiA,1e58A,1qhfA,1yjxA,2hhjA,3gp5A,1fztA,4embA
				go_component	mitochondrial outer membrane|0005741|ISS
				note	identified by similarity of predicted tertiary structure to PDB 1qhfA
				inference	ab initio prediction:I-TASSER:5.1
				inference	alignment:TM-align:PDB:1qhfA
				go_function	protein binding|0005515|ISS
				note	identified by similarity of predicted tertiary structure to PDB 1yjxA
				inference	ab initio prediction:I-TASSER:5.1
				inference	alignment:TM-align:PDB:1yjxA
				go_process	glycolytic process|0006096|ISS
				note	identified by similarity of predicted tertiary structure to PDB 1riiA,1e58A,1qhfA,1yjxA,2hhjA,3gp5A,1fztA,4embA
				inference	ab initio prediction:I-TASSER:5.1
				inference	alignment:TM-align:PDB:1riiA,1e58A,1qhfA,1yjxA,2hhjA,3gp5A,1fztA,4embA
				go_process	gluconeogenesis|0006094|ISS
				note	identified by similarity of predicted tertiary structure to PDB 1riiA,1e58A,1qhfA,1yjxA,2hhjA,3gp5A,1fztA,4embA
				inference	ab initio prediction:I-TASSER:5.1
				inference	alignment:TM-align:PDB:1riiA,1e58A,1qhfA,1yjxA,2hhjA,3gp5A,1fztA,4embA
				go_component	extracellular exosome|0070062|ISS
				note	identified by similarity of predicted tertiary structure to PDB 1yjxA,2hhjA
				inference	ab initio prediction:I-TASSER:5.1
				inference	alignment:TM-align:PDB:1yjxA,2hhjA
				go_component	mitochondrial intermembrane space|0005758|ISS
				note	identified by similarity of predicted tertiary structure to PDB 1qhfA
				inference	ab initio prediction:I-TASSER:5.1
				inference	alignment:TM-align:PDB:1qhfA
				go_component	plasma membrane|0005886|ISS
				note	identified by similarity of predicted tertiary structure to PDB 1riiA
				inference	ab initio prediction:I-TASSER:5.1
				inference	alignment:TM-align:PDB:1riiA
				go_process	regulation of pentose-phosphate shunt|0043456|ISS
				note	identified by similarity of predicted tertiary structure to PDB 1riiA,1e58A,1qhfA,1yjxA,2hhjA,1fztA
				inference	ab initio prediction:I-TASSER:5.1
				inference	alignment:TM-align:PDB:1riiA,1e58A,1qhfA,1yjxA,2hhjA,1fztA
				go_process	carbohydrate metabolic process|0005975|ISS
				note	identified by similarity of predicted tertiary structure to PDB 2hhjA
				inference	ab initio prediction:I-TASSER:5.1
				inference	alignment:TM-align:PDB:2hhjA
				go_component	extracellular region|0005576|ISS
				note	identified by similarity of predicted tertiary structure to PDB 1yjxA
				inference	ab initio prediction:I-TASSER:5.1
				inference	alignment:TM-align:PDB:1yjxA
				
				gene	Rv0525
