786149	786946	CDS
				locus_tag	Rv0686
				product	T-cell antigen [PMID: 17922044]
				note	FunctionalCategory: cell wall and cell processes
				note	CFP-10 (T-cell antigenic target, essential for virulence) interacts with Rv0686 [PMID: 17922044]
				note	member of the signal-recognition pathway (SRP)-GTPase family (possibly involved in targeting of CFP-10 to the membrane by SRP) [PMID: 16844784]
				
				gene	Rv0686
