739160	738297	CDS
				locus_tag	Rv0644c
				product	Methoxy mycolic acid synthase 2 MmaA2 (methyl mycolic acid synthase 2) (MMA2) (hydroxy mycolic acid synthase)
				note	FunctionalCategory: lipid metabolism
				gene	mmaA2
