858037	856682	CDS
				locus_tag	Rv0764c
				product	Cytochrome P450 51 Cyp51 (CYPL1) (P450-L1A1) (sterol 14-alpha demethylase) (lanosterol 14-alpha demethylase) (P450-14DM)
				note	FunctionalCategory: intermediary metabolism and respiration
				gene	cyp51
