923709	922894	CDS
				locus_tag	Rv0831c
				product	bifunctional probable ATP-binding protein/putative T-cell antigen
				experiment	DESCRIPTION:recombinant gene expression, LC-MS/MS [PMID: 23352146]
				experiment	DESCRIPTION:LC-MS/MS [PMID: 15908384]
				note	FunctionalCategory: conserved hypotheticals
				
				gene	Rv0831c
