987233	988705	CDS
				locus_tag	Rv0888
				gene	SpmT
				product	Sphingomyelinase/major hemolytic factor/Probable extracellular non-specific nuclease
				experiment	DESCRIPTION: protein expression in E. coli, transformation in M. smegmatis, site-directed mutagenesis, protein purification, SDS-PAGE mass spectrometry, nuclease activity assays, spectrophotometric assays, protein kinetics, mouse lung infection [PMID: 26742696]
				experiment	DESCRIPTION: subcellular fractionation, flow cytometry biotinylation, protein purification from M. smegmatis, hemolysis experiment, macrophage infection experiments, thin-layer chromatography and sphingomyelinase activity assays, enzyme coupled sphingomyelinase activity assay, kinetics of sphingomyelinase activity, glucose uptake assay [PMID: 26036301]
				note	FunctionalCategory: cell wall and cell processes [PMID: 26742696]
				note	necessary for infection [PMID: 26742696]
				note	novel member of a non-specific nuclease family [PMID: 26742696]
				note	accounts for half of Mtb's hemolytic activity [PMID: 26036301]
				EC_number	3.1.4.12
				EC_number	3.1.-.-
				note    induced and exported in vivo [PMID: 28442606]

				
