966261	965983	CDS
				locus_tag	Rv0868c
				product	Probable molybdenum cofactor biosynthesis protein D 2 MoaD2 (molybdopterin converting factor small subunit) (molybdopterin [MPT] converting factor, subunit 1)
				note	FunctionalCategory: intermediary metabolism and respiration
				gene	moaD2
