932932	932279	CDS
				locus_tag	Rv0836c
				product	conserved protein
				experiment	DESCRIPTION:promoter activity assays, DIG-labeled EMSAs, in vitro radioactive GTP binding assay [PMID: 24465005]
				note	FunctionalCategory: conserved hypotheticals\
				note	Putative type IV toxin system 
				
				gene	Rv0836c
