908018	907338	CDS
				locus_tag	Rv0813c
				product	Putative fatty acid-binding protein
				note	FunctionalCategory: conserved hypotheticals
				experiment	DESCRIPTION:X-ray crystallography[PMID: 17172346]
				experiment	COORDINATES:N-terminal peptide mass spectrometry [PMID: 26536359]

				
				gene	Rv0813c
