1094356	1093361	CDS
				locus_tag	Rv0978c
				gene	PE_PGRS17
				product	B-cell antigen
				experiment	DESCRIPTION: Protein expression and purification, PCR, ELISA. [PMID: 17687113]
				experiment	EXISTENCE:Liquid chromatography-mass spectrometry. [PMID: 21085642]
				note	FunctionalCategory: PE/PPE
				note	Induces dendritic cell maturation and secretion of pro-inflammatory cytokines [PMID: 20176745]
				note 	Recognizes TLR2 [PMID: 20176745]
				note	Possibly regulated by ERK kinase [PMID: 23663047] 
				note	Possibly facilitates pathogen survival through modifying macrophage gene expression [PMID: 23663047]
				note	Expressed in vivo in guinea pig lung at 90 but not 30 days post-infection. [PMID: 21085642]

				
