1014866	1015300	CDS
				locus_tag	Rv0910
				product	putative Type II toxin
				note	FunctionalCategory: conserved hypotheticals
				experiment	DESCRIPTION:Tested for growth inhibition in M.smegmatis[PMID: 24662523]
				
				gene	Rv0910
