1200767	1201660	CDS
				locus_tag	Rv1076
				gene	LipU
				product	Possible lipase LipU
				experiment	DESCRIPTION: Protein expression and purification, enzyme activity assay, substrate specificity, enzyme kinetic assay, site-directed mutagenesis. [PMID: 28164792]
				note	FunctionalCategory: intermediary metabolism and respiration
				note	Homologous to the human Hormone Sensitive Lipase (HSL) based on the presence of conserved motif 'GXSXG'. [PMID: 28164792]
				note	Up-regulated Mycobacterium tuberculosis under nutritive stress. [PMID: 28164792]
				note	Have esterase characteristics, might be esterase instead of lipase. [PMID: 28164792]
