1197231	1198082	CDS
				locus_tag	Rv1073
				product	Conserved hypothetical protein
                                inference       profile:STRING database [PMID: 22485162]
                                inference       similar to AA sequence:COG:1507 [PMID: 22485162]
				note	FunctionalCategory: conserved hypotheticals
                                note    Predicted to be involved in membrane associated processes [PMID: 22485162]
				note	Gene product is a possible substrate for Clp protease [PMID: 25422323]
				
				gene	Rv1073
