1177628	1178392	CDS
				locus_tag	Rv1056
				product	Putative Antigen
				experiment	ELISPOT, Whole blood Assay, T-cell Depletion assay, Fc Receptor Blocking Assay, Phagocytosis by Flow Cytometry, Human Antibodies Isotyping Assay [PMID: 28438994]
				note	FunctionalCategory: conserved hypotheticals
				ncnote	The study that characterized this antigen had a small sample size, so more confirmatory studies would have to be done in order to give a stronger evidence code for the product of this protein
				
				gene	Rv1056
