1117185	1118393	CDS
				locus_tag	Rv1001
				product	Probable arginine deiminase ArcA (adi) (ad) (arginine dihydrolase)
				note	FunctionalCategory: intermediary metabolism and respiration
				gene	arcA
