<1214769	1215131	CDS
				locus_tag	Rv1089
				gene	PE10
				product	PE family protein PE10
				note	FunctionalCategory: PE/PPE
				note	Forms a heterodimer with PE9 (Rv1088) and induces macrophage apoptosis through Toll-like receptor 4. [PMID: 26031846]

				
