1270062	1271144	CDS
				locus_tag	Rv1143
				product	Probable alpha-methylacyl-CoA racemase Mcr (2-methylacyl-CoA racemase) (2-arylpropionyl-CoA epimerase )
				note	FunctionalCategory: lipid metabolism
				gene	mcr
