1242669	1241971	CDS
				locus_tag	Rv1118c
				product	Conserved protein
                                note	FunctionalCategory: conserved hypotheticals
				experiment	COORDINATES:N-terminal peptide mass spectrometry [PMID: 26536359]

				
				gene	Rv1118c
