1335794	1337215	CDS
				locus_tag	Rv1193
				product	Probable fatty-acid-CoA ligase FadD36 (fatty-acid-CoA synthetase) (fatty-acid-CoA synthase)
				note	FunctionalCategory: lipid metabolism
				experiment	COORDINATES:N-terminal peptide mass spectrometry [PMID: 26536359]
				gene	fadD36
