1339003	1339302	CDS
				locus_tag	Rv1195
				gene	PE13
				product	PE family protein PE13
				experiment	EXISTENCE:gel electrophoresis, liquid chromatography mass spectrometry, label-free quantitation [PMID: 21920479]
				note	FunctionalCategory: PE/PPE
				note	Involved in the interaction between Mycobacterium and host-signaling through the p38-ERK-NF-kB axis and apoptotic pathways [PMID: 27147522]
				note	Found in whole-cell lysate, but absent in culture filtrate, and membrane fraction [PMID: 21920479]
				note	Signal peptide cleavage site verified experimentally [PMID: 21920479]
				note	increases the production of interleukin-6 (IL-6) and IL-1β from macrophages; decreases the secretion of suppressor of cytokine signaling 3 (SOCS3), increased the survival of M. smegmatis trains in diamide induced stress [PMID: 27147522]
				
