1300304	1301215	CDS
				locus_tag	Rv1170
				product	N-acetyl-1-D-myo-inosityl-2-amino-2-deoxy-alpha-D-glucopyranoside deacetylase MshB (GlcNAc-Ins deacetylase)
				note	FunctionalCategory: intermediary metabolism and respiration
				gene	mshB
