1241633	1241956	CDS
				locus_tag	Rv1117
				product	Conserved protein/putative monooxygenase 
                note	FunctionalCategory: conserved hypotheticals
				EC_number	1.14.-.-
				go_function	monooxygenase activity|0004497|ISS
				note	identified by similarity of predicted tertiary structure to PDB 1y0hA,4hl9A
				inference	ab initio prediction:I-TASSER:5.1
				inference	alignment:TM-align:PDB:1y0hA,4hl9A
				go_component	cytosol|0005829|ISS
				note	identified by similarity of predicted tertiary structure to PDB 1x7vC,2gffB
				inference	ab initio prediction:I-TASSER:5.1
				inference	alignment:TM-align:PDB:1x7vC,2gffB
				go_function	catalytic activity|0003824|ISS
				note	identified by similarity of predicted tertiary structure to PDB 1y0hA,3e8oA
				inference	ab initio prediction:I-TASSER:5.1
				inference	alignment:TM-align:PDB:1y0hA,3e8oA
				go_process	oxidation-reduction process|0055114|ISS
				note	identified by similarity of predicted tertiary structure to PDB 1y0hA,2gffB,1x7vC,4hl9A
				inference	ab initio prediction:I-TASSER:5.1
				inference	alignment:TM-align:PDB:1y0hA,2gffB,1x7vC,4hl9A
				go_function	oxidoreductase activity|0016491|ISS
				note	identified by similarity of predicted tertiary structure to PDB 1y0hA,2gffB,1x7vC
				inference	ab initio prediction:I-TASSER:5.1
				inference	alignment:TM-align:PDB:1y0hA,2gffB,1x7vC
				gene	Rv1117
