1383042	1381942	CDS
				locus_tag	Rv1239c
				product	Possible magnesium and cobalt transport transmembrane protein CorA
				note	FunctionalCategory: cell wall and cell processes
				experiment	COORDINATES:N-terminal peptide mass spectrometry [PMID: 26536359]
				gene	corA
