1415840	1413960	CDS
				locus_tag	Rv1266c
				product	Probable transmembrane serine/threonine-protein kinase H PknH (protein kinase H) (STPK H)
				note	FunctionalCategory: regulatory proteins
				gene	pknH
