1437978	1438907	CDS
				locus_tag	Rv1285
				product	Probable sulfate adenylyltransferase subunit 2 CysD
				note	FunctionalCategory: intermediary metabolism and respiration
				experiment	COORDINATES:N-terminal peptide mass spectrometry [PMID: 26536359]
				gene	cysD
