1351191	1352147	CDS
				locus_tag	Rv1207
				product	Dihydropteroate synthase 2 FolP2 (DHPS 2) (dihydropteroate pyrophosphorylase 2)
				note	FunctionalCategory: intermediary metabolism and respiration
				gene	folP2
