1342942	1344219	CDS
				locus_tag	Rv1200
				product	Probable conserved integral membrane transport protein/putative transport protein
				note	FunctionalCategory: cell wall and cell processes
				go_function	transporter activity|0005215|ISS
				note	identified by similarity of predicted tertiary structure to PDB 4j05A
				inference	ab initio prediction:I-TASSER:5.1
				inference	alignment:TM-align:PDB:4j05A
				go_function	transmembrane transporter activity|0022857|ISS
				note	identified by similarity of predicted tertiary structure to PDB 4j05A
				inference	ab initio prediction:I-TASSER:5.1
				inference	alignment:TM-align:PDB:4j05A
				go_component	membrane|0016020|ISS
				note	identified by similarity of predicted tertiary structure to PDB 4j05A
				inference	ab initio prediction:I-TASSER:5.1
				inference	alignment:TM-align:PDB:4j05A
				go_component	integral component of membrane|0016021|ISS
				note	identified by similarity of predicted tertiary structure to PDB 4j05A
				inference	ab initio prediction:I-TASSER:5.1
				inference	alignment:TM-align:PDB:4j05A
				go_process	transmembrane transport|0055085|ISS
				note	identified by similarity of predicted tertiary structure to PDB 4j05A
				inference	ab initio prediction:I-TASSER:5.1
				inference	alignment:TM-align:PDB:4j05A
				
				gene	Rv1200
