1538390	1539211	CDS
				locus_tag	Rv1366
				product	putative diphosphotransferase
				note	FunctionalCategory: conserved hypotheticals
				EC_number	2.7.6.- (Putative)
				note	identified by similarity of predicted tertiary structure to PDB:2be3A,5decA,1vj7A
				inference	ab initio prediction:I-TASSER:5.1
				go_process	guanosine tetraphosphate biosynthetic process|0015970|ISS
				note	identified by similarity of predicted tertiary structure to PDB 5decA
				inference	ab initio prediction:I-TASSER:5.1
				inference	alignment:TM-align:PDB:5decA
				go_function	nucleotide binding|0000166|ISS
				note	identified by similarity of predicted tertiary structure to PDB 5decA
				inference	ab initio prediction:I-TASSER:5.1
				inference	alignment:TM-align:PDB:5decA
				go_function	transferase activity|0016740|ISS
				note	identified by similarity of predicted tertiary structure to PDB 5decA
				inference	ab initio prediction:I-TASSER:5.1
				inference	alignment:TM-align:PDB:5decA
				go_function	metal ion binding|0046872|ISS
				note	identified by similarity of predicted tertiary structure to PDB 5decA
				inference	ab initio prediction:I-TASSER:5.1
				inference	alignment:TM-align:PDB:5decA
				go_process	guanosine tetraphosphate metabolic process|0015969|ISS
				note	identified by similarity of predicted tertiary structure to PDB 5decA
				inference	ab initio prediction:I-TASSER:5.1
				inference	alignment:TM-align:PDB:5decA
				go_function	guanosine-3',5'-bis(diphosphate) 3'-diphosphatase activity|0008893|ISS
				note	identified by similarity of predicted tertiary structure to PDB 5decA
				inference	ab initio prediction:I-TASSER:5.1
				inference	alignment:TM-align:PDB:5decA
				go_function	ATP binding|0005524|ISS
				note	identified by similarity of predicted tertiary structure to PDB 5decA
				inference	ab initio prediction:I-TASSER:5.1
				inference	alignment:TM-align:PDB:5decA
				go_function	GTP binding|0005525|ISS
				note	identified by similarity of predicted tertiary structure to PDB 5decA
				inference	ab initio prediction:I-TASSER:5.1
				inference	alignment:TM-align:PDB:5decA
				go_function	kinase activity|0016301|ISS
				note	identified by similarity of predicted tertiary structure to PDB 5decA
				inference	ab initio prediction:I-TASSER:5.1
				inference	alignment:TM-align:PDB:5decA
				go_process	phosphorylation|0016310|ISS
				note	identified by similarity of predicted tertiary structure to PDB 5decA
				inference	ab initio prediction:I-TASSER:5.1
				inference	alignment:TM-align:PDB:5decA
				go_function	GTP diphosphokinase activity|0008728|ISS
				note	identified by similarity of predicted tertiary structure to PDB 5decA
				inference	ab initio prediction:I-TASSER:5.1
				inference	alignment:TM-align:PDB:5decA
				go_process	response to starvation|0042594|ISS
				note	identified by similarity of predicted tertiary structure to PDB 5decA
				inference	ab initio prediction:I-TASSER:5.1
				inference	alignment:TM-align:PDB:5decA
				go_component	cell wall|0005618|ISS
				note	identified by similarity of predicted tertiary structure to PDB 5decA
				inference	ab initio prediction:I-TASSER:5.1
				inference	alignment:TM-align:PDB:5decA
				go_component	plasma membrane|0005886|ISS
				note	identified by similarity of predicted tertiary structure to PDB 5decA
				inference	ab initio prediction:I-TASSER:5.1
				inference	alignment:TM-align:PDB:5decA
				
				gene	Rv1366
