1461045	1461290	CDS
				locus_tag	Rv1305
				product	Probable ATP synthase C chain AtpE (lipid-binding protein) (dicyclohexylcarbodiimide-binding protein)
				note	FunctionalCategory: intermediary metabolism and respiration
				gene	atpE
