1503394	1504365	CDS
				locus_tag	Rv1336
				product	Cysteine synthase B CysM (CSASE B) (O-phosphoserine sulfhydrylase B) (O-phosphoserine (thiol)-lyase B)
				note	FunctionalCategory: intermediary metabolism and respiration
				gene	cysM
