1491436	1490117	CDS
				locus_tag	Rv1326c
				product	1,4-alpha-glucan branching enzyme GlgB (glycogen branching enzyme)
				note	FunctionalCategory: intermediary metabolism and respiration
				experiment	COORDINATES:N-terminal peptide mass spectrometry [PMID: 26536359]
				experiment	COORDINATES:N-terminal peptide mass spectrometry [PMID: 26536359]
				gene	glgB
