1543359	1544828	CDS
				locus_tag	Rv1371
				product	Probable conserved membrane protein
				note	FunctionalCategory: cell wall and cell processes
				note	Down-regulated in absence of pknF promoter [PMID: 23915284]
				note	Required for growth in mouse spleen [PMID: 14569030]
				
				gene	Rv1371
