1504356	1505078	CDS
				locus_tag	Rv1337
				product	Probable rhomboid protease/integral membrane protein
				experiment	DESCRIPTION:Mutagenesis, expression testing, western blot, cellular fractionation, copy number determination [PMID: 19165721]
				note	FunctionalCategory: cell wall and cell processes
				note	Probably involved in biofilm formation [PMID: 23029216]
				note	Probably involved in ciprofloxacin and novobiocin resistance [PMID: 23029216]
				EC_number	3.4.21.105

				
				gene	Rv1337
