1634627	1630638	CDS
				locus_tag	Rv1450c
				gene	PE_PGRS27
				product	PE-PGRS family protein PE_PGRS27
				note	FunctionalCategory: PE/PPE
				note	found in the mycobacterial cell wall [PMID: 20825248]
				note	highly expressed when SigL is overexpressed [PMID: 16199577]
