1677397	1678542	CDS
				locus_tag	Rv1488
				product	Probable antigen
				experiment	DESCRIPTION:Indirect ELISA [PMID: 26481294] 
				note	FunctionalCategory: cell wall and cell processes
				note	Among the sputum sample tested from 10 patients, this probable seropositive antigen was identified in at least 2 patients [PMID: 26481294]

				
				gene	Rv1488
