1674202	1675011	CDS
				locus_tag	Rv1484
				product	NADH-dependent enoyl-[acyl-carrier-protein] reductase InhA (NADH-dependent enoyl-ACP reductase)
				note	FunctionalCategory: lipid metabolism
				gene	inhA
