
1649526	1650719	CDS
				locus_tag	Rv1462
				product	putative transporter
				note	FunctionalCategory: conserved hypotheticals
				note	identified by similarity of predicted tertiary structure to PDB 4dn7A
				inference	ab initio prediction:I-TASSER:5.1
				inference	alignment:TM-align:PDB:4dn7A
				
				gene	Rv1462
