1611434	1612249	CDS
				locus_tag	Rv1433
				product	Probable l,d-transpeptidase LdtMt3/Probable l,d-transpeptidase LdtMt3
				experiment	DESCRIPTION:Protein purification, enzyme inactivation by carbapenems, mass spectrometry, in vitro cross-linking activity, kinetics of enzyme acylation via spectrofluorometry [PMID: 24041897]
				note	FunctionalCategory: cell wall and cell processes
				note	Inactivated by carbapenems [PMID: 24041897]
				EC_number	2.3.2.-
				ncnote	should have complete EC Number. Recommended to be 2.3.2.B14 by BRENDA, but not yet integrated
				EC_number	2.3.2.- (Probable)
				note	identified by similarity of predicted tertiary structure to PDB:3turA,3vaeA,4jmnA
				inference	ab initio prediction:I-TASSER:5.1
				go_process	peptidoglycan-protein cross-linking|0018104|ISS
				note	identified by similarity of predicted tertiary structure to PDB 4jmnA
				inference	ab initio prediction:I-TASSER:5.1
				inference	alignment:TM-align:PDB:4jmnA
				go_component	periplasmic space|0042597|ISS
				note	identified by similarity of predicted tertiary structure to PDB 4jmnA
				inference	ab initio prediction:I-TASSER:5.1
				inference	alignment:TM-align:PDB:4jmnA
				go_process	peptidoglycan biosynthetic process|0009252|ISS
				note	identified by similarity of predicted tertiary structure to PDB 4jmnA
				inference	ab initio prediction:I-TASSER:5.1
				inference	alignment:TM-align:PDB:4jmnA
				go_process	cell wall organization|0071555|ISS
				note	identified by similarity of predicted tertiary structure to PDB 4jmnA
				inference	ab initio prediction:I-TASSER:5.1
				inference	alignment:TM-align:PDB:4jmnA
				go_function	transferase activity|0016740|ISS
				note	identified by similarity of predicted tertiary structure to PDB 3turA,3vaeA,4jmnA
				inference	ab initio prediction:I-TASSER:5.1
				inference	alignment:TM-align:PDB:3turA,3vaeA,4jmnA
				go_function	transferase activity, transferring acyl groups|0016746|ISS
				note	identified by similarity of predicted tertiary structure to PDB 4jmnA
				inference	ab initio prediction:I-TASSER:5.1
				inference	alignment:TM-align:PDB:4jmnA
				go_process	proteolysis|0006508|ISS
				note	identified by similarity of predicted tertiary structure to PDB 4jmnA
				inference	ab initio prediction:I-TASSER:5.1
				inference	alignment:TM-align:PDB:4jmnA
				go_process	regulation of cell shape|0008360|ISS
				note	identified by similarity of predicted tertiary structure to PDB 4jmnA
				inference	ab initio prediction:I-TASSER:5.1
				inference	alignment:TM-align:PDB:4jmnA
				go_function	peptidoglycan L,D-transpeptidase activity|0071972|ISS
				note	identified by similarity of predicted tertiary structure to PDB 4jmnA
				inference	ab initio prediction:I-TASSER:5.1
				inference	alignment:TM-align:PDB:4jmnA
				go_component	extracellular region|0005576|ISS
				note	identified by similarity of predicted tertiary structure to PDB 4jmnA
				inference	ab initio prediction:I-TASSER:5.1
				inference	alignment:TM-align:PDB:4jmnA
				
				gene	Rv1433
