1720017	1720802	CDS
				locus_tag	Rv1525
				gene	wbbL2
				experiment	DESCRIPTION:in vitro kinase assay; proteome microarray analysis [PMID: 25497094]
				product	Putative rhamnosyl transferase WbbL2
				note	FunctionalCategory: conserved hypotheticals
				note	interacts with c-di-GMP
				note	phosphorylated by PknA
				EC_number	2.4.1.-
				
