1739856	1741247	CDS
				locus_tag	Rv1537
				product	Probable DNA polymerase IV DinX (pol IV 1) (DNA nucleotidyltransferase (DNA-directed))
				note	FunctionalCategory: information pathways
				gene	dinX
