1708871	1709635	CDS
				locus_tag	Rv1517
				product	Conserved hypothetical transmembrane protein
				note	FunctionalCategory: cell wall and cell processes
				note	Regulated by the PhoPR system [PMID: 16573683]
				note    induced and exported in vivo [PMID: 28442606]

				
				gene	Rv1517
