1761009	1761605	CDS
				locus_tag	Rv1556
				product	Possible regulatory protein/putative transcription factor
				note	FunctionalCategory: regulatory proteins
				experiment	COORDINATES:N-terminal peptide mass spectrometry [PMID: 26536359]
				go_function	transcription factor activity, sequence-specific DNA binding|0003700|ISS
				note	identified by similarity of predicted tertiary structure to PDB 2fq4A,2zb9A
				inference	ab initio prediction:I-TASSER:5.1
				inference	alignment:TM-align:PDB:2fq4A,2zb9A
				go_component	cytosol|0005829|ISS
				note	identified by similarity of predicted tertiary structure to PDB 2fq4A,2zb9A
				inference	ab initio prediction:I-TASSER:5.1
				inference	alignment:TM-align:PDB:2fq4A,2zb9A
				go_process	regulation of transcription, DNA-templated|0006355|ISS
				note	identified by similarity of predicted tertiary structure to PDB 2fq4A,2zb9A
				inference	ab initio prediction:I-TASSER:5.1
				inference	alignment:TM-align:PDB:2fq4A,2zb9A
				go_function	transcription regulatory region sequence-specific DNA binding|0000976|ISS
				note	identified by similarity of predicted tertiary structure to PDB 2fq4A,2zb9A
				inference	ab initio prediction:I-TASSER:5.1
				inference	alignment:TM-align:PDB:2fq4A,2zb9A
				go_process	transcription, DNA-templated|0006351|ISS
				note	identified by similarity of predicted tertiary structure to PDB 2fq4A,2zb9A
				inference	ab initio prediction:I-TASSER:5.1
				inference	alignment:TM-align:PDB:2fq4A,2zb9A
				go_function	DNA binding|0003677|ISS
				note	identified by similarity of predicted tertiary structure to PDB 2fq4A,2zb9A
				inference	ab initio prediction:I-TASSER:5.1
				inference	alignment:TM-align:PDB:2fq4A,2zb9A
				
				gene	Rv1556
