1710733	1711002	CDS
				locus_tag	Rv1519
				product	Conserved hypothetical protein
				experiment	DESCRIPTION:in vitro recombinant DNA expression with fluorescent tagging, gel retardation assay [PMID: 16113319]
				experiment	DESCRIPTION:in vivo recombinant DNA expression, RT-PCR, Luciferase assay
				note	FunctionalCategory: conserved hypotheticals
				note	regulated by IdeR, modifies interaction with monocyte-derived macrophages
				
				
				gene	Rv1519
