1760552	1760929	CDS
				locus_tag	Rv1555
				product	Probable fumarate reductase [membrane anchor subunit] FrdD (fumarate dehydrogenase) (fumaric hydrogenase)
				note	FunctionalCategory: intermediary metabolism and respiration
				gene	frdD
