1901047	1901751	CDS
				locus_tag	Rv1676
				experiment	DESCRIPTION:recombinant DNA coexpression study in vitro, mass spectrometry, microarray [PMID: 20060836]
				note	FunctionalCategory: conserved hypotheticals
				note	interacts with a disulfide bond forming protein (DsbF) transcribed from the same operon
				product	putative peroxiredoxin
				EC_number	1.11.1.15
				
				gene	Rv1676
