1894230	1893577	CDS
				locus_tag	Rv1667c
				product	Probable second part of macrolide-transport ATP-binding protein ABC transporter
				note	FunctionalCategory: cell wall and cell processes
				gene	Rv1667c
