2017476	2015302	CDS
				locus_tag	Rv1781c
				product	Probable 4-alpha-glucanotransferase MalQ (amylomaltase) (disproportionating enzyme) (D-enzyme)
				note	FunctionalCategory: intermediary metabolism and respiration
				gene	malQ
