2032240	2033751	CDS
				locus_tag	Rv1795
				product	ESX conserved component EccD5. ESX-5 type VII secretion system protein. Probable membrane protein.
				note	FunctionalCategory: cell wall and cell processes
				gene	eccD5
