1992577	1989833	CDS
				locus_tag	Rv1759c
				gene	wag22
				product	Antigen/PE-PGRS family protein Wag22
				experiment      DESCRIPTION:Real-time PCR, immunoelectron microscopy, in vivo interferon-gamma production via stimulation of lymph nodes, lungs and spleen in mouse, ELISA [PMID: 17399860]
				experiment	DESCRIPTION:Southern blot assay, recombinant expression and purification, SDS-page and immunoblotting [PMID: 10627046]
				experiment	EXISTENCE:Liquid chromatography-mass spectrometry [PMID: 21085642]
				experiment	EXISTENCE:2-dimensional gel electrophoresis, liquid chromatography mass spectrometry [PMID: 17443846]
				note	FunctionalCategory: PE/PPE
				note	Expressed during stable chronic infection and localized in the cell wall of phagocytosed bacilli [PMID: 17399860]
				note	Fibronectin (Fn)-binding protein [PMID: 10627046]
				note	Expressed in vivo in guinea pig lung at both 30 and 90 days post-infection [PMID: 21085642]
				note	Probably secreted, found in culture filtrate [PMID: 17443846]
				
				
