1960487	1959855	CDS
				locus_tag	Rv1733c
				product	T-cell Antigen
				experiment	DESCRIPTION:IFN-γ ELISA,in vivo infection, in vivo cytotoxicity assay [PMID: 26202436]
				note	FunctionalCategory: cell wall and cell processes
				note 	Potential vaccine candidate [PMID: 24498941]
				note	Latency antigen which is highly expressed in dormant conditions [PMID: 26202436]
				note	Frequently recognized by T cell response in latent TB infected patients [PMID: 28255560]
				note	Induces strong IFN-gamma responses in skin test positive individuals, suggesting immune response against this antigen may contribute to the control of latent Mtb infection. [PMID: 27780773]
                                note    possible component of dormancy regulating DosR regulon [PMID: 28261197]


				
				gene	Rv1733c
