2135867	2134890	CDS
				locus_tag	Rv1886c
				product	Secreted antigen 85-B FbpB (85B) (antigen 85 complex B) (mycolyl transferase 85B) (fibronectin-binding protein B) (extracellular alpha-antigen)
				note	FunctionalCategory: lipid metabolism
				gene	fbpB
