2141869	2140739	CDS
				locus_tag	Rv1894c
				gene	nmo1
				product	nitronate monooxygenase
				experiment	DESCRIPTION:protein purification, in vitro enzymatic activity and inhibition assays, gene expression[PMID: 23408846]
				note	FunctionalCategory: conserved hypotheticals
				note	predicted to be flavin-dependent
				note	conserved histidine residue at position 199 is critical for enzyme function
				EC_number	1.13.12.16

				
