2107736	2108713	CDS
				locus_tag	Rv1860
				product	Alanine and proline rich secreted protein Apa (fibronectin attachment protein) (immunogenic protein MPT32) (antigen MPT-32) (45-kDa glycoprotein) (45/47 kDa antigen)
				note	FunctionalCategory: cell wall and cell processes
				gene	apa
