2138617	2138444	CDS
				locus_tag	Rv1888A
				product	Conserved hypothetical protein
				note	FunctionalCategory: conserved hypotheticals
				note	Likely a non-functional fragment of a SAM-dependent methyltransferase
				go_function	methyltransferase activity|0008168|ISS
				note	identified by similarity of predicted tertiary structure to PDB 2ckdA
				inference	ab initio prediction:I-TASSER:5.1
				inference	alignment:TM-align:PDB:2ckdA
				go_function	transferase activity|0016740|ISS
				note	identified by similarity of predicted tertiary structure to PDB 2ckdA
				inference	ab initio prediction:I-TASSER:5.1
				inference	alignment:TM-align:PDB:2ckdA
				go_process	methylation|0032259|ISS
				note	identified by similarity of predicted tertiary structure to PDB 2ckdA
				inference	ab initio prediction:I-TASSER:5.1
				inference	alignment:TM-align:PDB:2ckdA
				
				gene	Rv1888A
