2071036	2071914	CDS
				locus_tag	Rv1825
				product	Conserved protein
				note	FunctionalCategory: conserved hypotheticals
				experiment	COORDINATES:N-terminal peptide mass spectrometry [PMID: 26536359]

				
				gene	Rv1825
