2174067	2175182	CDS
				locus_tag	Rv1922
				product	Putative aminopeptidase/putative beta-lactamase
				note	FunctionalCategory: cell wall and cell processes
				note	putative Peptidase. [PMID: 27324481]
				EC_number	3.4.11.- (Putative)
				note	identified by similarity of predicted tertiary structure to PDB:1ei5A
				inference	ab initio prediction:I-TASSER:5.1
				EC_number	3.5.2.- (Putative)
				note	identified by similarity of predicted tertiary structure to PDB:2zc7A,3wrtA,2wzxA,5evlA,5eviA,4netA,1zkjA,5e2gA,2qz6A,5e2hA,2qmiA,3o3vA
				inference	ab initio prediction:I-TASSER:5.1
				EC_number	3.1.1.- (Putative)
				note	identified by similarity of predicted tertiary structure to PDB:4iviA
				inference	ab initio prediction:I-TASSER:5.1
				go_function	aminopeptidase activity|0004177|ISS
				note	identified by similarity of predicted tertiary structure to PDB 1ei5A
				inference	ab initio prediction:I-TASSER:5.1
				inference	alignment:TM-align:PDB:1ei5A
				go_function	beta-lactamase activity|0008800|ISS
				note	identified by similarity of predicted tertiary structure to PDB 2zc7A,3wrtA,2wzxA,5evlA,5eviA,4netA,1zkjA,5e2gA,2qz6A,5e2hA,3o3vA
				inference	ab initio prediction:I-TASSER:5.1
				inference	alignment:TM-align:PDB:2zc7A,3wrtA,2wzxA,5evlA,5eviA,4netA,1zkjA,5e2gA,2qz6A,5e2hA,3o3vA
				go_process	antibiotic catabolic process|0017001|ISS
				note	identified by similarity of predicted tertiary structure to PDB 2zc7A,3wrtA,2wzxA,5evlA,5eviA,4netA,1zkjA,5e2gA,2qz6A,5e2hA,3o3vA
				inference	ab initio prediction:I-TASSER:5.1
				inference	alignment:TM-align:PDB:2zc7A,3wrtA,2wzxA,5evlA,5eviA,4netA,1zkjA,5e2gA,2qz6A,5e2hA,3o3vA
				go_process	response to antibiotic|0046677|ISS
				note	identified by similarity of predicted tertiary structure to PDB 2zc7A,3wrtA,2wzxA,4netA,1zkjA,5e2gA,2qz6A,5e2hA
				inference	ab initio prediction:I-TASSER:5.1
				inference	alignment:TM-align:PDB:2zc7A,3wrtA,2wzxA,4netA,1zkjA,5e2gA,2qz6A,5e2hA
				go_component	periplasmic space|0042597|ISS
				note	identified by similarity of predicted tertiary structure to PDB 2wzxA,2qz6A
				inference	ab initio prediction:I-TASSER:5.1
				inference	alignment:TM-align:PDB:2wzxA,2qz6A
				go_component	outer membrane-bounded periplasmic space|0030288|ISS
				note	identified by similarity of predicted tertiary structure to PDB 2zc7A,3wrtA,2wzxA,5evlA,5eviA,4netA,1zkjA,5e2gA,2qz6A,5e2hA,3o3vA
				inference	ab initio prediction:I-TASSER:5.1
				inference	alignment:TM-align:PDB:2zc7A,3wrtA,2wzxA,5evlA,5eviA,4netA,1zkjA,5e2gA,2qz6A,5e2hA,3o3vA
				go_function	peptidase activity|0008233|ISS
				note	identified by similarity of predicted tertiary structure to PDB 1ei5A
				inference	ab initio prediction:I-TASSER:5.1
				inference	alignment:TM-align:PDB:1ei5A
				go_function	nucleotide binding|0000166|ISS
				note	identified by similarity of predicted tertiary structure to PDB 1zkjA
				inference	ab initio prediction:I-TASSER:5.1
				inference	alignment:TM-align:PDB:1zkjA
				go_process	proteolysis|0006508|ISS
				note	identified by similarity of predicted tertiary structure to PDB 1ei5A
				inference	ab initio prediction:I-TASSER:5.1
				inference	alignment:TM-align:PDB:1ei5A
				go_function	metal ion binding|0046872|ISS
				note	identified by similarity of predicted tertiary structure to PDB 3wrtA,1zkjA
				inference	ab initio prediction:I-TASSER:5.1
				inference	alignment:TM-align:PDB:3wrtA,1zkjA
				go_process	regulation of beta-lactamase activity|0033252|ISS
				note	identified by similarity of predicted tertiary structure to PDB 2wzxA
				inference	ab initio prediction:I-TASSER:5.1
				inference	alignment:TM-align:PDB:2wzxA
				go_function	hydrolase activity|0016787|ISS
				note	identified by similarity of predicted tertiary structure to PDB 1ei5A,2zc7A,3wrtA,2wzxA,4netA,1zkjA,5e2gA,2qz6A,5e2hA
				inference	ab initio prediction:I-TASSER:5.1
				inference	alignment:TM-align:PDB:1ei5A,2zc7A,3wrtA,2wzxA,4netA,1zkjA,5e2gA,2qz6A,5e2hA
				
				gene	Rv1922
