2161566	2162762	CDS
				locus_tag	Rv1916
				product	Probable isocitrate lyase AceAb [second part] (isocitrase) (isocitratase) (Icl)
				note	FunctionalCategory: intermediary metabolism and respiration
				gene	aceAb
