2208507	2209322	CDS
				locus_tag	Rv1965
				gene	yrbE3B
				product	Conserved hypothetical integral membrane protein YrbE3B
				note	FunctionalCategory: virulence, detoxification, adaptation
				note    induced and exported in vivo [PMID: 28442606]
				
