2195989	2197353	CDS
				locus_tag	Rv1945
				product	Conserved hypothetical protein
                                note    FunctionalCategory: insertion seqs and phages
                                note    Bound and likely regulated by LexA, an activator of DNA damage response proteins [PMID: 14617159]


				
				gene	Rv1945
