2308976	2308131	CDS
				locus_tag	Rv2051c
				product	Polyprenol-monophosphomannose synthase Ppm1
				note	FunctionalCategory: cell wall and cell processes
				experiment	COORDINATES:N-terminal peptide mass spectrometry [PMID: 26536359]
				gene	ppm1
