2278932	2278498	CDS
				locus_tag	Rv2031c
				product	Heat shock protein HspX (alpha-crystallin homolog) (14 kDa antigen) (HSP16.3)
				note	FunctionalCategory: virulence, detoxification, adaptation
				gene	hspX
