2251883	2250996	CDS
				locus_tag	Rv2005c
				product	putative universal stress protein family protein/T-cell antigen/putative metal ion transporter
				experiment	DESCRIPTION:recombinant protein purification, cell culture assays, enzyme-linked immunosorbent assay (ELISA) [PMID: 19440342]
				inference	ab initio prediction:molecular docking [PMID: 26436944]
				inference	alignment:Clustal [PMID: 20541977]
				note	FunctionalCategory: virulence, detoxification, adaptation
				note	T-cell antigen [PMID: 19440342]
				note	molecular docking studies predict the Usp domain to bind amikacin and kanamycin [PMID: 26436944] 
				note	predicted to be DosR regulated [PMID: 20541977]
				note    over expressed in amikacin and kanamycin resistant isolates [PMID: 27895634]
                                note    possible component of dormancy regulating DosR regulon [PMID: 28261197]

				note	identified by similarity of predicted tertiary structure to PDB 3g40A,3j1zP
				inference	ab initio prediction:I-TASSER:5.1
				inference	alignment:TM-align:PDB:3g40A,3j1zP	
				
				gene	Rv2005c
