2307821	2308156	CDS
				gene	rbpA
				locus_tag	Rv2050
				product	RNA polymerase-binding protein A (RbpA)
				experiment	DESCRIPTION: in vivo recombinant DNA expression, NMR, yeast two-hybrid assay, interaction assay [PMID: 23548911]
				experiment	DESCRIPTION: in vitro transcription, electrophoretic mobility shift assay, protein purification, western blotting, FeBABE conjugation [PMID: 22570422]
				experiment	DESCRIPTION: protein purification and expression, In vitro aborted transcription assay, stopped-flow fluorescence assay [PMID: 27342278]
				note	FunctionalCategory: conserved hypotheticals
				note	stabilizes σA-containing RNA polymerase holoenzyme [PMID: 22570422]
				note	Binds near the upstream edge of -10 element and likely facilitates DNA bending and impedes transcription bubble collapse. [PMID: 28067618]
				note	Binding affinity specific to specific to σA and σB [PMID: 27342278] 
				note	Binds cooperatively with carD to stabilize open-complex formation more quickly than either factor bound alone [PMID: 27342278]
