2437941	2439140	CDS
				locus_tag	Rv2176
				product	Probable transmembrane serine/threonine-protein kinase L PknL (protein kinase L) (STPK L)
				note	FunctionalCategory: regulatory proteins
				gene	pknL
