2434847	2435905	CDS
				locus_tag	Rv2173
				product	Probable geranylgeranyl pyrophosphate synthetase IdsA2 (ggppsase) (GGPP synthetase) (geranylgeranyl diphosphate synthase)
				note	FunctionalCategory: lipid metabolism
				gene	idsA2
