2404521	2404165	CDS
				locus_tag	Rv2144c
				product	Probable transmembrane protein
				note	FunctionalCategory: cell wall and cell processes
				note    induced and exported in vivo [PMID: 28442606]

				
				gene	Rv2144c
