2396838	2396008	CDS
				locus_tag	Rv2136c
				product	Possible conserved transmembrane protein
				note	FunctionalCategory: cell wall and cell processes
				note	not involved in acid resistance in TB [PMID: 21778115]
				
				gene	Rv2136c
