2428238	2427084	CDS
				locus_tag	Rv2164c
				product	Probable conserved proline rich membrane protein
				note	FunctionalCategory: cell wall and cell processes
                                note    Up regulated in otsB2 mutant strain (trehalose-6-phosphate phosphatase silenced strain) [PMID: 27936238]

				
				gene	Rv2164c
