2463652	2463233	CDS
				locus_tag	Rv2199c
				product	putative glycoprotein
				experiment	DESCRIPTION: affinity two-phase partitioning, proteolytic digestion, Mass spectrometry, MS/MS [PMID: 22053987]
				note	FunctionalCategory: cell wall and cell processes
				note	highly enriched in WGA affinity fraction [PMID: 22053987]
				
				gene	Rv2199c
