2435909	2437459	CDS
				locus_tag	Rv2174
				product	Alpha(1->6)mannosyltransferase. Possible conserved integral membrane protein.
				note	FunctionalCategory: cell wall and cell processes
				experiment	COORDINATES:N-terminal peptide mass spectrometry [PMID: 26536359]
				gene	mptA
