2512539	2515244	CDS
				locus_tag	Rv2241
				product	Pyruvate dehydrogenase E1 component AceE (pyruvate decarboxylase) (pyruvate dehydrogenase) (pyruvic dehydrogenase)
				note	FunctionalCategory: intermediary metabolism and respiration
				gene	aceE
