2546102	2546431	CDS
				locus_tag	Rv2273
				product	Probable conserved transmembrane protein
				note	FunctionalCategory: cell wall and cell processes
				note    induced and exported in vivo [PMID: 28442606]
				
				gene	Rv2273
