2533330	2533965	CDS
				locus_tag	Rv2260
				product	putative dioxygenase
				note	FunctionalCategory: conserved hypotheticals

				EC_number	1.13.11.- (Putative)
				note	identified by similarity of predicted tertiary structure to PDB:4chlA
				inference	ab initio prediction:I-TASSER:5.1
				go_function	oxidoreductase activity|0016491|ISS
				note	identified by similarity of predicted tertiary structure to PDB 4chlA
				inference	ab initio prediction:I-TASSER:5.1
				inference	alignment:TM-align:PDB:4chlA
				go_component	cytoplasm|0005737|ISS
				note	identified by similarity of predicted tertiary structure to PDB 4chlA
				inference	ab initio prediction:I-TASSER:5.1
				inference	alignment:TM-align:PDB:4chlA
				go_component	nucleus|0005634|ISS
				note	identified by similarity of predicted tertiary structure to PDB 4chlA
				inference	ab initio prediction:I-TASSER:5.1
				inference	alignment:TM-align:PDB:4chlA
				go_function	sulfur dioxygenase activity|0050313|ISS
				note	identified by similarity of predicted tertiary structure to PDB 4chlA
				inference	ab initio prediction:I-TASSER:5.1
				inference	alignment:TM-align:PDB:4chlA
				go_component	mitochondrion|0005739|ISS
				note	identified by similarity of predicted tertiary structure to PDB 4chlA
				inference	ab initio prediction:I-TASSER:5.1
				inference	alignment:TM-align:PDB:4chlA
				go_component	nucleoplasm|0005654|ISS
				note	identified by similarity of predicted tertiary structure to PDB 4chlA
				inference	ab initio prediction:I-TASSER:5.1
				inference	alignment:TM-align:PDB:4chlA
				go_process	glutathione metabolic process|0006749|ISS
				note	identified by similarity of predicted tertiary structure to PDB 4chlA
				inference	ab initio prediction:I-TASSER:5.1
				inference	alignment:TM-align:PDB:4chlA
				go_component	mitochondrial matrix|0005759|ISS
				note	identified by similarity of predicted tertiary structure to PDB 4chlA
				inference	ab initio prediction:I-TASSER:5.1
				inference	alignment:TM-align:PDB:4chlA
				go_function	iron ion binding|0005506|ISS
				note	identified by similarity of predicted tertiary structure to PDB 4chlA
				inference	ab initio prediction:I-TASSER:5.1
				inference	alignment:TM-align:PDB:4chlA
				go_function	metal ion binding|0046872|ISS
				note	identified by similarity of predicted tertiary structure to PDB 4chlA
				inference	ab initio prediction:I-TASSER:5.1
				inference	alignment:TM-align:PDB:4chlA
				go_process	sulfide oxidation, using sulfide:quinone oxidoreductase|0070221|ISS
				note	identified by similarity of predicted tertiary structure to PDB 4chlA
				inference	ab initio prediction:I-TASSER:5.1
				inference	alignment:TM-align:PDB:4chlA
				go_process	oxidation-reduction process|0055114|ISS
				note	identified by similarity of predicted tertiary structure to PDB 4chlA
				inference	ab initio prediction:I-TASSER:5.1
				inference	alignment:TM-align:PDB:4chlA
				go_function	dioxygenase activity|0051213|ISS
				note	identified by similarity of predicted tertiary structure to PDB 4chlA
				inference	ab initio prediction:I-TASSER:5.1
				inference	alignment:TM-align:PDB:4chlA
				go_process	hydrogen sulfide metabolic process|0070813|ISS
				note	identified by similarity of predicted tertiary structure to PDB 4chlA
				inference	ab initio prediction:I-TASSER:5.1
				inference	alignment:TM-align:PDB:4chlA
				
				gene	Rv2260
