2569082	2570053	CDS
				locus_tag	Rv2298
				product	Conserved protein/putative aldo-keto reductase
				experiment 	DESCRIPTION:Mass spectrometry identification [PMID: 20975714]
				note	FunctionalCategory: conserved hypotheticals
				note	possible methylglyoxal reductase, glyoxylase, aldo/ketoreductase

				EC_number	1.3.1.- (Putative)
				note	identified by similarity of predicted tertiary structure to PDB:3g1rA
				inference	ab initio prediction:I-TASSER:5.1
				go_function	steroid binding|0005496|ISS
				note	identified by similarity of predicted tertiary structure to PDB 3g1rA
				inference	ab initio prediction:I-TASSER:5.1
				inference	alignment:TM-align:PDB:3g1rA
				go_process	oxidation-reduction process|0055114|ISS
				note	identified by similarity of predicted tertiary structure to PDB 3g1rA
				inference	ab initio prediction:I-TASSER:5.1
				inference	alignment:TM-align:PDB:3g1rA
				go_component	cytosol|0005829|ISS
				note	identified by similarity of predicted tertiary structure to PDB 3g1rA
				inference	ab initio prediction:I-TASSER:5.1
				inference	alignment:TM-align:PDB:3g1rA
				go_function	aldo-keto reductase (NADP) activity|0004033|ISS
				note	identified by similarity of predicted tertiary structure to PDB 3g1rA
				inference	ab initio prediction:I-TASSER:5.1
				inference	alignment:TM-align:PDB:3g1rA
				go_process	lipid catabolic process|0016042|ISS
				note	identified by similarity of predicted tertiary structure to PDB 3g1rA
				inference	ab initio prediction:I-TASSER:5.1
				inference	alignment:TM-align:PDB:3g1rA
				go_process	lipid metabolic process|0006629|ISS
				note	identified by similarity of predicted tertiary structure to PDB 3g1rA
				inference	ab initio prediction:I-TASSER:5.1
				inference	alignment:TM-align:PDB:3g1rA
				go_function	delta4-3-oxosteroid 5beta-reductase activity|0047787|ISS
				note	identified by similarity of predicted tertiary structure to PDB 3g1rA
				inference	ab initio prediction:I-TASSER:5.1
				inference	alignment:TM-align:PDB:3g1rA
				go_process	bile acid catabolic process|0030573|ISS
				note	identified by similarity of predicted tertiary structure to PDB 3g1rA
				inference	ab initio prediction:I-TASSER:5.1
				inference	alignment:TM-align:PDB:3g1rA
				go_process	bile acid biosynthetic process|0006699|ISS
				note	identified by similarity of predicted tertiary structure to PDB 3g1rA
				inference	ab initio prediction:I-TASSER:5.1
				inference	alignment:TM-align:PDB:3g1rA
				go_function	oxidoreductase activity|0016491|ISS
				note	identified by similarity of predicted tertiary structure to PDB 3g1rA
				inference	ab initio prediction:I-TASSER:5.1
				inference	alignment:TM-align:PDB:3g1rA
				go_component	cytoplasm|0005737|ISS
				note	identified by similarity of predicted tertiary structure to PDB 3g1rA
				inference	ab initio prediction:I-TASSER:5.1
				inference	alignment:TM-align:PDB:3g1rA
				go_process	androgen metabolic process|0008209|ISS
				note	identified by similarity of predicted tertiary structure to PDB 3g1rA
				inference	ab initio prediction:I-TASSER:5.1
				inference	alignment:TM-align:PDB:3g1rA
				go_process	C21-steroid hormone metabolic process|0008207|ISS
				note	identified by similarity of predicted tertiary structure to PDB 3g1rA
				inference	ab initio prediction:I-TASSER:5.1
				inference	alignment:TM-align:PDB:3g1rA
				go_process	steroid metabolic process|0008202|ISS
				note	identified by similarity of predicted tertiary structure to PDB 3g1rA
				inference	ab initio prediction:I-TASSER:5.1
				inference	alignment:TM-align:PDB:3g1rA
				go_component	extracellular exosome|0070062|ISS
				note	identified by similarity of predicted tertiary structure to PDB 3g1rA
				inference	ab initio prediction:I-TASSER:5.1
				inference	alignment:TM-align:PDB:3g1rA
				go_process	cholesterol catabolic process|0006707|ISS
				note	identified by similarity of predicted tertiary structure to PDB 3g1rA
				inference	ab initio prediction:I-TASSER:5.1
				inference	alignment:TM-align:PDB:3g1rA
				go_process	digestion|0007586|ISS
				note	identified by similarity of predicted tertiary structure to PDB 3g1rA
				inference	ab initio prediction:I-TASSER:5.1
				inference	alignment:TM-align:PDB:3g1rA
				
				gene	Rv2298
