2647088	2646747	CDS
				locus_tag	Rv2365c
				product	putative cyclic amidine deaminase
				note	FunctionalCategory: conserved hypotheticals
				EC_number	3.5.4.- (Putative)
				note	identified by similarity of predicted tertiary structure to PDB:2z3iA,3dmoA,3ijfX,1cttA,4eg2A,1wwrC,3oj6A,2hxvA,3b8fB,2fr6A,1jtkA,1r5tA
				inference	ab initio prediction:I-TASSER:5.1
				go_function	oxidoreductase activity|0016491|ISS
				note	identified by similarity of predicted tertiary structure to PDB 2hxvA
				inference	ab initio prediction:I-TASSER:5.1
				inference	alignment:TM-align:PDB:2hxvA
				go_function	blasticidin-S deaminase activity|0047711|ISS
				note	identified by similarity of predicted tertiary structure to PDB 2z3iA,3oj6A
				inference	ab initio prediction:I-TASSER:5.1
				inference	alignment:TM-align:PDB:2z3iA,3oj6A
				go_process	protein homotetramerization|0051289|ISS
				note	identified by similarity of predicted tertiary structure to PDB 2fr6A
				inference	ab initio prediction:I-TASSER:5.1
				inference	alignment:TM-align:PDB:2fr6A
				go_function	tRNA-specific adenosine deaminase activity|0008251|ISS
				note	identified by similarity of predicted tertiary structure to PDB 1wwrC
				inference	ab initio prediction:I-TASSER:5.1
				inference	alignment:TM-align:PDB:1wwrC
				go_process	RNA modification|0009451|ISS
				note	identified by similarity of predicted tertiary structure to PDB 2hxvA
				inference	ab initio prediction:I-TASSER:5.1
				inference	alignment:TM-align:PDB:2hxvA
				go_function	5-amino-6-(5-phosphoribosylamino)uracil reductase activity|0008703|ISS
				note	identified by similarity of predicted tertiary structure to PDB 2hxvA
				inference	ab initio prediction:I-TASSER:5.1
				inference	alignment:TM-align:PDB:2hxvA
				go_process	response to antibiotic|0046677|ISS
				note	identified by similarity of predicted tertiary structure to PDB 2z3iA,3oj6A
				inference	ab initio prediction:I-TASSER:5.1
				inference	alignment:TM-align:PDB:2z3iA,3oj6A
				go_function	zinc ion binding|0008270|ISS
				note	identified by similarity of predicted tertiary structure to PDB 3dmoA,3ijfX,1cttA,4eg2A,1wwrC,3oj6A,2hxvA,2fr6A,1jtkA,1r5tA
				inference	ab initio prediction:I-TASSER:5.1
				inference	alignment:TM-align:PDB:3dmoA,3ijfX,1cttA,4eg2A,1wwrC,3oj6A,2hxvA,2fr6A,1jtkA,1r5tA
				go_function	pyrimidine nucleoside binding|0001884|ISS
				note	identified by similarity of predicted tertiary structure to PDB 1cttA
				inference	ab initio prediction:I-TASSER:5.1
				inference	alignment:TM-align:PDB:1cttA
				go_process	negative regulation of nucleotide metabolic process|0045980|ISS
				note	identified by similarity of predicted tertiary structure to PDB 2fr6A
				inference	ab initio prediction:I-TASSER:5.1
				inference	alignment:TM-align:PDB:2fr6A
				go_function	deoxycytidine deaminase activity|0047844|ISS
				note	identified by similarity of predicted tertiary structure to PDB 3ijfX,1cttA
				inference	ab initio prediction:I-TASSER:5.1
				inference	alignment:TM-align:PDB:3ijfX,1cttA
				go_component	cytoplasm|0005737|ISS
				note	identified by similarity of predicted tertiary structure to PDB 1r5tA
				inference	ab initio prediction:I-TASSER:5.1
				inference	alignment:TM-align:PDB:1r5tA
				go_process	tRNA wobble adenosine to inosine editing|0002100|ISS
				note	identified by similarity of predicted tertiary structure to PDB 1wwrC
				inference	ab initio prediction:I-TASSER:5.1
				inference	alignment:TM-align:PDB:1wwrC
				go_process	negative regulation of cell growth|0030308|ISS
				note	identified by similarity of predicted tertiary structure to PDB 2fr6A
				inference	ab initio prediction:I-TASSER:5.1
				inference	alignment:TM-align:PDB:2fr6A
				go_component	nucleus|0005634|ISS
				note	identified by similarity of predicted tertiary structure to PDB 1r5tA
				inference	ab initio prediction:I-TASSER:5.1
				inference	alignment:TM-align:PDB:1r5tA
				go_function	nucleotide binding|0000166|ISS
				note	identified by similarity of predicted tertiary structure to PDB 2hxvA
				inference	ab initio prediction:I-TASSER:5.1
				inference	alignment:TM-align:PDB:2hxvA
				go_function	deaminase activity|0019239|ISS
				note	identified by similarity of predicted tertiary structure to PDB 1wwrC,2hxvA
				inference	ab initio prediction:I-TASSER:5.1
				inference	alignment:TM-align:PDB:1wwrC,2hxvA
				go_function	nucleoside binding|0001882|ISS
				note	identified by similarity of predicted tertiary structure to PDB 2fr6A
				inference	ab initio prediction:I-TASSER:5.1
				inference	alignment:TM-align:PDB:2fr6A
				go_process	pyrimidine nucleobase salvage|0043100|ISS
				note	identified by similarity of predicted tertiary structure to PDB 3ijfX
				inference	ab initio prediction:I-TASSER:5.1
				inference	alignment:TM-align:PDB:3ijfX
				go_function	metal ion binding|0046872|ISS
				note	identified by similarity of predicted tertiary structure to PDB 2z3iA,3dmoA,3ijfX,1cttA,4eg2A,1wwrC,3oj6A,2hxvA,2fr6A,1jtkA,1r5tA
				inference	ab initio prediction:I-TASSER:5.1
				inference	alignment:TM-align:PDB:2z3iA,3dmoA,3ijfX,1cttA,4eg2A,1wwrC,3oj6A,2hxvA,2fr6A,1jtkA,1r5tA
				go_function	identical protein binding|0042802|ISS
				note	identified by similarity of predicted tertiary structure to PDB 1cttA,2fr6A,1r5tA
				inference	ab initio prediction:I-TASSER:5.1
				inference	alignment:TM-align:PDB:1cttA,2fr6A,1r5tA
				go_function	protein homodimerization activity|0042803|ISS
				note	identified by similarity of predicted tertiary structure to PDB 2fr6A
				inference	ab initio prediction:I-TASSER:5.1
				inference	alignment:TM-align:PDB:2fr6A
				go_function	hydrolase activity|0016787|ISS
				note	identified by similarity of predicted tertiary structure to PDB 2z3iA,3dmoA,3ijfX,1cttA,4eg2A,1wwrC,3oj6A,2hxvA,2fr6A,1jtkA,1r5tA
				inference	ab initio prediction:I-TASSER:5.1
				inference	alignment:TM-align:PDB:2z3iA,3dmoA,3ijfX,1cttA,4eg2A,1wwrC,3oj6A,2hxvA,2fr6A,1jtkA,1r5tA
				go_process	antibiotic catabolic process|0017001|ISS
				note	identified by similarity of predicted tertiary structure to PDB 3b8fB
				inference	ab initio prediction:I-TASSER:5.1
				inference	alignment:TM-align:PDB:3b8fB
				go_process	tRNA processing|0008033|ISS
				note	identified by similarity of predicted tertiary structure to PDB 1wwrC
				inference	ab initio prediction:I-TASSER:5.1
				inference	alignment:TM-align:PDB:1wwrC
				go_function	cytidine deaminase activity|0004126|ISS
				note	identified by similarity of predicted tertiary structure to PDB 3dmoA,3ijfX,1cttA,4eg2A,2fr6A,1jtkA,1r5tA
				inference	ab initio prediction:I-TASSER:5.1
				inference	alignment:TM-align:PDB:3dmoA,3ijfX,1cttA,4eg2A,2fr6A,1jtkA,1r5tA
				go_process	uridine biosynthetic process|0046109|ISS
				note	identified by similarity of predicted tertiary structure to PDB 3ijfX
				inference	ab initio prediction:I-TASSER:5.1
				inference	alignment:TM-align:PDB:3ijfX
				go_function	catalytic activity|0003824|ISS
				note	identified by similarity of predicted tertiary structure to PDB 2z3iA,3dmoA,3ijfX,1cttA,4eg2A,1wwrC,3oj6A,2hxvA,3b8fB,2fr6A,1jtkA,1r5tA
				inference	ab initio prediction:I-TASSER:5.1
				inference	alignment:TM-align:PDB:2z3iA,3dmoA,3ijfX,1cttA,4eg2A,1wwrC,3oj6A,2hxvA,3b8fB,2fr6A,1jtkA,1r5tA
				go_component	plasma membrane|0005886|ISS
				note	identified by similarity of predicted tertiary structure to PDB 3ijfX
				inference	ab initio prediction:I-TASSER:5.1
				inference	alignment:TM-align:PDB:3ijfX
				go_process	nucleobase-containing small molecule interconversion|0015949|ISS
				note	identified by similarity of predicted tertiary structure to PDB 1cttA
				inference	ab initio prediction:I-TASSER:5.1
				inference	alignment:TM-align:PDB:1cttA
				go_process	riboflavin biosynthetic process|0009231|ISS
				note	identified by similarity of predicted tertiary structure to PDB 2hxvA
				inference	ab initio prediction:I-TASSER:5.1
				inference	alignment:TM-align:PDB:2hxvA
				go_function	diaminohydroxyphosphoribosylaminopyrimidine deaminase activity|0008835|ISS
				note	identified by similarity of predicted tertiary structure to PDB 2hxvA
				inference	ab initio prediction:I-TASSER:5.1
				inference	alignment:TM-align:PDB:2hxvA
				go_process	oxidation-reduction process|0055114|ISS
				note	identified by similarity of predicted tertiary structure to PDB 2hxvA
				inference	ab initio prediction:I-TASSER:5.1
				inference	alignment:TM-align:PDB:2hxvA
				go_process	pyrimidine-containing compound salvage|0008655|ISS
				note	identified by similarity of predicted tertiary structure to PDB 4eg2A,1r5tA
				inference	ab initio prediction:I-TASSER:5.1
				inference	alignment:TM-align:PDB:4eg2A,1r5tA
				go_component	cytosol|0005829|ISS
				note	identified by similarity of predicted tertiary structure to PDB 3ijfX,1cttA,4eg2A,2fr6A,1jtkA,1r5tA
				inference	ab initio prediction:I-TASSER:5.1
				inference	alignment:TM-align:PDB:3ijfX,1cttA,4eg2A,2fr6A,1jtkA,1r5tA
				go_process	cytidine catabolic process|0006216|ISS
				note	identified by similarity of predicted tertiary structure to PDB 1r5tA
				inference	ab initio prediction:I-TASSER:5.1
				inference	alignment:TM-align:PDB:1r5tA
				go_function	hydrolase activity, acting on carbon-nitrogen (but not peptide) bonds, in cyclic amidines|0016814|ISS
				note	identified by similarity of predicted tertiary structure to PDB 3b8fB
				inference	ab initio prediction:I-TASSER:5.1
				inference	alignment:TM-align:PDB:3b8fB
				go_process	cytidine deamination|0009972|ISS
				note	identified by similarity of predicted tertiary structure to PDB 3dmoA,3ijfX,1cttA,4eg2A,2fr6A,1jtkA,1r5tA
				inference	ab initio prediction:I-TASSER:5.1
				inference	alignment:TM-align:PDB:3dmoA,3ijfX,1cttA,4eg2A,2fr6A,1jtkA,1r5tA
				go_process	deoxycytidine catabolic process|0006217|ISS
				note	identified by similarity of predicted tertiary structure to PDB 1cttA,1r5tA
				inference	ab initio prediction:I-TASSER:5.1
				inference	alignment:TM-align:PDB:1cttA,1r5tA
				
				gene	Rv2365c
