2573008	2572076	CDS
				locus_tag	Rv2300c
				product	Conserved protein/putative phosphoric triester hydrolase
				note	FunctionalCategory: conserved hypotheticals
				EC_number	3.1.8.- (Putative)
				note	identified by similarity of predicted tertiary structure to PDB:1p9eA,4le6A
				inference	ab initio prediction:I-TASSER:5.1
				
				gene	Rv2300c
