2588804	2587287	CDS
				locus_tag	Rv2315c
				product	putative peptidase 
				note	FunctionalCategory: conserved hypotheticals
				EC_number	3.4.-.-
				go_process	proteolysis|0006508|ISS
				note	identified by similarity of predicted tertiary structure to PDB 1vpbA
				inference	ab initio prediction:I-TASSER:5.1
				inference	alignment:TM-align:PDB:1vpbA
				go_function	metallopeptidase activity|0008237|ISS
				note	identified by similarity of predicted tertiary structure to PDB 1vpbA
				inference	ab initio prediction:I-TASSER:5.1
				inference	alignment:TM-align:PDB:1vpbA
				
				gene	Rv2315c
