2577108	2577701	CDS
				locus_tag	Rv2306A
				product	Possible conserved membrane protein/putative drug transport protein (efflux pump)
				note	FunctionalCategory: cell wall and cell processes
				go_function	drug:proton antiporter activity|0015307|ISS
				note	identified by similarity of predicted tertiary structure to PDB 2j8sA,2j8sA3
				inference	ab initio prediction:I-TASSER:5.1
				inference	alignment:TM-align:PDB:2j8sA,2j8sA3
				go_process	drug transmembrane transport|0006855|ISS
				note	identified by similarity of predicted tertiary structure to PDB 2j8sA,2j8sA3
				inference	ab initio prediction:I-TASSER:5.1
				inference	alignment:TM-align:PDB:2j8sA,2j8sA3
				go_process	transport|0006810|ISS
				note	identified by similarity of predicted tertiary structure to PDB 4mt1A,2j8sA,4mt1A2,2j8sA3
				inference	ab initio prediction:I-TASSER:5.1
				inference	alignment:TM-align:PDB:4mt1A,2j8sA,4mt1A2,2j8sA3
				go_function	protein binding|0005515|ISS
				note	identified by similarity of predicted tertiary structure to PDB 2j8sA,2j8sA3
				inference	ab initio prediction:I-TASSER:5.1
				inference	alignment:TM-align:PDB:2j8sA,2j8sA3
				go_function	transporter activity|0005215|ISS
				note	identified by similarity of predicted tertiary structure to PDB 4mt1A,2j8sA,4mt1A2,2j8sA3
				inference	ab initio prediction:I-TASSER:5.1
				inference	alignment:TM-align:PDB:4mt1A,2j8sA,4mt1A2,2j8sA3
				go_component	integral component of membrane|0016021|ISS
				note	identified by similarity of predicted tertiary structure to PDB 4mt1A,2j8sA,4mt1A2,2j8sA3
				inference	ab initio prediction:I-TASSER:5.1
				inference	alignment:TM-align:PDB:4mt1A,2j8sA,4mt1A2,2j8sA3
				go_component	membrane|0016020|ISS
				note	identified by similarity of predicted tertiary structure to PDB 4mt1A,2j8sA,4mt1A2,2j8sA3
				inference	ab initio prediction:I-TASSER:5.1
				inference	alignment:TM-align:PDB:4mt1A,2j8sA,4mt1A2,2j8sA3
				go_process	response to drug|0042493|ISS
				note	identified by similarity of predicted tertiary structure to PDB 2j8sA,2j8sA3
				inference	ab initio prediction:I-TASSER:5.1
				inference	alignment:TM-align:PDB:2j8sA,2j8sA3
				go_component	efflux pump complex|1990281|ISS
				note	identified by similarity of predicted tertiary structure to PDB 2j8sA,2j8sA3
				inference	ab initio prediction:I-TASSER:5.1
				inference	alignment:TM-align:PDB:2j8sA,2j8sA3
				go_function	drug transmembrane transporter activity|0015238|ISS
				note	identified by similarity of predicted tertiary structure to PDB 2j8sA,2j8sA3
				inference	ab initio prediction:I-TASSER:5.1
				inference	alignment:TM-align:PDB:2j8sA,2j8sA3
				go_component	integral component of plasma membrane|0005887|ISS
				note	identified by similarity of predicted tertiary structure to PDB 2j8sA,2j8sA3
				inference	ab initio prediction:I-TASSER:5.1
				inference	alignment:TM-align:PDB:2j8sA,2j8sA3
				go_component	plasma membrane|0005886|ISS
				note	identified by similarity of predicted tertiary structure to PDB 2j8sA,2j8sA3
				inference	ab initio prediction:I-TASSER:5.1
				inference	alignment:TM-align:PDB:2j8sA,2j8sA3
				go_process	drug export|0046618|ISS
				note	identified by similarity of predicted tertiary structure to PDB 2j8sA,2j8sA3
				inference	ab initio prediction:I-TASSER:5.1
				inference	alignment:TM-align:PDB:2j8sA,2j8sA3
				go_function	identical protein binding|0042802|ISS
				note	identified by similarity of predicted tertiary structure to PDB 2j8sA,2j8sA3
				inference	ab initio prediction:I-TASSER:5.1
				inference	alignment:TM-align:PDB:2j8sA,2j8sA3
				
				gene	Rv2306A
