2608796	2609728	CDS
				locus_tag	Rv2334
				product	Cysteine synthase a CysK1 (O-acetylserine sulfhydrylase A) (O-acetylserine (thiol)-lyase A) (CSASE A)
				note	FunctionalCategory: intermediary metabolism and respiration
				gene	cysK1
