2644320	2645774	CDS
				locus_tag	Rv2363
				product	Probable amidase AmiA2 (aminohydrolase)
				note	FunctionalCategory: intermediary metabolism and respiration
				experiment	COORDINATES:N-terminal peptide mass spectrometry [PMID: 26536359]
				gene	amiA2
