2626980	2626654	CDS
				locus_tag	Rv2348c
				product	Hypothetical protein
				note	FunctionalCategory: unknown
				experiment	COORDINATES:N-terminal peptide mass spectrometry [PMID: 26536359]
				note	Possible antigen [PMID: 28387329]
				
				gene	Rv2348c
