2791022	2789280	CDS
				locus_tag	Rv2483c
				product	Possible transmembrane phospholipid biosynthesis bifunctional enzyme PlsC: putative L-3-phosphoserine phosphatase (O-phosphoserine phosphohydrolase) (PSP) (pspase) + 1-acyl-SN-glycerol-3-phosphate acyltransferase (1-AGP acyltransferase) (1-AGPAT) (lysophosphatidic acid acyltransferase) (LPAAT)
				note	FunctionalCategory: lipid metabolism
				gene	plsC
