2724183	2723308	CDS
				locus_tag	Rv2426c
				product	putative ATPase 
				note	FunctionalCategory: conserved hypotheticals
				experiment	COORDINATES:N-terminal peptide mass spectrometry [PMID: 26536359]
				EC_number	3.6.1.-
				go_function	ATP binding|0005524|ISS
				note	identified by similarity of predicted tertiary structure to PDB 5c3cA
				inference	ab initio prediction:I-TASSER:5.1
				inference	alignment:TM-align:PDB:5c3cA
				go_function	ATPase activity|0016887|ISS
				note	identified by similarity of predicted tertiary structure to PDB 5c3cA
				inference	ab initio prediction:I-TASSER:5.1
				inference	alignment:TM-align:PDB:5c3cA
				go_function	nucleotide binding|0000166|ISS
				note	identified by similarity of predicted tertiary structure to PDB 5c3cA
				inference	ab initio prediction:I-TASSER:5.1
				inference	alignment:TM-align:PDB:5c3cA
				
				gene	Rv2426c
