2715332	2714124	CDS
				locus_tag	Rv2416c
				product	Enhanced intracellular survival protein Eis, GCN5-related N-acetyltransferase
				note	FunctionalCategory: virulence, detoxification, adaptation
				gene	eis
