2704437	2704009	CDS
				locus_tag	Rv2406c
				product	Conserved protein/putative hydro-lyase/putative oxidoreductase
				note	FunctionalCategory: conserved hypotheticals
				EC_number	1.1.1.- (Putative)
				note	identified by similarity of predicted tertiary structure to PDB:3kh5A
				inference	ab initio prediction:I-TASSER:5.1
				EC_number	4.2.1.- (Putative)
				note	identified by similarity of predicted tertiary structure to PDB:3pc2A,4uuuA
				inference	ab initio prediction:I-TASSER:5.1
				go_function	pyridoxal phosphate binding|0030170|ISS
				note	identified by similarity of predicted tertiary structure to PDB 3pc2A
				inference	ab initio prediction:I-TASSER:5.1
				inference	alignment:TM-align:PDB:3pc2A
				go_component	cytoplasm|0005737|ISS
				note	identified by similarity of predicted tertiary structure to PDB 3pc2A
				inference	ab initio prediction:I-TASSER:5.1
				inference	alignment:TM-align:PDB:3pc2A
				go_process	cysteine biosynthetic process from serine|0006535|ISS
				note	identified by similarity of predicted tertiary structure to PDB 3pc2A
				inference	ab initio prediction:I-TASSER:5.1
				inference	alignment:TM-align:PDB:3pc2A
				go_function	lyase activity|0016829|ISS
				note	identified by similarity of predicted tertiary structure to PDB 3pc2A
				inference	ab initio prediction:I-TASSER:5.1
				inference	alignment:TM-align:PDB:3pc2A
				go_function	metal ion binding|0046872|ISS
				note	identified by similarity of predicted tertiary structure to PDB 3pc2A
				inference	ab initio prediction:I-TASSER:5.1
				inference	alignment:TM-align:PDB:3pc2A
				go_function	cystathionine beta-synthase activity|0004122|ISS
				note	identified by similarity of predicted tertiary structure to PDB 3pc2A
				inference	ab initio prediction:I-TASSER:5.1
				inference	alignment:TM-align:PDB:3pc2A
				go_process	cellular amino acid biosynthetic process|0008652|ISS
				note	identified by similarity of predicted tertiary structure to PDB 3pc2A
				inference	ab initio prediction:I-TASSER:5.1
				inference	alignment:TM-align:PDB:3pc2A
				go_process	cysteine biosynthetic process|0019344|ISS
				note	identified by similarity of predicted tertiary structure to PDB 3pc2A
				inference	ab initio prediction:I-TASSER:5.1
				inference	alignment:TM-align:PDB:3pc2A
				go_process	cysteine biosynthetic process via cystathionine|0019343|ISS
				note	identified by similarity of predicted tertiary structure to PDB 3pc2A
				inference	ab initio prediction:I-TASSER:5.1
				inference	alignment:TM-align:PDB:3pc2A
				gene	Rv2406c
