2747598	2746135	CDS
				locus_tag	Rv2447c
				product	Probable folylpolyglutamate synthase protein FolC (folylpoly-gamma-glutamate synthetase) (FPGS)
				note	FunctionalCategory: intermediary metabolism and respiration
				gene	folC
