2698415	2700457	CDS
				locus_tag	Rv2402
				product	Trehalase
				experiment	DESCRIPTION:Partial purification, enzyme activity assay [PMID: 17319935]
				inference	similar to AA sequence:CLUSTALW [PMID: 17319935]
				note	FunctionalCategory: conserved hypotheticals
				experiment	COORDINATES:N-terminal peptide mass spectrometry [PMID: 26536359]
				note	requires inorganic phosphate for enzyme activity [PMID: 17319935]
				EC_number	3.2.1.28

				
				gene	Rv2402
