2794350	2795120	CDS
				locus_tag	Rv2486
				product	Probable enoyl-CoA hydratase EchA14 (enoyl hydrase) (unsaturated acyl-CoA hydratase) (crotonase)
				note	FunctionalCategory: lipid metabolism
				gene	echA14
