2758192	2756936	CDS
				locus_tag	Rv2456c
				product	Probable conserved integral membrane transport protein/Putative transport protein
				note	FunctionalCategory: cell wall and cell processes
				note	potential carbohydrate transporter
				note	identified by similarity of predicted tertiary structure to PDB 5c65A, 4gbyA, 4ybqA, 3o7pA, 5aymA, 4zowA, 4pypA, 4j05A, 4w6vA , 4apsA , 4ikvA, 4iu8A, 1pw4A, 4lepA, 2xutA
				inference	ab initio prediction:I-TASSER:5.1
				inference	alignment:TM-align:PDB:5c65A, 4gbyA, 4ybqA, 3o7pA, 5aymA, 4zowA, 4pypA, 4j05A, 4w6vA , 4apsA , 4ikvA, 4iu8A, 1pw4A, 4lepA, 2xutA
				
				gene	Rv2456c
