2704697	2705518	CDS
				locus_tag	Rv2407
				product	Type III sulfatase zinc-sulfatase
				experiment	DESCRIPTION:in vitro sulfatase activity assays, mass spectrometry [PMID: 23878250]
				note	FunctionalCategory: conserved hypotheticals
				note	Type III sulfatases are zinc dependent beta-lactamase
				EC_number	3.1.6.-
				
				gene	Rv2407
