2730560	2729115	CDS
				locus_tag	Rv2434c
				product	Probable conserved transmembrane protein
				note	FunctionalCategory: cell wall and cell processes
				note	cNMP-binding protein [PMID: 10673278] 

				
				gene	Rv2434c
