2784608	2784123	CDS
				locus_tag	Rv2478c
				product	Conserved hypothetical protein
				note	FunctionalCategory: conserved hypotheticals
				note	Predicted to be involved in DNA recombination (DOI:10.1016/j.tube.2016.04.011)
				
				
				gene	Rv2478c
