2895960	2894893	CDS
				locus_tag	Rv2571c
				product	Probable transmembrane alanine and valine and leucine rich protein
				note	FunctionalCategory: cell wall and cell processes

				
				gene	Rv2571c
