2910198	2907826	CDS
				locus_tag	Rv2583c
				product	Probable GTP pyrophosphokinase RelA (ATP:GTP 3'- pyrophosphotransferase) (PPGPP synthetase I) ((P)PPGPP synthetase) (GTP diphosphokinase)
				note	FunctionalCategory: intermediary metabolism and respiration
				gene	relA
