2962441	2960105	CDS
				locus_tag	Rv2634c
				gene	PE_PGRS46
				product	PE-PGRS family protein PE_PGRS46
				experiment	EXISTENCE:Liquid chromatography-mass spectrometry. [PMID: 21085642]
				note	FunctionalCategory: PE/PPE
				note	Expressed in vivo in guinea pig lung at both 30 and 90 days post-infection. [PMID: 21085642]
				note	Upregulated after exposure to capreomycin [PMID: 21678479]

				
