2931560	2930805	CDS
				locus_tag	Rv2603c
				product	Highly conserved protein/putative transcription factor
				note	FunctionalCategory: conserved hypotheticals
				go_component	cytoplasm|0005737|ISS
				note	identified by similarity of predicted tertiary structure to PDB 1lfpA1,1lfpA
				inference	ab initio prediction:I-TASSER:5.1
				inference	alignment:TM-align:PDB:1lfpA1,1lfpA
				go_process	regulation of transcription, DNA-templated|0006355|ISS
				note	identified by similarity of predicted tertiary structure to PDB 1lfpA1,1lfpA
				inference	ab initio prediction:I-TASSER:5.1
				inference	alignment:TM-align:PDB:1lfpA1,1lfpA
				go_component	cytosol|0005829|ISS
				note	identified by similarity of predicted tertiary structure to PDB 1lfpA1,1lfpA
				inference	ab initio prediction:I-TASSER:5.1
				inference	alignment:TM-align:PDB:1lfpA1,1lfpA
				go_process	transcription, DNA-templated|0006351|ISS
				note	identified by similarity of predicted tertiary structure to PDB 1lfpA1,1lfpA
				inference	ab initio prediction:I-TASSER:5.1
				inference	alignment:TM-align:PDB:1lfpA1,1lfpA
				go_function	DNA binding|0003677|ISS
				note	identified by similarity of predicted tertiary structure to PDB 1lfpA1,1lfpA
				inference	ab initio prediction:I-TASSER:5.1
				inference	alignment:TM-align:PDB:1lfpA1,1lfpA
				
				gene	Rv2603c
