2934198	2934872	CDS
				locus_tag	Rv2607
				product	Probable pyridoxamine 5'-phosphate oxidase PdxH (PNP/PMP oxidase) (pyridoxinephosphate oxidase) (PNPOX) (pyridoxine 5'-phosphate oxidase)
				note	FunctionalCategory: intermediary metabolism and respiration
				gene	pdxH
