2957572	2958870	CDS
				locus_tag	Rv2631
				product	putative RNA ligase 
				note	FunctionalCategory: conserved hypotheticals
                                note    possible component of dormancy regulating DosR regulon [PMID: 28261197]

				EC_number	6.5.1.-
				go_function	metal ion binding|0046872|ISS
				note	identified by similarity of predicted tertiary structure to PDB 2epgB
				inference	ab initio prediction:I-TASSER:5.1
				inference	alignment:TM-align:PDB:2epgB
				go_function	ligase activity|0016874|ISS
				note	identified by similarity of predicted tertiary structure to PDB 2epgB
				inference	ab initio prediction:I-TASSER:5.1
				inference	alignment:TM-align:PDB:2epgB
				go_process	RNA processing|0006396|ISS
				note	identified by similarity of predicted tertiary structure to PDB 2epgB,1uc2A
				inference	ab initio prediction:I-TASSER:5.1
				inference	alignment:TM-align:PDB:2epgB,1uc2A
				go_function	RNA ligase activity|0008452|ISS
				note	identified by similarity of predicted tertiary structure to PDB 2epgB,1uc2A
				inference	ab initio prediction:I-TASSER:5.1
				inference	alignment:TM-align:PDB:2epgB,1uc2A
				
				gene	Rv2631
