3004748	3004035	CDS
				locus_tag	Rv2687c
				product	Antibiotic-transport integral membrane leucine and valine rich protein ABC transporter
				note	FunctionalCategory: cell wall and cell processes
				gene	Rv2687c
