3067124	3066222	CDS
				locus_tag	Rv2753c
				product	Probable dihydrodipicolinate synthase DapA (DHDPS) (dihydrodipicolinate synthetase)
				note	FunctionalCategory: intermediary metabolism and respiration
				experiment	COORDINATES:N-terminal peptide mass spectrometry [PMID: 26536359]
				gene	dapA
