3066191	3064515	CDS
				locus_tag	Rv2752c
				product	Probable beta-lactamase/RNase
				experiment	DESCRIPTION:Bacterial two-hybrid analysis, co-expression/co-purification, western blot, starch/iodine coloration assay, RNase activity assay, spectrophormetric assay [PMID: 21568871]
				experiment	DESCRIPTION:Expression and purification of protein, Beta-lactamase activity analysis [PMID: 19298676] 
				inference	similar to AA sequence: SWISS-MODEL [PMID: 21568871]
				note	FunctionalCategory: conserved hypotheticals
				note	Dual function protein
				EC_number	3.1.-.-
				EC_number	3.5.2.6
				
				
				gene	Rv2752c
