3128272	3127364	CDS
				locus_tag	Rv2820c
				product	putative CRISPR associated RNA-binding protein
				note	FunctionalCategory: conserved hypotheticals
				note	Predicted to be associated with virulence [PMID: 21362467]
				note	Likely a CRISPR-associated (cas) gene [PMID: 11952905]
				note	potential CRISPR type III-A 
				note	identified by similarity of predicted tertiary structure to PDB 4qtsA
				inference	ab initio prediction:I-TASSER:5.1
				inference	alignment:TM-align:PDB:4qtsA
				
				gene	Rv2820c
