3123966	3123625	CDS
				locus_tag	Rv2816c
				gene	Cas2
				product	putative endoribonuclease
				experiment	DESCRIPTION:in vitro recombinant gene expression, in vitro and intracellular survival assays, RT-PCR drug susceptibility assay [PMID: 26498723]
				note	FunctionalCategory: conserved hypotheticals
				note	alters expression of sigma factors
				note	involved in stress response and virulence
				note	CRISPR-associated
				EC_number	3.1.-.-

				
