3209406	3208576	CDS
				locus_tag	Rv2899c
				gene	fdhD
				product	Possible FdhD protein homolog/putative sulfurtransferase/putative transport protein 
				note	FunctionalCategory: intermediary metabolism and respiration
				EC_number	2.8.1.-
				go_component	cytoplasm|0005737|ISS
				note	identified by similarity of predicted tertiary structure to PDB 4pdeA,2pw9D2,4pdeA2,2pw9D
				inference	ab initio prediction:I-TASSER:5.1
				inference	alignment:TM-align:PDB:4pdeA,2pw9D2,4pdeA2,2pw9D
				go_process	Mo-molybdopterin cofactor biosynthetic process|0006777|ISS
				note	identified by similarity of predicted tertiary structure to PDB 4pdeA,2pw9D2,4pdeA2,2pw9D
				inference	ab initio prediction:I-TASSER:5.1
				inference	alignment:TM-align:PDB:4pdeA,2pw9D2,4pdeA2,2pw9D
				go_function	molybdopterin cofactor binding|0043546|ISS
				note	identified by similarity of predicted tertiary structure to PDB 4pdeA,4pdeA2
				inference	ab initio prediction:I-TASSER:5.1
				inference	alignment:TM-align:PDB:4pdeA,4pdeA2
				go_function	sulfurtransferase activity|0016783|ISS
				note	identified by similarity of predicted tertiary structure to PDB 4pdeA,2pw9D2,4pdeA2,2pw9D
				inference	ab initio prediction:I-TASSER:5.1
				inference	alignment:TM-align:PDB:4pdeA,2pw9D2,4pdeA2,2pw9D
				go_component	cytosol|0005829|ISS
				note	identified by similarity of predicted tertiary structure to PDB 4pdeA,4pdeA2
				inference	ab initio prediction:I-TASSER:5.1
				inference	alignment:TM-align:PDB:4pdeA,4pdeA2
				go_process	transport|0006810|ISS
				note	identified by similarity of predicted tertiary structure to PDB 4pdeA,2pw9D2,4pdeA2,2pw9D
				inference	ab initio prediction:I-TASSER:5.1
				inference	alignment:TM-align:PDB:4pdeA,2pw9D2,4pdeA2,2pw9D
				go_function	sulfur carrier activity|0097163|ISS
				note	identified by similarity of predicted tertiary structure to PDB 4pdeA,2pw9D2,4pdeA2,2pw9D
				inference	ab initio prediction:I-TASSER:5.1
				inference	alignment:TM-align:PDB:4pdeA,2pw9D2,4pdeA2,2pw9D
				go_function	catalytic activity|0003824|ISS
				note	identified by similarity of predicted tertiary structure to PDB 4pdeA,2pw9D2,4pdeA2,2pw9D
				inference	ab initio prediction:I-TASSER:5.1
				inference	alignment:TM-align:PDB:4pdeA,2pw9D2,4pdeA2,2pw9D
				go_function	protein binding|0005515|ISS
				note	identified by similarity of predicted tertiary structure to PDB 4pdeA,4pdeA2
				inference	ab initio prediction:I-TASSER:5.1
				inference	alignment:TM-align:PDB:4pdeA,4pdeA2
				go_process	positive regulation of catalytic activity|0043085|ISS
				note	identified by similarity of predicted tertiary structure to PDB 4pdeA,4pdeA2
				inference	ab initio prediction:I-TASSER:5.1
				inference	alignment:TM-align:PDB:4pdeA,4pdeA2
				
