3139181	3138099	CDS
				locus_tag	Rv2832c
				product	Probable Sn-glycerol-3-phosphate transport ATP-binding protein ABC transporter UgpC
				note	FunctionalCategory: cell wall and cell processes
				gene	ugpC
