3193158	3192373	CDS
				locus_tag	Rv2883c
				product	Probable uridylate kinase PyrH (UK) (uridine monophosphate kinase) (UMP kinase)
				note	FunctionalCategory: intermediary metabolism and respiration
				gene	pyrH
