3315236	3316456	CDS
				locus_tag	Rv2963
				product	Probable integral membrane protein/putative ion transporter
				note	FunctionalCategory: cell wall and cell processes
		                note    up regulated on mmpL3 deletion in M. tuberculosis [PMID: 28240248]
				note	Induced by copper [PMID: 21166899]

				note	potential Ca(2+)/cation antiporter
				note	identified by similarity of predicted tertiary structure to PDB 4kppA
				inference	ab initio prediction:I-TASSER:5.1
				inference	alignment:TM-align:PDB:4kppA
				
				gene	Rv2963
