3313201	3312953	CDS
				locus_tag	Rv2960c
				product	Hypothetical protein
				note	FunctionalCategory: conserved hypotheticals
				ncnote	N-terminus has been changed (34 amino acids removed from product) [PMID: 12368430]
				
				gene	Rv2960c
