3347982	3348473	CDS
				locus_tag	Rv2991
				product	probable flavin/deazaflavin oxidoreductase/probable flavin/deazaflavin oxidoreductase/putative oxidase
				experiment	DESCRIPTION:crystallography, ligand binding affinity assay to coenzyme F420, flavin mononucleotide and flavin adenine dinucleotide [PMID: 26434506]
				note	FunctionalCategory: conserved hypotheticals
				note	Predicted to be F420 dependent
				EC_number	1.5.8.-
				EC_number	1.4.3.- (Putative)
				note	identified by similarity of predicted tertiary structure to PDB:4zkyA,1y30A,2a2jA
				inference	ab initio prediction:I-TASSER:5.1
				go_function	pyridoxamine-phosphate oxidase activity|0004733|ISS
				note	identified by similarity of predicted tertiary structure to PDB 2a2jA
				inference	ab initio prediction:I-TASSER:5.1
				inference	alignment:TM-align:PDB:2a2jA
				go_function	pyridoxal phosphate binding|0030170|ISS
				note	identified by similarity of predicted tertiary structure to PDB 1y30A
				inference	ab initio prediction:I-TASSER:5.1
				inference	alignment:TM-align:PDB:1y30A
				go_function	FAD binding|0071949|ISS
				note	identified by similarity of predicted tertiary structure to PDB 1y30A
				inference	ab initio prediction:I-TASSER:5.1
				inference	alignment:TM-align:PDB:1y30A
				go_function	oxidoreductase activity|0016491|ISS
				note	identified by similarity of predicted tertiary structure to PDB 1y30A,2a2jA
				inference	ab initio prediction:I-TASSER:5.1
				inference	alignment:TM-align:PDB:1y30A,2a2jA
				go_function	FMN binding|0010181|ISS
				note	identified by similarity of predicted tertiary structure to PDB 1y30A,2a2jA
				inference	ab initio prediction:I-TASSER:5.1
				inference	alignment:TM-align:PDB:1y30A,2a2jA
				go_process	pyridoxal phosphate biosynthetic process|0042823|ISS
				note	identified by similarity of predicted tertiary structure to PDB 2a2jA
				inference	ab initio prediction:I-TASSER:5.1
				inference	alignment:TM-align:PDB:2a2jA
				go_function	protein homodimerization activity|0042803|ISS
				note	identified by similarity of predicted tertiary structure to PDB 1y30A,2a2jA
				inference	ab initio prediction:I-TASSER:5.1
				inference	alignment:TM-align:PDB:1y30A,2a2jA
				go_function	cofactor binding|0048037|ISS
				note	identified by similarity of predicted tertiary structure to PDB 4zkyA,1y30A,2a2jA
				inference	ab initio prediction:I-TASSER:5.1
				note	potential Ca(2+)/cation antiporter
				note	identified by similarity of predicted tertiary structure to PDB 4kppA
				inference	ab initio prediction:I-TASSER:5.1
				inference	alignment:TM-align:PDB:4kppA
				inference	alignment:TM-align:PDB:4zkyA,1y30A,2a2jA
				go_process	pyridoxine biosynthetic process|0008615|ISS
				note	identified by similarity of predicted tertiary structure to PDB 2a2jA
				inference	ab initio prediction:I-TASSER:5.1
				inference	alignment:TM-align:PDB:2a2jA
				go_function	oxidoreductase activity, acting on the CH-OH group of donors, oxygen as acceptor|0016899|ISS
				note	identified by similarity of predicted tertiary structure to PDB 2a2jA
				inference	ab initio prediction:I-TASSER:5.1
				inference	alignment:TM-align:PDB:2a2jA
				go_process	oxidation-reduction process|0055114|ISS
				note	identified by similarity of predicted tertiary structure to PDB 1y30A,2a2jA
				inference	ab initio prediction:I-TASSER:5.1
				inference	alignment:TM-align:PDB:1y30A,2a2jA
				go_function	coenzyme F420 binding|0070967|ISS
				note	identified by similarity of predicted tertiary structure to PDB 1y30A
				inference	ab initio prediction:I-TASSER:5.1
				inference	alignment:TM-align:PDB:1y30A
				go_function	oxidoreductase activity, acting on the CH-NH2 group of donors|0016638|ISS
				note	identified by similarity of predicted tertiary structure to PDB 2a2jA
				inference	ab initio prediction:I-TASSER:5.1
				inference	alignment:TM-align:PDB:2a2jA
				go_process	vitamin B6 metabolic process|0042816|ISS
				note	identified by similarity of predicted tertiary structure to PDB 1y30A
				inference	ab initio prediction:I-TASSER:5.1
				inference	alignment:TM-align:PDB:1y30A
				go_function	NADPH binding|0070402|ISS
				note	identified by similarity of predicted tertiary structure to PDB 1y30A
				inference	ab initio prediction:I-TASSER:5.1
				inference	alignment:TM-align:PDB:1y30A
				
				gene	Rv2991
