3436322	3435798	CDS
				locus_tag	Rv3072c
				product	putative NAD(P)H monooxygenase
				note	FunctionalCategory: conserved hypotheticals
				EC_number	1.14.13.- (Putative)
				note	identified by similarity of predicted tertiary structure to PDB:3sdoA
				inference	ab initio prediction:I-TASSER:5.1
				go_function	monooxygenase activity|0004497|ISS
				note	identified by similarity of predicted tertiary structure to PDB 3sdoA
				inference	ab initio prediction:I-TASSER:5.1
				inference	alignment:TM-align:PDB:3sdoA
				go_function	oxidoreductase activity|0016491|ISS
				note	identified by similarity of predicted tertiary structure to PDB 3sdoA
				inference	ab initio prediction:I-TASSER:5.1
				inference	alignment:TM-align:PDB:3sdoA
				go_function	oxidoreductase activity, acting on paired donors, with incorporation or reduction of molecular oxygen|0016705|ISS
				note	identified by similarity of predicted tertiary structure to PDB 3sdoA
				inference	ab initio prediction:I-TASSER:5.1
				inference	alignment:TM-align:PDB:3sdoA
				go_process	oxidation-reduction process|0055114|ISS
				note	identified by similarity of predicted tertiary structure to PDB 3sdoA
				inference	ab initio prediction:I-TASSER:5.1
				inference	alignment:TM-align:PDB:3sdoA
				
				gene	Rv3072c
