3380993	3380679	CDS
				locus_tag	Rv3022A
				gene	PE29
				product	PE family protein PE29
				note	FunctionalCategory: PE/PPE
                                note    Duplicated from ESAT-6 (esx) gene cluster region 3 [PMID: 17105670]

				
