3414166	3412085	CDS
				locus_tag	Rv3051c
				product	Ribonucleoside-diphosphate reductase (alpha chain) NrdE (ribonucleotide reductase small subunit) (R1F protein)
				note	FunctionalCategory: information pathways
				gene	nrdE
