3434087	3434467	CDS
				locus_tag	Rv3070
				product	Probable conserved integral membrane protein/putative inorganic anion transport protein
				note	FunctionalCategory: cell wall and cell processes
				go_process	transport|0006810|ISS
				note	identified by similarity of predicted tertiary structure to PDB 5a43A
				inference	ab initio prediction:I-TASSER:5.1
				inference	alignment:TM-align:PDB:5a43A
				go_function	inorganic anion transmembrane transporter activity|0015103|ISS
				note	identified by similarity of predicted tertiary structure to PDB 5a43A
				inference	ab initio prediction:I-TASSER:5.1
				inference	alignment:TM-align:PDB:5a43A
				go_component	integral component of membrane|0016021|ISS
				note	identified by similarity of predicted tertiary structure to PDB 5a43A
				inference	ab initio prediction:I-TASSER:5.1
				inference	alignment:TM-align:PDB:5a43A
				go_component	membrane|0016020|ISS
				note	identified by similarity of predicted tertiary structure to PDB 5a43A
				inference	ab initio prediction:I-TASSER:5.1
				inference	alignment:TM-align:PDB:5a43A
				go_process	ion transmembrane transport|0034220|ISS
				note	identified by similarity of predicted tertiary structure to PDB 5a43A
				inference	ab initio prediction:I-TASSER:5.1
				inference	alignment:TM-align:PDB:5a43A
				go_component	integral component of plasma membrane|0005887|ISS
				note	identified by similarity of predicted tertiary structure to PDB 5a43A
				inference	ab initio prediction:I-TASSER:5.1
				inference	alignment:TM-align:PDB:5a43A
				go_component	plasma membrane|0005886|ISS
				note	identified by similarity of predicted tertiary structure to PDB 5a43A
				inference	ab initio prediction:I-TASSER:5.1
				inference	alignment:TM-align:PDB:5a43A
				go_process	inorganic anion transport|0015698|ISS
				note	identified by similarity of predicted tertiary structure to PDB 5a43A
				inference	ab initio prediction:I-TASSER:5.1
				inference	alignment:TM-align:PDB:5a43A
				
				gene	Rv3070
