3463891	3462761	CDS
				locus_tag	Rv3094c
				product	putative flavin-dependent oxidoreductase
				note	FunctionalCategory: conserved hypotheticals
				EC_number	1.3.99.- (Putative)
				note	identified by similarity of predicted tertiary structure to PDB:4n5fA,3mpiA,1rx0A,2z1qB,2jifA,1ukwA,4irnA,3owaA,3pfdA,2pg0A
				inference	ab initio prediction:I-TASSER:5.1
				EC_number	1.7.3.- (Putative)
				note	identified by similarity of predicted tertiary structure to PDB:3mkhA
				inference	ab initio prediction:I-TASSER:5.1
				EC_number	1.3.8.- (Putative)
				note	identified by similarity of predicted tertiary structure to PDB:5jscA,1bucA,1ivhA,4iv6A,3sf6A,2ebaA,3ii9C,1jqiA,2uxwA,1udyA,1sirA,3swoA
				inference	ab initio prediction:I-TASSER:5.1
				go_process	fatty acid metabolic process|0006631|ISS
				note	identified by similarity of predicted tertiary structure to PDB 1bucA,1jqiA,2uxwA,1udyA
				inference	ab initio prediction:I-TASSER:5.1
				inference	alignment:TM-align:PDB:1bucA,1jqiA,2uxwA,1udyA
				go_process	response to glucocorticoid|0051384|ISS
				note	identified by similarity of predicted tertiary structure to PDB 1jqiA
				inference	ab initio prediction:I-TASSER:5.1
				inference	alignment:TM-align:PDB:1jqiA
				go_process	acyl-CoA metabolic process|0006637|ISS
				note	identified by similarity of predicted tertiary structure to PDB 1sirA
				inference	ab initio prediction:I-TASSER:5.1
				inference	alignment:TM-align:PDB:1sirA
				go_component	cytosol|0005829|ISS
				note	identified by similarity of predicted tertiary structure to PDB 2uxwA
				inference	ab initio prediction:I-TASSER:5.1
				inference	alignment:TM-align:PDB:2uxwA
				go_process	fatty acid beta-oxidation|0006635|ISS
				note	identified by similarity of predicted tertiary structure to PDB 1jqiA,2uxwA,1udyA
				inference	ab initio prediction:I-TASSER:5.1
				inference	alignment:TM-align:PDB:1jqiA,2uxwA,1udyA
				go_process	protein homotetramerization|0051289|ISS
				note	identified by similarity of predicted tertiary structure to PDB 1jqiA
				inference	ab initio prediction:I-TASSER:5.1
				inference	alignment:TM-align:PDB:1jqiA
				go_process	regulation of cholesterol metabolic process|0090181|ISS
				note	identified by similarity of predicted tertiary structure to PDB 2uxwA
				inference	ab initio prediction:I-TASSER:5.1
				inference	alignment:TM-align:PDB:2uxwA
				go_process	fatty acid catabolic process|0009062|ISS
				note	identified by similarity of predicted tertiary structure to PDB 2uxwA
				inference	ab initio prediction:I-TASSER:5.1
				inference	alignment:TM-align:PDB:2uxwA
				go_process	negative regulation of fatty acid oxidation|0046322|ISS
				note	identified by similarity of predicted tertiary structure to PDB 2uxwA
				inference	ab initio prediction:I-TASSER:5.1
				inference	alignment:TM-align:PDB:2uxwA
				go_component	mitochondrion|0005739|ISS
				note	identified by similarity of predicted tertiary structure to PDB 1rx0A,1ivhA,1jqiA,2uxwA,1udyA,1sirA
				inference	ab initio prediction:I-TASSER:5.1
				inference	alignment:TM-align:PDB:1rx0A,1ivhA,1jqiA,2uxwA,1udyA,1sirA
				go_process	response to starvation|0042594|ISS
				note	identified by similarity of predicted tertiary structure to PDB 1jqiA
				inference	ab initio prediction:I-TASSER:5.1
				inference	alignment:TM-align:PDB:1jqiA
				go_process	temperature homeostasis|0001659|ISS
				note	identified by similarity of predicted tertiary structure to PDB 2uxwA
				inference	ab initio prediction:I-TASSER:5.1
				inference	alignment:TM-align:PDB:2uxwA
				go_process	tryptophan metabolic process|0006568|ISS
				note	identified by similarity of predicted tertiary structure to PDB 1sirA
				inference	ab initio prediction:I-TASSER:5.1
				inference	alignment:TM-align:PDB:1sirA
				go_function	oxidoreductase activity|0016491|ISS
				note	identified by similarity of predicted tertiary structure to PDB 4n5fA,3mpiA,1rx0A,2z1qB,1ukwA,4irnA,3owaA,3pfdA,2pg0A,3mkhA,5jscA,1bucA,1ivhA,4iv6A,3sf6A,2ebaA,3ii9C,1jqiA,2uxwA,1udyA,1sirA,3swoA
				inference	ab initio prediction:I-TASSER:5.1
				inference	alignment:TM-align:PDB:4n5fA,3mpiA,1rx0A,2z1qB,1ukwA,4irnA,3owaA,3pfdA,2pg0A,3mkhA,5jscA,1bucA,1ivhA,4iv6A,3sf6A,2ebaA,3ii9C,1jqiA,2uxwA,1udyA,1sirA,3swoA
				go_function	flavin adenine dinucleotide binding|0050660|ISS
				note	identified by similarity of predicted tertiary structure to PDB 4n5fA,3mpiA,1rx0A,2z1qB,2jifA,1ukwA,4irnA,3owaA,3pfdA,2pg0A,3mkhA,5jscA,1bucA,1ivhA,4iv6A,3sf6A,2ebaA,3ii9C,1jqiA,2uxwA,1udyA,1sirA,3swoA
				inference	ab initio prediction:I-TASSER:5.1
				inference	alignment:TM-align:PDB:4n5fA,3mpiA,1rx0A,2z1qB,2jifA,1ukwA,4irnA,3owaA,3pfdA,2pg0A,3mkhA,5jscA,1bucA,1ivhA,4iv6A,3sf6A,2ebaA,3ii9C,1jqiA,2uxwA,1udyA,1sirA,3swoA
				go_function	glutaryl-CoA dehydrogenase activity|0004361|ISS
				note	identified by similarity of predicted tertiary structure to PDB 1sirA
				inference	ab initio prediction:I-TASSER:5.1
				inference	alignment:TM-align:PDB:1sirA
				go_component	nucleolus|0005730|ISS
				note	identified by similarity of predicted tertiary structure to PDB 2uxwA
				inference	ab initio prediction:I-TASSER:5.1
				inference	alignment:TM-align:PDB:2uxwA
				go_function	oxidoreductase activity, acting on the CH-CH group of donors|0016627|ISS
				note	identified by similarity of predicted tertiary structure to PDB 4n5fA,3mpiA,1rx0A,2z1qB,2jifA,1ukwA,4irnA,3owaA,3pfdA,2pg0A,3mkhA,5jscA,1bucA,1ivhA,4iv6A,3sf6A,2ebaA,3ii9C,1jqiA,2uxwA,1udyA,1sirA,3swoA
				inference	ab initio prediction:I-TASSER:5.1
				inference	alignment:TM-align:PDB:4n5fA,3mpiA,1rx0A,2z1qB,2jifA,1ukwA,4irnA,3owaA,3pfdA,2pg0A,3mkhA,5jscA,1bucA,1ivhA,4iv6A,3sf6A,2ebaA,3ii9C,1jqiA,2uxwA,1udyA,1sirA,3swoA
				go_component	membrane|0016020|ISS
				note	identified by similarity of predicted tertiary structure to PDB 2uxwA
				inference	ab initio prediction:I-TASSER:5.1
				inference	alignment:TM-align:PDB:2uxwA
				go_component	mitochondrial nucleoid|0042645|ISS
				note	identified by similarity of predicted tertiary structure to PDB 2uxwA
				inference	ab initio prediction:I-TASSER:5.1
				inference	alignment:TM-align:PDB:2uxwA
				go_function	fatty-acyl-CoA binding|0000062|ISS
				note	identified by similarity of predicted tertiary structure to PDB 1jqiA,1sirA
				inference	ab initio prediction:I-TASSER:5.1
				inference	alignment:TM-align:PDB:1jqiA,1sirA
				go_function	nucleotide binding|0000166|ISS
				note	identified by similarity of predicted tertiary structure to PDB 3mpiA,2z1qB,1ukwA,4irnA,3owaA,2pg0A,3mkhA,5jscA,2ebaA
				inference	ab initio prediction:I-TASSER:5.1
				inference	alignment:TM-align:PDB:3mpiA,2z1qB,1ukwA,4irnA,3owaA,2pg0A,3mkhA,5jscA,2ebaA
				go_function	long-chain-acyl-CoA dehydrogenase activity|0004466|ISS
				note	identified by similarity of predicted tertiary structure to PDB 2uxwA
				inference	ab initio prediction:I-TASSER:5.1
				inference	alignment:TM-align:PDB:2uxwA
				go_function	butyryl-CoA dehydrogenase activity|0004085|ISS
				note	identified by similarity of predicted tertiary structure to PDB 1bucA,1jqiA
				inference	ab initio prediction:I-TASSER:5.1
				inference	alignment:TM-align:PDB:1bucA,1jqiA
				go_component	mitochondrial matrix|0005759|ISS
				note	identified by similarity of predicted tertiary structure to PDB 1rx0A,1ivhA,1jqiA,2uxwA,1udyA,1sirA
				inference	ab initio prediction:I-TASSER:5.1
				inference	alignment:TM-align:PDB:1rx0A,1ivhA,1jqiA,2uxwA,1udyA,1sirA
				go_function	medium-chain-acyl-CoA dehydrogenase activity|0070991|ISS
				note	identified by similarity of predicted tertiary structure to PDB 1udyA
				inference	ab initio prediction:I-TASSER:5.1
				inference	alignment:TM-align:PDB:1udyA
				go_process	lipid metabolic process|0006629|ISS
				note	identified by similarity of predicted tertiary structure to PDB 1rx0A,1bucA,1jqiA,2uxwA,1udyA
				inference	ab initio prediction:I-TASSER:5.1
				inference	alignment:TM-align:PDB:1rx0A,1bucA,1jqiA,2uxwA,1udyA
				go_process	butyrate catabolic process|0046359|ISS
				note	identified by similarity of predicted tertiary structure to PDB 1jqiA
				inference	ab initio prediction:I-TASSER:5.1
				inference	alignment:TM-align:PDB:1jqiA
				go_process	epithelial cell differentiation|0030855|ISS
				note	identified by similarity of predicted tertiary structure to PDB 2uxwA
				inference	ab initio prediction:I-TASSER:5.1
				inference	alignment:TM-align:PDB:2uxwA
				go_component	mitochondrial membrane|0031966|ISS
				note	identified by similarity of predicted tertiary structure to PDB 1jqiA,2uxwA
				inference	ab initio prediction:I-TASSER:5.1
				inference	alignment:TM-align:PDB:1jqiA,2uxwA
				go_process	IRE1-mediated unfolded protein response|0036498|ISS
				note	identified by similarity of predicted tertiary structure to PDB 2uxwA
				inference	ab initio prediction:I-TASSER:5.1
				inference	alignment:TM-align:PDB:2uxwA
				go_function	acyl-CoA dehydrogenase activity|0003995|ISS
				note	identified by similarity of predicted tertiary structure to PDB 4n5fA,3mpiA,1rx0A,2z1qB,2jifA,1ukwA,3owaA,3pfdA,2pg0A,5jscA,1bucA,1ivhA,4iv6A,2ebaA,3ii9C,1jqiA,2uxwA,1udyA,1sirA
				inference	ab initio prediction:I-TASSER:5.1
				inference	alignment:TM-align:PDB:4n5fA,3mpiA,1rx0A,2z1qB,2jifA,1ukwA,3owaA,3pfdA,2pg0A,5jscA,1bucA,1ivhA,4iv6A,2ebaA,3ii9C,1jqiA,2uxwA,1udyA,1sirA
				go_process	fatty-acyl-CoA biosynthetic process|0046949|ISS
				note	identified by similarity of predicted tertiary structure to PDB 1sirA
				inference	ab initio prediction:I-TASSER:5.1
				inference	alignment:TM-align:PDB:1sirA
				go_process	metabolic process|0008152|ISS
				note	identified by similarity of predicted tertiary structure to PDB 4n5fA,3mpiA,1rx0A,2z1qB,2jifA,1ukwA,4irnA,3owaA,3pfdA,2pg0A,3mkhA,5jscA,1bucA,1ivhA,4iv6A,3sf6A,2ebaA,3ii9C,1jqiA,2uxwA,1udyA,1sirA,3swoA
				inference	ab initio prediction:I-TASSER:5.1
				inference	alignment:TM-align:PDB:4n5fA,3mpiA,1rx0A,2z1qB,2jifA,1ukwA,4irnA,3owaA,3pfdA,2pg0A,3mkhA,5jscA,1bucA,1ivhA,4iv6A,3sf6A,2ebaA,3ii9C,1jqiA,2uxwA,1udyA,1sirA,3swoA
				go_process	response to cold|0009409|ISS
				note	identified by similarity of predicted tertiary structure to PDB 2uxwA
				inference	ab initio prediction:I-TASSER:5.1
				inference	alignment:TM-align:PDB:2uxwA
				go_process	fatty acid oxidation|0019395|ISS
				note	identified by similarity of predicted tertiary structure to PDB 1sirA
				inference	ab initio prediction:I-TASSER:5.1
				inference	alignment:TM-align:PDB:1sirA
				go_process	negative regulation of fatty acid biosynthetic process|0045717|ISS
				note	identified by similarity of predicted tertiary structure to PDB 2uxwA
				inference	ab initio prediction:I-TASSER:5.1
				inference	alignment:TM-align:PDB:2uxwA
				go_process	oxidation-reduction process|0055114|ISS
				note	identified by similarity of predicted tertiary structure to PDB 4n5fA,3mpiA,1rx0A,2z1qB,2jifA,1ukwA,4irnA,3owaA,3pfdA,2pg0A,3mkhA,5jscA,1bucA,1ivhA,4iv6A,3sf6A,2ebaA,3ii9C,1jqiA,2uxwA,1udyA,1sirA,3swoA
				inference	ab initio prediction:I-TASSER:5.1
				inference	alignment:TM-align:PDB:4n5fA,3mpiA,1rx0A,2z1qB,2jifA,1ukwA,4irnA,3owaA,3pfdA,2pg0A,3mkhA,5jscA,1bucA,1ivhA,4iv6A,3sf6A,2ebaA,3ii9C,1jqiA,2uxwA,1udyA,1sirA,3swoA
				go_function	isovaleryl-CoA dehydrogenase activity|0008470|ISS
				note	identified by similarity of predicted tertiary structure to PDB 1ivhA
				inference	ab initio prediction:I-TASSER:5.1
				inference	alignment:TM-align:PDB:1ivhA
				go_process	valine catabolic process|0006574|ISS
				note	identified by similarity of predicted tertiary structure to PDB 1rx0A
				inference	ab initio prediction:I-TASSER:5.1
				inference	alignment:TM-align:PDB:1rx0A
				go_process	energy derivation by oxidation of organic compounds|0015980|ISS
				note	identified by similarity of predicted tertiary structure to PDB 2uxwA
				inference	ab initio prediction:I-TASSER:5.1
				inference	alignment:TM-align:PDB:2uxwA
				go_process	fatty acid beta-oxidation using acyl-CoA dehydrogenase|0033539|ISS
				note	identified by similarity of predicted tertiary structure to PDB 1ivhA,1jqiA,2uxwA,1udyA,1sirA
				inference	ab initio prediction:I-TASSER:5.1
				inference	alignment:TM-align:PDB:1ivhA,1jqiA,2uxwA,1udyA,1sirA
				go_process	lysine catabolic process|0006554|ISS
				note	identified by similarity of predicted tertiary structure to PDB 1sirA
				inference	ab initio prediction:I-TASSER:5.1
				inference	alignment:TM-align:PDB:1sirA
				go_process	leucine catabolic process|0006552|ISS
				note	identified by similarity of predicted tertiary structure to PDB 1ivhA
				inference	ab initio prediction:I-TASSER:5.1
				inference	alignment:TM-align:PDB:1ivhA
				go_function	nitroalkane oxidase activity|0052664|ISS
				note	identified by similarity of predicted tertiary structure to PDB 3mkhA
				inference	ab initio prediction:I-TASSER:5.1
				inference	alignment:TM-align:PDB:3mkhA
				go_component	mitochondrial inner membrane|0005743|ISS
				note	identified by similarity of predicted tertiary structure to PDB 2uxwA
				inference	ab initio prediction:I-TASSER:5.1
				inference	alignment:TM-align:PDB:2uxwA
				go_process	regulation of transcription, DNA-templated|0006355|ISS
				note	identified by similarity of predicted tertiary structure to PDB 1rx0A
				inference	ab initio prediction:I-TASSER:5.1
				inference	alignment:TM-align:PDB:1rx0A
				go_process	transcription, DNA-templated|0006351|ISS
				note	identified by similarity of predicted tertiary structure to PDB 1rx0A
				inference	ab initio prediction:I-TASSER:5.1
				inference	alignment:TM-align:PDB:1rx0A
				go_function	nitroethane oxidase activity|0050141|ISS
				note	identified by similarity of predicted tertiary structure to PDB 3mkhA
				inference	ab initio prediction:I-TASSER:5.1
				inference	alignment:TM-align:PDB:3mkhA
				go_process	aromatic compound catabolic process|0019439|ISS
				note	identified by similarity of predicted tertiary structure to PDB 3mpiA
				inference	ab initio prediction:I-TASSER:5.1
				inference	alignment:TM-align:PDB:3mpiA
				go_component	nucleus|0005634|ISS
				note	identified by similarity of predicted tertiary structure to PDB 2uxwA
				inference	ab initio prediction:I-TASSER:5.1
				inference	alignment:TM-align:PDB:2uxwA
				go_process	branched-chain amino acid catabolic process|0009083|ISS
				note	identified by similarity of predicted tertiary structure to PDB 1rx0A,1ivhA
				inference	ab initio prediction:I-TASSER:5.1
				inference	alignment:TM-align:PDB:1rx0A,1ivhA
				
				gene	Rv3094c
