3378415	3378329	CDS
				locus_tag	Rv3018A
				gene	PE27A
				product	PE family protein PE27A
				experiment	EXISTENCE:label-free quantitative proteomics, mass spectrometry [PMID: 21261938]
				note	FunctionalCategory: PE/PPE
				note	Located in the cell membrane [PMID: 21261938]
				
