3442597	3441770	CDS
				locus_tag	Rv3079c
				product	Conserved protein/putative oxidoreductase
				note	FunctionalCategory: conserved hypotheticals
				inference	ab initio prediction:I-TASSER:5.1
				EC_number	1.14.14.- (Putative)
				note	identified by similarity of predicted tertiary structure to PDB:3fgcD,3fgcA,1nqkA
				inference	ab initio prediction:I-TASSER:5.1
				EC_number	1.5.98.- (Putative)
				note	identified by similarity of predicted tertiary structure to PDB:1z69A
				inference	ab initio prediction:I-TASSER:5.1
				EC_number	1.1.98.- (Putative)
				note	identified by similarity of predicted tertiary structure to PDB:3c8nA
				inference	ab initio prediction:I-TASSER:5.1
				EC_number	1.14.13.- (Putative)
				note	identified by similarity of predicted tertiary structure to PDB:3sdoA
				inference	ab initio prediction:I-TASSER:5.1
				go_function	monooxygenase activity|0004497|ISS
				note	identified by similarity of predicted tertiary structure to PDB 3fgcD,3fgcA,1nqkA,3sdoA
				inference	ab initio prediction:I-TASSER:5.1
				inference	alignment:TM-align:PDB:3fgcD,3fgcA,1nqkA,3sdoA
				go_process	one-carbon metabolic process|0006730|ISS
				note	identified by similarity of predicted tertiary structure to PDB 1z69A
				inference	ab initio prediction:I-TASSER:5.1
				inference	alignment:TM-align:PDB:1z69A
				go_process	alkanesulfonate catabolic process|0046306|ISS
				note	identified by similarity of predicted tertiary structure to PDB 1nqkA
				inference	ab initio prediction:I-TASSER:5.1
				inference	alignment:TM-align:PDB:1nqkA
				go_function	alkanal monooxygenase (FMN-linked) activity|0047646|ISS
				note	identified by similarity of predicted tertiary structure to PDB 3fgcD,3fgcA
				inference	ab initio prediction:I-TASSER:5.1
				inference	alignment:TM-align:PDB:3fgcD,3fgcA
				go_process	methanogenesis, from carbon dioxide|0019386|ISS
				note	identified by similarity of predicted tertiary structure to PDB 1z69A
				inference	ab initio prediction:I-TASSER:5.1
				inference	alignment:TM-align:PDB:1z69A
				go_process	response to heat|0009408|ISS
				note	identified by similarity of predicted tertiary structure to PDB 1nqkA
				inference	ab initio prediction:I-TASSER:5.1
				inference	alignment:TM-align:PDB:1nqkA
				go_process	bioluminescence|0008218|ISS
				note	identified by similarity of predicted tertiary structure to PDB 3fgcD,3fgcA
				inference	ab initio prediction:I-TASSER:5.1
				inference	alignment:TM-align:PDB:3fgcD,3fgcA
				go_process	carbohydrate metabolic process|0005975|ISS
				note	identified by similarity of predicted tertiary structure to PDB 3c8nA
				inference	ab initio prediction:I-TASSER:5.1
				inference	alignment:TM-align:PDB:3c8nA
				go_function	oxidoreductase activity|0016491|ISS
				note	identified by similarity of predicted tertiary structure to PDB 3fgcD,3fgcA,1nqkA,1z69A,3c8nA,3sdoA
				inference	ab initio prediction:I-TASSER:5.1
				inference	alignment:TM-align:PDB:3fgcD,3fgcA,1nqkA,1z69A,3c8nA,3sdoA
				go_component	cytoplasm|0005737|ISS
				note	identified by similarity of predicted tertiary structure to PDB 1z69A
				inference	ab initio prediction:I-TASSER:5.1
				inference	alignment:TM-align:PDB:1z69A
				go_component	cell wall|0005618|ISS
				note	identified by similarity of predicted tertiary structure to PDB 3c8nA
				inference	ab initio prediction:I-TASSER:5.1
				inference	alignment:TM-align:PDB:3c8nA
				go_function	oxidoreductase activity, acting on paired donors, with incorporation or reduction of molecular oxygen|0016705|ISS
				note	identified by similarity of predicted tertiary structure to PDB 1rhcA,3fgcD,3fgcA,1nqkA,1z69A,3c8nA,3sdoA
				inference	ab initio prediction:I-TASSER:5.1
				inference	alignment:TM-align:PDB:1rhcA,3fgcD,3fgcA,1nqkA,1z69A,3c8nA,3sdoA
				go_function	identical protein binding|0042802|ISS
				note	identified by similarity of predicted tertiary structure to PDB 1nqkA
				inference	ab initio prediction:I-TASSER:5.1
				inference	alignment:TM-align:PDB:1nqkA
				go_function	alkanesulfonate monooxygenase activity|0008726|ISS
				note	identified by similarity of predicted tertiary structure to PDB 1nqkA
				inference	ab initio prediction:I-TASSER:5.1
				inference	alignment:TM-align:PDB:1nqkA
				go_component	plasma membrane|0005886|ISS
				note	identified by similarity of predicted tertiary structure to PDB 3c8nA
				inference	ab initio prediction:I-TASSER:5.1
				inference	alignment:TM-align:PDB:3c8nA
				go_process	methanogenesis|0015948|ISS
				note	identified by similarity of predicted tertiary structure to PDB 1z69A
				inference	ab initio prediction:I-TASSER:5.1
				inference	alignment:TM-align:PDB:1z69A
				go_process	cell redox homeostasis|0045454|ISS
				note	identified by similarity of predicted tertiary structure to PDB 3c8nA
				inference	ab initio prediction:I-TASSER:5.1
				inference	alignment:TM-align:PDB:3c8nA
				go_process	oxidation-reduction process|0055114|ISS
				note	identified by similarity of predicted tertiary structure to PDB 1rhcA,3fgcD,3fgcA,1nqkA,1z69A,3c8nA,3sdoA
				inference	ab initio prediction:I-TASSER:5.1
				inference	alignment:TM-align:PDB:1rhcA,3fgcD,3fgcA,1nqkA,1z69A,3c8nA,3sdoA
				go_function	glucose-6-phosphate dehydrogenase (coenzyme F420) activity|0052749|ISS
				note	identified by similarity of predicted tertiary structure to PDB 3c8nA
				inference	ab initio prediction:I-TASSER:5.1
				inference	alignment:TM-align:PDB:3c8nA
				go_function	oxidoreductase activity, acting on CH-OH group of donors|0016614|ISS
				note	identified by similarity of predicted tertiary structure to PDB 3c8nA
				inference	ab initio prediction:I-TASSER:5.1
				inference	alignment:TM-align:PDB:3c8nA
				go_function	coenzyme F420 binding|0070967|ISS
				note	identified by similarity of predicted tertiary structure to PDB 3c8nA
				inference	ab initio prediction:I-TASSER:5.1
				inference	alignment:TM-align:PDB:3c8nA
				go_component	cytosol|0005829|ISS
				note	identified by similarity of predicted tertiary structure to PDB 3c8nA
				inference	ab initio prediction:I-TASSER:5.1
				inference	alignment:TM-align:PDB:3c8nA
				go_function	protein binding|0005515|ISS
				note	identified by similarity of predicted tertiary structure to PDB 1nqkA
				inference	ab initio prediction:I-TASSER:5.1
				inference	alignment:TM-align:PDB:1nqkA
				go_function	coenzyme F420-dependent N5,N10-methenyltetrahydromethanopterin reductase activity|0018537|ISS
				note	identified by similarity of predicted tertiary structure to PDB 1z69A
				inference	ab initio prediction:I-TASSER:5.1
				inference	alignment:TM-align:PDB:1z69A
				
				gene	Rv3079c
