3476961	3475378	CDS
				locus_tag	Rv3107c
				product	Possible alkyldihydroxyacetonephosphate synthase AgpS (alkyl-DHAP synthase) (alkylglycerone-phosphate synthase)
				note	FunctionalCategory: lipid metabolism
				gene	agpS
