3491651	3490476	CDS
				locus_tag	Rv3125c
				gene	PPE49
				product	PPE family protein PPE49
				experiment	EXISTENCE:Liquid chromatography-mass spectrometry [PMID: 21085642]
				note	FunctionalCategory: PE/PPE
				note	Expressed in vivo in guinea pig lung at 90 but not 30 days post-infection [PMID: 21085642]

				
