3485132	3485575	CDS
				locus_tag	Rv3119
				product	Probable molybdenum cofactor biosynthesis protein E MoaE1 (molybdopterin converting factor large subunit) (molybdopterin [MPT] converting factor, subunit 2)
				note	FunctionalCategory: intermediary metabolism and respiration
				gene	moaE1
