3521139	3521927	CDS
				locus_tag	Rv3154
				product	Probable NADH dehydrogenase I (chain J) NuoJ (NADH-ubiquinone oxidoreductase chain J)
				note	FunctionalCategory: intermediary metabolism and respiration
				gene	nuoJ
