3511317	3510088	CDS
				locus_tag	Rv3144c
				product	PPE family protein PPE52
				experiment	EXISTENCE:Liquid chromatography-mass spectrometry. [PMID: 21085642]
				note	FunctionalCategory: PE/PPE
				note	Expressed in vivo in guinea pig lung at 90 but not 30 days post-infection. [PMID: 21085642]
				note	Expresses 2 positive cytotoxic T lymphocytes (CTL) epitopes [PMID: 21294723]

				
				
				gene	PPE52
