3613116	3611959	CDS
				locus_tag	Rv3236c
				gene	kefB
				product	Potassium/proton antiporter/Probable Na(+)/H(+) antiporter
				experiment	DESCRIPTION:In Vivo and in Vitro competition experiment [PMID: 14569030]
				experiment	DESCRIPTION:gene disruption and complementation; co-localization experiment [PMID: 24346161]
				note	FunctionalCategory: cell wall and cell processes
				note	probable potassium channel with mechanism of resistance to oxidative stress.[PMID: 14569030]
				note	inhibits phagosomal acidification. [PMID: 24346161]
				note	identified by similarity of predicted tertiary structure to PDB 4bwzA, 4czbA, 4cz8A, 1zcdA
				inference	ab initio prediction:I-TASSER:5.1
				inference	alignment:TM-align:PDB:4bwzA, 4czbA, 4cz8A, 1zcdA

				
