3671794	3670445	CDS
				locus_tag	Rv3290c
				product	Probable L-lysine-epsilon aminotransferase Lat (L-lysine aminotransferase) (lysine 6-aminotransferase)
				note	FunctionalCategory: intermediary metabolism and respiration
				gene	lat
