3664219	3664887	CDS
				locus_tag	Rv3282
				product	putative nucleoside-triphosphate diphosphatase 
				note	FunctionalCategory: conserved hypotheticals
				EC_number	3.6.1.-
				go_function	nucleoside-triphosphate diphosphatase activity|0047429|ISS
				note	identified by similarity of predicted tertiary structure to PDB 4oo0A,4jhcA,2p5xA,4p0eA
				inference	ab initio prediction:I-TASSER:5.1
				inference	alignment:TM-align:PDB:4oo0A,4jhcA,2p5xA,4p0eA
				go_function	dTTP diphosphatase activity|0036218|ISS
				note	identified by similarity of predicted tertiary structure to PDB 4p0eA
				inference	ab initio prediction:I-TASSER:5.1
				inference	alignment:TM-align:PDB:4p0eA
				go_function	UTP diphosphatase activity|0036221|ISS
				note	identified by similarity of predicted tertiary structure to PDB 4p0eA
				inference	ab initio prediction:I-TASSER:5.1
				inference	alignment:TM-align:PDB:4p0eA
				go_function	identical protein binding|0042802|ISS
				note	identified by similarity of predicted tertiary structure to PDB 4p0eA
				inference	ab initio prediction:I-TASSER:5.1
				inference	alignment:TM-align:PDB:4p0eA
				
				gene	Rv3282
