3603377	3604729	CDS
				locus_tag	Rv3227
				product	3-phosphoshikimate 1-carboxyvinyltransferase AroA (5-enolpyruvylshikimate-3-phosphate synthase) (EPSP synthase) (EPSPS)
				note	FunctionalCategory: intermediary metabolism and respiration
				gene	aroA
