3600801	3601019	CDS
				locus_tag	Rv3224B
				product	putative trans-editing enzyme 
				note	FunctionalCategory: conserved hypotheticals
				EC_number	4.-.-.-
				go_component	cytoplasm|0005737|ISS
				note	identified by similarity of predicted tertiary structure to PDB 1dbxA,2dxaA
				inference	ab initio prediction:I-TASSER:5.1
				inference	alignment:TM-align:PDB:1dbxA,2dxaA
				go_process	response to X-ray|0010165|ISS
				note	identified by similarity of predicted tertiary structure to PDB 2dxaA
				inference	ab initio prediction:I-TASSER:5.1
				inference	alignment:TM-align:PDB:2dxaA
				go_process	regulation of translational fidelity|0006450|ISS
				note	identified by similarity of predicted tertiary structure to PDB 1dbxA,2dxaA
				inference	ab initio prediction:I-TASSER:5.1
				inference	alignment:TM-align:PDB:1dbxA,2dxaA
				go_component	cytosol|0005829|ISS
				note	identified by similarity of predicted tertiary structure to PDB 2dxaA
				inference	ab initio prediction:I-TASSER:5.1
				inference	alignment:TM-align:PDB:2dxaA
				go_process	translation|0006412|ISS
				note	identified by similarity of predicted tertiary structure to PDB 1dbxA,2dxaA
				inference	ab initio prediction:I-TASSER:5.1
				inference	alignment:TM-align:PDB:1dbxA,2dxaA
				go_function	Ala-tRNA(Pro) hydrolase activity|0043906|ISS
				note	identified by similarity of predicted tertiary structure to PDB 1dbxA,2dxaA
				inference	ab initio prediction:I-TASSER:5.1
				inference	alignment:TM-align:PDB:1dbxA,2dxaA
				go_function	Cys-tRNA(Pro) hydrolase activity|0043907|ISS
				note	identified by similarity of predicted tertiary structure to PDB 2dxaA
				inference	ab initio prediction:I-TASSER:5.1
				inference	alignment:TM-align:PDB:2dxaA
				go_function	aminoacyl-tRNA editing activity|0002161|ISS
				note	identified by similarity of predicted tertiary structure to PDB 1dbxA,2dxaA
				inference	ab initio prediction:I-TASSER:5.1
				inference	alignment:TM-align:PDB:1dbxA,2dxaA
				go_function	lyase activity|0016829|ISS
				note	identified by similarity of predicted tertiary structure to PDB 1dbxA,2dxaA
				inference	ab initio prediction:I-TASSER:5.1
				inference	alignment:TM-align:PDB:1dbxA,2dxaA
				
				gene	Rv3224B
