3629647	3628160	CDS
				locus_tag	Rv3248c
				product	Probable adenosylhomocysteinase SahH (S-adenosyl-L-homocysteine hydrolase) (adohcyase)
				note	FunctionalCategory: intermediary metabolism and respiration
				gene	sahH
