3592254	3593372	CDS
				locus_tag	Rv3215
				product	Probable isochorismate synthase EntC (isochorismate hydroxymutase) (enterochelin biosynthesis)
				note	FunctionalCategory: intermediary metabolism and respiration
				gene	entC
