3647809	3646895	CDS
				locus_tag	Rv3266c
				product	dTDP-6-deoxy-L-lyxo-4-hexulose reductase RmlD (dTDP-rhamnose modification protein) (dTDP-rhamnose biosynthesis protein) (dTDP-rhamnose synthase)
				note	FunctionalCategory: intermediary metabolism and respiration
				gene	rmlD
