3736935	3729364	CDS
				locus_tag	Rv3343c
				gene	PPE54
				product	PPE family protein PPE54
				experiment	EXISTENCE:Liquid chromatography-mass spectrometry. [PMID: 21085642]
				note	FunctionalCategory: PE/PPE
				note	Expressed in vivo in guinea pig lung at both 30 and 90 days post-infection. [PMID: 21085642]
				note	Essential for in vitro growth [PMID: 12657046]
				note	Contains IS6110 insertion site [PMID: 22703188]
				note    induced and exported in vivo [PMID: 28442606]
				
