3710379	3710245	CDS
				locus_tag	Rv3324A
				product	Probable fragment of pterin-4-alpha-carbinolamine dehydratase MOAB3 (PHS) (4-alpha-hydroxy-tetrahydropterin dehydratase) (pterin-4-a-carbinolamine dehydratase) (phenylalanine hydroxylase-stimulating protein) (PHS) (pterin carbinolamine dehydratase) (PCD)
				note	FunctionalCategory: intermediary metabolism and respiration
				pseudogene	unknown
				gene	Rv3324A
