3687577	3686912	CDS
				locus_tag	Rv3301c
				product	Probable phosphate-transport system transcriptional regulatory protein PhoU homolog 1 PhoY1
				note	FunctionalCategory: cell wall and cell processes
				gene	phoY1
