3812791	3812501	CDS
				locus_tag	Rv3396c
				product	Probable GMP synthase [glutamine-hydrolyzing] GuaA (glutamine amidotransferase) (GMP synthetase)
				note	FunctionalCategory: intermediary metabolism and respiration
				experiment	COORDINATES:N-terminal peptide mass spectrometry [PMID: 26536359]
				gene	guaA
