3705000	3706772	CDS
				locus_tag	Rv3318
				product	Probable succinate dehydrogenase (flavoprotein subunit) SdhA (succinic dehydrogenase) (fumarate reductase) (fumarate dehydrogenase) (fumaric hydrogenase)
				note	FunctionalCategory: intermediary metabolism and respiration
				gene	sdhA
