3753184	3743711	CDS
				locus_tag	Rv3347c
				gene	PPE55
				product	Antigen/PPE family protein PPE55
				experiment  	DESCRIPTION:Protein purification and expression, mouse recombinant protein immunization, ELISA, western blot [PMID: 28217905]
				experiment	EXISTENCE:Liquid chromatography-mass spectrometry [PMID: 21085642]
				note	FunctionalCategory: PE/PPE
				note	possibly immunogenic in humans and involved in differentiating between latent and incipient subclinical tuberculosis (TB) [PMID: 16041015]
				note	can induce production of high titres of specific IgG antibodies in mice [PMID: 28217905]
				note	can specifically recognize TB-positive sera and the sera of mice immunized with the corresponding protein, which gives this gene diagnostic potential [PMID: 28217905]
				note 	biomarker in all infectious stages [PMID: 16041015]
				note	recognized by antibodies during subclinical TB Guinea pig infection [PMID: 16041015]
				note	inhibits antigen processing in host [PMID: 16041015]
				note	can be recognized in blood of healthy individuals exposed to Mtb [PMID: 23497342]
				
