3697093	3696470	CDS
				locus_tag	Rv3309c
				product	Probable uracil phosphoribosyltransferase Upp (UMP pyrophosphorylase) (uprtase) (UMP diphosphorylase)
				note	FunctionalCategory: intermediary metabolism and respiration
				gene	upp
