3727488	3728627	CDS
				locus_tag	Rv3341
				product	Probable homoserine O-acetyltransferase MetA (homoserine O-trans-acetylase) (homoserine transacetylase) (HTA)
				note	FunctionalCategory: intermediary metabolism and respiration
				gene	metA
