3768140	3767346	CDS
				locus_tag	Rv3351c
				product	Conserved hypothetical protein
				note	FunctionalCategory: conserved hypotheticals
				ncnote	may potentiate pathogen survival and escape from alveolar epithelial cells [PMID: 26492080] 

				
				gene	Rv3351c
