3876822	3876052	CDS
				locus_tag	Rv3455c
				product	Probable tRNA pseudouridine synthase a TruA (pseudouridylate synthase I) (pseudouridine synthase I) (uracil hydrolyase)
				note	FunctionalCategory: information pathways
				gene	truA
