3857397	3858239	CDS
				locus_tag	Rv3438
				product	Conserved protein/putative Carboxylic Ester Hydrolase
				note	FunctionalCategory: conserved hypotheticals
				EC_number	3.1.1.- (Putative)
				note	identified by similarity of predicted tertiary structure to PDB:2fx5A,2pm8A,2fj0A,1q83A,1qo9A,1mx9D,4v2iA,3f98A,4eb0A,1qe3A,1aknA
				inference	ab initio prediction:I-TASSER:5.1
				go_process	plasma lipoprotein oxidation|0034441|ISS
				note	identified by similarity of predicted tertiary structure to PDB 3f98A
				inference	ab initio prediction:I-TASSER:5.1
				inference	alignment:TM-align:PDB:3f98A
				go_process	lipid oxidation|0034440|ISS
				note	identified by similarity of predicted tertiary structure to PDB 3f98A
				inference	ab initio prediction:I-TASSER:5.1
				inference	alignment:TM-align:PDB:3f98A
				go_component	cytosol|0005829|ISS
				note	identified by similarity of predicted tertiary structure to PDB 1mx9D
				inference	ab initio prediction:I-TASSER:5.1
				inference	alignment:TM-align:PDB:1mx9D
				go_process	low-density lipoprotein particle remodeling|0034374|ISS
				note	identified by similarity of predicted tertiary structure to PDB 3f98A
				inference	ab initio prediction:I-TASSER:5.1
				inference	alignment:TM-align:PDB:3f98A
				go_process	neurotransmitter catabolic process|0042135|ISS
				note	identified by similarity of predicted tertiary structure to PDB 1qo9A
				inference	ab initio prediction:I-TASSER:5.1
				inference	alignment:TM-align:PDB:1qo9A
				go_process	negative regulation of cell proliferation|0008285|ISS
				note	identified by similarity of predicted tertiary structure to PDB 2pm8A
				inference	ab initio prediction:I-TASSER:5.1
				inference	alignment:TM-align:PDB:2pm8A
				go_component	endoplasmic reticulum lumen|0005788|ISS
				note	identified by similarity of predicted tertiary structure to PDB 2pm8A,1mx9D
				inference	ab initio prediction:I-TASSER:5.1
				inference	alignment:TM-align:PDB:2pm8A,1mx9D
				go_component	plasma membrane|0005886|ISS
				note	identified by similarity of predicted tertiary structure to PDB 1qo9A
				inference	ab initio prediction:I-TASSER:5.1
				inference	alignment:TM-align:PDB:1qo9A
				go_process	learning|0007612|ISS
				note	identified by similarity of predicted tertiary structure to PDB 2pm8A
				inference	ab initio prediction:I-TASSER:5.1
				inference	alignment:TM-align:PDB:2pm8A
				go_function	enzyme binding|0019899|ISS
				note	identified by similarity of predicted tertiary structure to PDB 2pm8A
				inference	ab initio prediction:I-TASSER:5.1
				inference	alignment:TM-align:PDB:2pm8A
				go_component	synaptic cleft|0043083|ISS
				note	identified by similarity of predicted tertiary structure to PDB 1qo9A
				inference	ab initio prediction:I-TASSER:5.1
				inference	alignment:TM-align:PDB:1qo9A
				go_process	response to glucocorticoid|0051384|ISS
				note	identified by similarity of predicted tertiary structure to PDB 2pm8A
				inference	ab initio prediction:I-TASSER:5.1
				inference	alignment:TM-align:PDB:2pm8A
				go_component	synapse|0045202|ISS
				note	identified by similarity of predicted tertiary structure to PDB 1qo9A
				inference	ab initio prediction:I-TASSER:5.1
				inference	alignment:TM-align:PDB:1qo9A
				go_process	acetylcholine catabolic process in synaptic cleft|0001507|ISS
				note	identified by similarity of predicted tertiary structure to PDB 1qo9A
				inference	ab initio prediction:I-TASSER:5.1
				inference	alignment:TM-align:PDB:1qo9A
				go_process	choline catabolic process|0042426|ISS
				note	identified by similarity of predicted tertiary structure to PDB 1qo9A
				inference	ab initio prediction:I-TASSER:5.1
				inference	alignment:TM-align:PDB:1qo9A
				go_process	cholesterol ester hydrolysis involved in cholesterol transport|0090122|ISS
				note	identified by similarity of predicted tertiary structure to PDB 1mx9D
				inference	ab initio prediction:I-TASSER:5.1
				inference	alignment:TM-align:PDB:1mx9D
				go_process	response to alkaloid|0043279|ISS
				note	identified by similarity of predicted tertiary structure to PDB 2pm8A
				inference	ab initio prediction:I-TASSER:5.1
				inference	alignment:TM-align:PDB:2pm8A
				go_component	cell junction|0030054|ISS
				note	identified by similarity of predicted tertiary structure to PDB 1qo9A
				inference	ab initio prediction:I-TASSER:5.1
				inference	alignment:TM-align:PDB:1qo9A
				go_component	anchored component of membrane|0031225|ISS
				note	identified by similarity of predicted tertiary structure to PDB 1qo9A
				inference	ab initio prediction:I-TASSER:5.1
				inference	alignment:TM-align:PDB:1qo9A
				go_component	membrane|0016020|ISS
				note	identified by similarity of predicted tertiary structure to PDB 2pm8A,1qo9A
				inference	ab initio prediction:I-TASSER:5.1
				inference	alignment:TM-align:PDB:2pm8A,1qo9A
				go_process	neuroblast differentiation|0014016|ISS
				note	identified by similarity of predicted tertiary structure to PDB 2pm8A
				inference	ab initio prediction:I-TASSER:5.1
				inference	alignment:TM-align:PDB:2pm8A
				go_process	positive regulation of monocyte chemotaxis|0090026|ISS
				note	identified by similarity of predicted tertiary structure to PDB 3f98A
				inference	ab initio prediction:I-TASSER:5.1
				inference	alignment:TM-align:PDB:3f98A
				go_function	carboxylic ester hydrolase activity|0052689|ISS
				note	identified by similarity of predicted tertiary structure to PDB 2pm8A,1qo9A,1mx9D,4v2iA,1qe3A,1aknA
				inference	ab initio prediction:I-TASSER:5.1
				inference	alignment:TM-align:PDB:2pm8A,1qo9A,1mx9D,4v2iA,1qe3A,1aknA
				go_function	calcium-independent phospholipase A2 activity|0047499|ISS
				note	identified by similarity of predicted tertiary structure to PDB 3f98A
				inference	ab initio prediction:I-TASSER:5.1
				inference	alignment:TM-align:PDB:3f98A
				go_process	phototaxis|0042331|ISS
				note	identified by similarity of predicted tertiary structure to PDB 1qo9A
				inference	ab initio prediction:I-TASSER:5.1
				inference	alignment:TM-align:PDB:1qo9A
				go_function	phospholipid binding|0005543|ISS
				note	identified by similarity of predicted tertiary structure to PDB 3f98A
				inference	ab initio prediction:I-TASSER:5.1
				inference	alignment:TM-align:PDB:3f98A
				go_process	response to toxic substance|0009636|ISS
				note	identified by similarity of predicted tertiary structure to PDB 1mx9D
				inference	ab initio prediction:I-TASSER:5.1
				inference	alignment:TM-align:PDB:1mx9D
				go_component	blood microparticle|0072562|ISS
				note	identified by similarity of predicted tertiary structure to PDB 2pm8A
				inference	ab initio prediction:I-TASSER:5.1
				inference	alignment:TM-align:PDB:2pm8A
				go_process	lipid catabolic process|0016042|ISS
				note	identified by similarity of predicted tertiary structure to PDB 3f98A,1aknA
				inference	ab initio prediction:I-TASSER:5.1
				inference	alignment:TM-align:PDB:3f98A,1aknA
				go_process	platelet activating factor metabolic process|0046469|ISS
				note	identified by similarity of predicted tertiary structure to PDB 3f98A
				inference	ab initio prediction:I-TASSER:5.1
				inference	alignment:TM-align:PDB:3f98A
				go_function	methylumbelliferyl-acetate deacetylase activity|0047374|ISS
				note	identified by similarity of predicted tertiary structure to PDB 1mx9D
				inference	ab initio prediction:I-TASSER:5.1
				inference	alignment:TM-align:PDB:1mx9D
				go_process	cocaine metabolic process|0050783|ISS
				note	identified by similarity of predicted tertiary structure to PDB 2pm8A
				inference	ab initio prediction:I-TASSER:5.1
				inference	alignment:TM-align:PDB:2pm8A
				go_function	sterol esterase activity|0004771|ISS
				note	identified by similarity of predicted tertiary structure to PDB 1mx9D,1aknA
				inference	ab initio prediction:I-TASSER:5.1
				inference	alignment:TM-align:PDB:1mx9D,1aknA
				go_function	identical protein binding|0042802|ISS
				note	identified by similarity of predicted tertiary structure to PDB 2pm8A
				inference	ab initio prediction:I-TASSER:5.1
				inference	alignment:TM-align:PDB:2pm8A
				go_function	protein homodimerization activity|0042803|ISS
				note	identified by similarity of predicted tertiary structure to PDB 1qo9A
				inference	ab initio prediction:I-TASSER:5.1
				inference	alignment:TM-align:PDB:1qo9A
				go_function	hydrolase activity|0016787|ISS
				note	identified by similarity of predicted tertiary structure to PDB 2pm8A,2fj0A,1qo9A,1mx9D,4v2iA,3f98A,4eb0A,1qe3A,1aknA
				inference	ab initio prediction:I-TASSER:5.1
				inference	alignment:TM-align:PDB:2pm8A,2fj0A,1qo9A,1mx9D,4v2iA,3f98A,4eb0A,1qe3A,1aknA
				go_component	low-density lipoprotein particle|0034362|ISS
				note	identified by similarity of predicted tertiary structure to PDB 3f98A
				inference	ab initio prediction:I-TASSER:5.1
				inference	alignment:TM-align:PDB:3f98A
				go_process	lipid metabolic process|0006629|ISS
				note	identified by similarity of predicted tertiary structure to PDB 3f98A,1aknA
				inference	ab initio prediction:I-TASSER:5.1
				inference	alignment:TM-align:PDB:3f98A,1aknA
				go_process	acetylcholine catabolic process|0006581|ISS
				note	identified by similarity of predicted tertiary structure to PDB 1qo9A
				inference	ab initio prediction:I-TASSER:5.1
				inference	alignment:TM-align:PDB:1qo9A
				go_process	response to nutrient|0007584|ISS
				note	identified by similarity of predicted tertiary structure to PDB 2pm8A
				inference	ab initio prediction:I-TASSER:5.1
				inference	alignment:TM-align:PDB:2pm8A
				go_process	epithelial cell differentiation|0030855|ISS
				note	identified by similarity of predicted tertiary structure to PDB 1mx9D
				inference	ab initio prediction:I-TASSER:5.1
				inference	alignment:TM-align:PDB:1mx9D
				go_function	hydrolase activity, acting on ester bonds|0016788|ISS
				note	identified by similarity of predicted tertiary structure to PDB 2pm8A,3f98A
				inference	ab initio prediction:I-TASSER:5.1
				inference	alignment:TM-align:PDB:2pm8A,3f98A
				go_function	catalytic activity|0003824|ISS
				note	identified by similarity of predicted tertiary structure to PDB 2pm8A
				inference	ab initio prediction:I-TASSER:5.1
				inference	alignment:TM-align:PDB:2pm8A
				go_process	positive regulation of inflammatory response|0050729|ISS
				note	identified by similarity of predicted tertiary structure to PDB 3f98A
				inference	ab initio prediction:I-TASSER:5.1
				inference	alignment:TM-align:PDB:3f98A
				go_function	1-alkyl-2-acetylglycerophosphocholine esterase activity|0003847|ISS
				note	identified by similarity of predicted tertiary structure to PDB 3f98A
				inference	ab initio prediction:I-TASSER:5.1
				inference	alignment:TM-align:PDB:3f98A
				go_function	cutinase activity|0050525|ISS
				note	identified by similarity of predicted tertiary structure to PDB 4eb0A
				inference	ab initio prediction:I-TASSER:5.1
				inference	alignment:TM-align:PDB:4eb0A
				go_process	metabolic process|0008152|ISS
				note	identified by similarity of predicted tertiary structure to PDB 1mx9D,4v2iA
				inference	ab initio prediction:I-TASSER:5.1
				inference	alignment:TM-align:PDB:1mx9D,4v2iA
				go_process	chemical synaptic transmission|0007268|ISS
				note	identified by similarity of predicted tertiary structure to PDB 1qo9A
				inference	ab initio prediction:I-TASSER:5.1
				inference	alignment:TM-align:PDB:1qo9A
				go_process	xenobiotic metabolic process|0006805|ISS
				note	identified by similarity of predicted tertiary structure to PDB 1mx9D
				inference	ab initio prediction:I-TASSER:5.1
				inference	alignment:TM-align:PDB:1mx9D
				go_function	amyloid-beta binding|0001540|ISS
				note	identified by similarity of predicted tertiary structure to PDB 2pm8A
				inference	ab initio prediction:I-TASSER:5.1
				inference	alignment:TM-align:PDB:2pm8A
				go_component	extracellular space|0005615|ISS
				note	identified by similarity of predicted tertiary structure to PDB 2pm8A,3f98A
				inference	ab initio prediction:I-TASSER:5.1
				inference	alignment:TM-align:PDB:2pm8A,3f98A
				go_process	medium-chain fatty acid metabolic process|0051791|ISS
				note	identified by similarity of predicted tertiary structure to PDB 1mx9D
				inference	ab initio prediction:I-TASSER:5.1
				inference	alignment:TM-align:PDB:1mx9D
				go_function	cholinesterase activity|0004104|ISS
				note	identified by similarity of predicted tertiary structure to PDB 2pm8A,1q83A,1qo9A,1qe3A
				inference	ab initio prediction:I-TASSER:5.1
				inference	alignment:TM-align:PDB:2pm8A,1q83A,1qo9A,1qe3A
				go_function	triglyceride lipase activity|0004806|ISS
				note	identified by similarity of predicted tertiary structure to PDB 1aknA
				inference	ab initio prediction:I-TASSER:5.1
				inference	alignment:TM-align:PDB:1aknA
				go_process	response to folic acid|0051593|ISS
				note	identified by similarity of predicted tertiary structure to PDB 2pm8A
				inference	ab initio prediction:I-TASSER:5.1
				inference	alignment:TM-align:PDB:2pm8A
				go_function	sulfate binding|0043199|ISS
				note	identified by similarity of predicted tertiary structure to PDB 1qo9A
				inference	ab initio prediction:I-TASSER:5.1
				inference	alignment:TM-align:PDB:1qo9A
				go_component	nuclear envelope lumen|0005641|ISS
				note	identified by similarity of predicted tertiary structure to PDB 2pm8A
				inference	ab initio prediction:I-TASSER:5.1
				inference	alignment:TM-align:PDB:2pm8A
				go_process	response to drug|0042493|ISS
				note	identified by similarity of predicted tertiary structure to PDB 2pm8A
				inference	ab initio prediction:I-TASSER:5.1
				inference	alignment:TM-align:PDB:2pm8A
				go_component	cytoplasm|0005737|ISS
				note	identified by similarity of predicted tertiary structure to PDB 1qo9A,3f98A,1aknA
				inference	ab initio prediction:I-TASSER:5.1
				inference	alignment:TM-align:PDB:1qo9A,3f98A,1aknA
				go_process	choline metabolic process|0019695|ISS
				note	identified by similarity of predicted tertiary structure to PDB 2pm8A
				inference	ab initio prediction:I-TASSER:5.1
				inference	alignment:TM-align:PDB:2pm8A
				go_component	extracellular region|0005576|ISS
				note	identified by similarity of predicted tertiary structure to PDB 2pm8A,3f98A,1aknA
				inference	ab initio prediction:I-TASSER:5.1
				inference	alignment:TM-align:PDB:2pm8A,3f98A,1aknA
				go_process	cholesterol biosynthetic process|0006695|ISS
				note	identified by similarity of predicted tertiary structure to PDB 1mx9D
				inference	ab initio prediction:I-TASSER:5.1
				inference	alignment:TM-align:PDB:1mx9D
				go_function	choline binding|0033265|ISS
				note	identified by similarity of predicted tertiary structure to PDB 2pm8A
				inference	ab initio prediction:I-TASSER:5.1
				inference	alignment:TM-align:PDB:2pm8A
				go_process	negative regulation of synaptic transmission|0050805|ISS
				note	identified by similarity of predicted tertiary structure to PDB 2pm8A
				inference	ab initio prediction:I-TASSER:5.1
				inference	alignment:TM-align:PDB:2pm8A
				go_component	endoplasmic reticulum|0005783|ISS
				note	identified by similarity of predicted tertiary structure to PDB 2pm8A,1mx9D
				inference	ab initio prediction:I-TASSER:5.1
				inference	alignment:TM-align:PDB:2pm8A,1mx9D
				go_function	acetylcholinesterase activity|0003990|ISS
				note	identified by similarity of predicted tertiary structure to PDB 2pm8A,1qo9A
				inference	ab initio prediction:I-TASSER:5.1
				inference	alignment:TM-align:PDB:2pm8A,1qo9A
				
				gene	Rv3438
