3836891	3835272	CDS
				locus_tag	Rv3417c
				product	60 kDa chaperonin 1 GroEL1 (protein CPN60-1) (GroEL protein 1)
				note	FunctionalCategory: virulence, detoxification, adaptation
				gene	groEL1
