3837288	3836986	CDS
				locus_tag	Rv3418c
				product	10 kDa chaperonin GroES (protein CPN10) (protein GroES) (BCG-a heat shock protein) (10 kDa antigen)
				note	FunctionalCategory: virulence, detoxification, adaptation
				gene	groES
