3911675	3910947	CDS
				locus_tag	Rv3493c
				product	Conserved hypothetical Mce associated alanine and valine rich protein
				note	FunctionalCategory: conserved hypotheticals
				experiment	COORDINATES:N-terminal peptide mass spectrometry [PMID: 26536359]

				
				gene	Rv3493c
