3861950	3861495	CDS
				locus_tag	Rv3442c
				product	30S ribosomal protein S9 RpsI
				note	FunctionalCategory: information pathways
				experiment	COORDINATES:N-terminal peptide mass spectrometry [PMID: 26536359]
				gene	rpsI
