3981048	3980659	CDS
				gene	chsH1
				locus_tag	Rv3541c
				product	(R)-enoyl-coA dehydrogenase (ChsH1)/Putative cysteine endopeptidase/(R)-enoyl-coA dehydrogenase (ChsH1)/Putative oxidoreductase
				experiment	DESCRIPTION:expression and purification in E.coli, hydratase activity assay, crystallization and X-ray diffraction [PMID: 25203216]
				note	FunctionalCategory: conserved hypotheticals
				note	likely forms a2b2 heterotetramer with Rv3542c (named ChsH2) [PMID: 25203216]
				EC_number	4.2.1.17
				EC_number	1.1.1.- (Putative)
				note	identified by similarity of predicted tertiary structure to PDB:3omlA
				inference	ab initio prediction:I-TASSER:5.1
				EC_number	4.2.1.- (Putative)
				note	identified by similarity of predicted tertiary structure to PDB:1iq6B,2c2iA,1pn4D,1s9cG,4rljA,3kh8A,5cpgA
				inference	ab initio prediction:I-TASSER:5.1
				EC_number	3.4.22.- (Putative)
				note	identified by similarity of predicted tertiary structure to PDB:3omlA
				inference	ab initio prediction:I-TASSER:5.1
				go_process	fatty acid biosynthetic process|0006633|ISS
				note	identified by similarity of predicted tertiary structure to PDB 1iq6B,2c2iA,5cpgA
				inference	ab initio prediction:I-TASSER:5.1
				inference	alignment:TM-align:PDB:1iq6B,2c2iA,5cpgA
				go_process	fatty acid metabolic process|0006631|ISS
				note	identified by similarity of predicted tertiary structure to PDB 3omlA,1iq6B,2c2iA
				inference	ab initio prediction:I-TASSER:5.1
				inference	alignment:TM-align:PDB:3omlA,1iq6B,2c2iA
				go_process	fatty acid beta-oxidation|0006635|ISS
				note	identified by similarity of predicted tertiary structure to PDB 3omlA
				inference	ab initio prediction:I-TASSER:5.1
				inference	alignment:TM-align:PDB:3omlA
				go_function	oxidoreductase activity|0016491|ISS
				note	identified by similarity of predicted tertiary structure to PDB 3omlA
				inference	ab initio prediction:I-TASSER:5.1
				inference	alignment:TM-align:PDB:3omlA
				go_function	3R-hydroxyacyl-CoA dehydratase activity|0080023|ISS
				note	identified by similarity of predicted tertiary structure to PDB 3omlA
				inference	ab initio prediction:I-TASSER:5.1
				inference	alignment:TM-align:PDB:3omlA
				go_process	growth|0040007|ISS
				note	identified by similarity of predicted tertiary structure to PDB 4rljA
				inference	ab initio prediction:I-TASSER:5.1
				inference	alignment:TM-align:PDB:4rljA
				go_component	fatty acid synthase complex|0005835|ISS
				note	identified by similarity of predicted tertiary structure to PDB 1iq6B,5cpgA
				inference	ab initio prediction:I-TASSER:5.1
				inference	alignment:TM-align:PDB:1iq6B,5cpgA
				go_function	lyase activity|0016829|ISS
				note	identified by similarity of predicted tertiary structure to PDB 3omlA,1iq6B,2c2iA,5cpgA
				inference	ab initio prediction:I-TASSER:5.1
				inference	alignment:TM-align:PDB:3omlA,1iq6B,2c2iA,5cpgA
				go_component	peroxisome|0005777|ISS
				note	identified by similarity of predicted tertiary structure to PDB 3omlA
				inference	ab initio prediction:I-TASSER:5.1
				inference	alignment:TM-align:PDB:3omlA
				go_function	enoyl-CoA hydratase activity|0004300|ISS
				note	identified by similarity of predicted tertiary structure to PDB 3omlA,2c2iA
				inference	ab initio prediction:I-TASSER:5.1
				inference	alignment:TM-align:PDB:3omlA,2c2iA
				go_function	protein homodimerization activity|0042803|ISS
				note	identified by similarity of predicted tertiary structure to PDB 3omlA
				inference	ab initio prediction:I-TASSER:5.1
				inference	alignment:TM-align:PDB:3omlA
				go_function	3-hydroxyacyl-CoA dehydratase activity|0018812|ISS
				note	identified by similarity of predicted tertiary structure to PDB 2c2iA
				inference	ab initio prediction:I-TASSER:5.1
				inference	alignment:TM-align:PDB:2c2iA
				go_process	lipid metabolic process|0006629|ISS
				note	identified by similarity of predicted tertiary structure to PDB 3omlA,1iq6B,2c2iA
				inference	ab initio prediction:I-TASSER:5.1
				inference	alignment:TM-align:PDB:3omlA,1iq6B,2c2iA
				go_function	catalytic activity|0003824|ISS
				note	identified by similarity of predicted tertiary structure to PDB 3omlA
				inference	ab initio prediction:I-TASSER:5.1
				inference	alignment:TM-align:PDB:3omlA
				go_process	metabolic process|0008152|ISS
				note	identified by similarity of predicted tertiary structure to PDB 3omlA
				inference	ab initio prediction:I-TASSER:5.1
				inference	alignment:TM-align:PDB:3omlA
				go_component	plasma membrane|0005886|ISS
				note	identified by similarity of predicted tertiary structure to PDB 4rljA
				inference	ab initio prediction:I-TASSER:5.1
				inference	alignment:TM-align:PDB:4rljA
				go_process	oxidation-reduction process|0055114|ISS
				note	identified by similarity of predicted tertiary structure to PDB 3omlA,1iq6B,5cpgA
				inference	ab initio prediction:I-TASSER:5.1
				inference	alignment:TM-align:PDB:3omlA,1iq6B,5cpgA
				go_function	fatty acid synthase activity|0004312|ISS
				note	identified by similarity of predicted tertiary structure to PDB 1iq6B,5cpgA
				inference	ab initio prediction:I-TASSER:5.1
				inference	alignment:TM-align:PDB:1iq6B,5cpgA
				go_function	protein binding|0005515|ISS
				note	identified by similarity of predicted tertiary structure to PDB 2c2iA,4rljA
				inference	ab initio prediction:I-TASSER:5.1
				inference	alignment:TM-align:PDB:2c2iA,4rljA
				go_process	fatty acid beta-oxidation using acyl-CoA oxidase|0033540|ISS
				note	identified by similarity of predicted tertiary structure to PDB 3omlA
				inference	ab initio prediction:I-TASSER:5.1
				inference	alignment:TM-align:PDB:3omlA
				go_function	3-hydroxyacyl-[acyl-carrier-protein] dehydratase activity|0019171|ISS
				note	identified by similarity of predicted tertiary structure to PDB 4rljA
				inference	ab initio prediction:I-TASSER:5.1
				inference	alignment:TM-align:PDB:4rljA
				
