3939257	3938421	CDS
				locus_tag	Rv3510c
				product	Conserved protein
				note	FunctionalCategory: conserved hypotheticals
				product putative carboxy-lyase/putative linear amide hydrolase
				EC_number	4.1.1.- (Putative)
				note	identified by similarity of predicted tertiary structure to PDB:2dvtA,4hjwA,2wm1A,2f6kA
				inference	ab initio prediction:I-TASSER:5.1
				EC_number	3.5.1.- (Putative)
				note	identified by similarity of predicted tertiary structure to PDB:3nurA
				inference	ab initio prediction:I-TASSER:5.1
				go_function	carboxy-lyase activity|0016831|ISS
				note	identified by similarity of predicted tertiary structure to PDB 2wm1A
				inference	ab initio prediction:I-TASSER:5.1
				inference	alignment:TM-align:PDB:2wm1A
				go_function	aminocarboxymuconate-semialdehyde decarboxylase activity|0001760|ISS
				note	identified by similarity of predicted tertiary structure to PDB 2wm1A
				inference	ab initio prediction:I-TASSER:5.1
				inference	alignment:TM-align:PDB:2wm1A
				go_function	zinc ion binding|0008270|ISS
				note	identified by similarity of predicted tertiary structure to PDB 2wm1A
				inference	ab initio prediction:I-TASSER:5.1
				inference	alignment:TM-align:PDB:2wm1A
				go_process	regulation of 'de novo' NAD biosynthetic process from tryptophan|1905012|ISS
				note	identified by similarity of predicted tertiary structure to PDB 2wm1A
				inference	ab initio prediction:I-TASSER:5.1
				inference	alignment:TM-align:PDB:2wm1A
				go_component	extracellular exosome|0070062|ISS
				note	identified by similarity of predicted tertiary structure to PDB 2wm1A
				inference	ab initio prediction:I-TASSER:5.1
				inference	alignment:TM-align:PDB:2wm1A
				go_function	lyase activity|0016829|ISS
				note	identified by similarity of predicted tertiary structure to PDB 2wm1A
				inference	ab initio prediction:I-TASSER:5.1
				inference	alignment:TM-align:PDB:2wm1A
				go_process	tryptophan catabolic process|0006569|ISS
				note	identified by similarity of predicted tertiary structure to PDB 2wm1A
				inference	ab initio prediction:I-TASSER:5.1
				inference	alignment:TM-align:PDB:2wm1A
				go_process	negative regulation of quinolinate biosynthetic process|1904985|ISS
				note	identified by similarity of predicted tertiary structure to PDB 2wm1A
				inference	ab initio prediction:I-TASSER:5.1
				inference	alignment:TM-align:PDB:2wm1A
				go_function	metal ion binding|0046872|ISS
				note	identified by similarity of predicted tertiary structure to PDB 2dvtA,4hjwA,2wm1A,2f6kA,3nurA
				inference	ab initio prediction:I-TASSER:5.1
				inference	alignment:TM-align:PDB:2dvtA,4hjwA,2wm1A,2f6kA,3nurA
				go_function	hydrolase activity|0016787|ISS
				note	identified by similarity of predicted tertiary structure to PDB 2dvtA,4hjwA,2wm1A,2f6kA,3nurA
				inference	ab initio prediction:I-TASSER:5.1
				inference	alignment:TM-align:PDB:2dvtA,4hjwA,2wm1A,2f6kA,3nurA
				go_process	picolinic acid biosynthetic process|1905004|ISS
				note	identified by similarity of predicted tertiary structure to PDB 2wm1A
				inference	ab initio prediction:I-TASSER:5.1
				inference	alignment:TM-align:PDB:2wm1A
				go_process	protein oligomerization|0051259|ISS
				note	identified by similarity of predicted tertiary structure to PDB 2wm1A
				inference	ab initio prediction:I-TASSER:5.1
				inference	alignment:TM-align:PDB:2wm1A
				go_function	protein binding|0005515|ISS
				note	identified by similarity of predicted tertiary structure to PDB 2wm1A
				inference	ab initio prediction:I-TASSER:5.1
				inference	alignment:TM-align:PDB:2wm1A
				go_component	cytosol|0005829|ISS
				note	identified by similarity of predicted tertiary structure to PDB 2wm1A
				inference	ab initio prediction:I-TASSER:5.1
				inference	alignment:TM-align:PDB:2wm1A
				
				gene	Rv3510c
