4001637	4003160	CDS
				locus_tag	Rv3561
				product	Probable fatty-acid-CoA ligase FadD3 (fatty-acid-CoA synthetase) (fatty-acid-CoA synthase)
				note	FunctionalCategory: lipid metabolism
				gene	fadD3
