4061889	4060648	CDS
				locus_tag	Rv3621c
				gene	PPE65
				product	Antigen
				experiment	EXISTENCE:Liquid chromatography-mass spectrometry [PMID: 21085642]
				experiment	DESCRIPTION:ELISA [PMID: 21288992]
				note	FunctionalCategory: PE/PPE
				note	Expressed in vivo in guinea pig lung at both 30 and 90 days post-infection [PMID: 21085642]
                                note    co-operonic, co-transcribed, and co-translated with Rv3622c (PE32) [PMID: 27242739]
				note	suppresses Th1 cytokines in conjunction with PE32 [PMID: 27242739]
				note	increases the level of anti-inflammatory cytokine IL-10 [PMID: 27242739]
				
				
