4071791	4072666	CDS
				locus_tag	Rv3633
				product	Conserved protein/putative ester hydrolase
				note	FunctionalCategory: conserved hypotheticals
				EC_number	1.14.11.- (Putative)
				note	identified by similarity of predicted tertiary structure to PDB:4y5sA,2rdnA,2a1xA,3emrA,2hbtA
				inference	ab initio prediction:I-TASSER:5.1
				go_process	fatty acid metabolic process|0006631|ISS
				note	identified by similarity of predicted tertiary structure to PDB 2a1xA
				inference	ab initio prediction:I-TASSER:5.1
				inference	alignment:TM-align:PDB:2a1xA
				go_component	peroxisomal matrix|0005782|ISS
				note	identified by similarity of predicted tertiary structure to PDB 2a1xA
				inference	ab initio prediction:I-TASSER:5.1
				inference	alignment:TM-align:PDB:2a1xA
				go_process	antibiotic biosynthetic process|0017000|ISS
				note	identified by similarity of predicted tertiary structure to PDB 2rdnA
				inference	ab initio prediction:I-TASSER:5.1
				inference	alignment:TM-align:PDB:2rdnA
				go_process	ectoine biosynthetic process|0019491|ISS
				note	identified by similarity of predicted tertiary structure to PDB 3emrA
				inference	ab initio prediction:I-TASSER:5.1
				inference	alignment:TM-align:PDB:3emrA
				go_process	verruculogen biosynthetic process|1902181|ISS
				note	identified by similarity of predicted tertiary structure to PDB 4y5sA
				inference	ab initio prediction:I-TASSER:5.1
				inference	alignment:TM-align:PDB:4y5sA
				go_process	ectoine catabolic process|0042400|ISS
				note	identified by similarity of predicted tertiary structure to PDB 3emrA
				inference	ab initio prediction:I-TASSER:5.1
				inference	alignment:TM-align:PDB:3emrA
				go_function	phytanoyl-CoA dioxygenase activity|0048244|ISS
				note	identified by similarity of predicted tertiary structure to PDB 2a1xA
				inference	ab initio prediction:I-TASSER:5.1
				inference	alignment:TM-align:PDB:2a1xA
				go_function	oxidoreductase activity|0016491|ISS
				note	identified by similarity of predicted tertiary structure to PDB 4y5sA,2rdnA,2a1xA,3emrA,2hbtA
				inference	ab initio prediction:I-TASSER:5.1
				inference	alignment:TM-align:PDB:4y5sA,2rdnA,2a1xA,3emrA,2hbtA
				go_function	L-ascorbic acid binding|0031418|ISS
				note	identified by similarity of predicted tertiary structure to PDB 2rdnA,2a1xA,2hbtA
				inference	ab initio prediction:I-TASSER:5.1
				inference	alignment:TM-align:PDB:2rdnA,2a1xA,2hbtA
				go_process	fatty acid alpha-oxidation|0001561|ISS
				note	identified by similarity of predicted tertiary structure to PDB 2a1xA
				inference	ab initio prediction:I-TASSER:5.1
				inference	alignment:TM-align:PDB:2a1xA
				go_function	oxidoreductase activity, acting on paired donors, with incorporation or reduction of molecular oxygen, 2-oxoglutarate as one donor, and incorporation of one atom each of oxygen into both donors|0016706|ISS
				note	identified by similarity of predicted tertiary structure to PDB 2rdnA,3emrA
				inference	ab initio prediction:I-TASSER:5.1
				inference	alignment:TM-align:PDB:2rdnA,3emrA
				go_function	oxidoreductase activity, acting on paired donors, with incorporation or reduction of molecular oxygen|0016705|ISS
				note	identified by similarity of predicted tertiary structure to PDB 2hbtA
				inference	ab initio prediction:I-TASSER:5.1
				inference	alignment:TM-align:PDB:2hbtA
				go_component	peroxisome|0005777|ISS
				note	identified by similarity of predicted tertiary structure to PDB 2a1xA
				inference	ab initio prediction:I-TASSER:5.1
				inference	alignment:TM-align:PDB:2a1xA
				go_component	mitochondrion|0005739|ISS
				note	identified by similarity of predicted tertiary structure to PDB 2a1xA
				inference	ab initio prediction:I-TASSER:5.1
				inference	alignment:TM-align:PDB:2a1xA
				go_function	iron ion binding|0005506|ISS
				note	identified by similarity of predicted tertiary structure to PDB 2rdnA,3emrA,2hbtA
				inference	ab initio prediction:I-TASSER:5.1
				inference	alignment:TM-align:PDB:2rdnA,3emrA,2hbtA
				go_function	metal ion binding|0046872|ISS
				note	identified by similarity of predicted tertiary structure to PDB 2rdnA,2a1xA,3emrA
				inference	ab initio prediction:I-TASSER:5.1
				inference	alignment:TM-align:PDB:2rdnA,2a1xA,3emrA
				go_process	methyl-branched fatty acid metabolic process|0097089|ISS
				note	identified by similarity of predicted tertiary structure to PDB 2a1xA
				inference	ab initio prediction:I-TASSER:5.1
				inference	alignment:TM-align:PDB:2a1xA
				go_process	2-oxoglutarate metabolic process|0006103|ISS
				note	identified by similarity of predicted tertiary structure to PDB 2a1xA
				inference	ab initio prediction:I-TASSER:5.1
				inference	alignment:TM-align:PDB:2a1xA
				go_process	isoprenoid metabolic process|0006720|ISS
				note	identified by similarity of predicted tertiary structure to PDB 2a1xA
				inference	ab initio prediction:I-TASSER:5.1
				inference	alignment:TM-align:PDB:2a1xA
				go_function	ferrous iron binding|0008198|ISS
				note	identified by similarity of predicted tertiary structure to PDB 2a1xA
				inference	ab initio prediction:I-TASSER:5.1
				inference	alignment:TM-align:PDB:2a1xA
				go_function	catalytic activity|0003824|ISS
				note	identified by similarity of predicted tertiary structure to PDB 2a1xA
				inference	ab initio prediction:I-TASSER:5.1
				inference	alignment:TM-align:PDB:2a1xA
				go_function	cofactor binding|0048037|ISS
				note	identified by similarity of predicted tertiary structure to PDB 2a1xA
				inference	ab initio prediction:I-TASSER:5.1
				inference	alignment:TM-align:PDB:2a1xA
				go_process	oxidation-reduction process|0055114|ISS
				note	identified by similarity of predicted tertiary structure to PDB 4y5sA,2rdnA,2a1xA,3emrA,2hbtA
				inference	ab initio prediction:I-TASSER:5.1
				inference	alignment:TM-align:PDB:4y5sA,2rdnA,2a1xA,3emrA,2hbtA
				go_function	dioxygenase activity|0051213|ISS
				note	identified by similarity of predicted tertiary structure to PDB 4y5sA,2rdnA,2a1xA,3emrA
				inference	ab initio prediction:I-TASSER:5.1
				inference	alignment:TM-align:PDB:4y5sA,2rdnA,2a1xA,3emrA
				go_process	lactone biosynthetic process|1901336|ISS
				note	identified by similarity of predicted tertiary structure to PDB 2rdnA
				inference	ab initio prediction:I-TASSER:5.1
				inference	alignment:TM-align:PDB:2rdnA
				go_function	carboxylic acid binding|0031406|ISS
				note	identified by similarity of predicted tertiary structure to PDB 2a1xA
				inference	ab initio prediction:I-TASSER:5.1
				inference	alignment:TM-align:PDB:2a1xA
				go_function	protein binding|0005515|ISS
				note	identified by similarity of predicted tertiary structure to PDB 2a1xA
				inference	ab initio prediction:I-TASSER:5.1
				inference	alignment:TM-align:PDB:2a1xA
				
				gene	Rv3633
