4114342	4113521	CDS
				locus_tag	Rv3672c
				product	putative acid anhydride phosphatase
				note	FunctionalCategory: conserved hypotheticals
				experiment	COORDINATES:N-terminal peptide mass spectrometry [PMID: 26536359]
				EC_number	3.6.1.- (Putative)
				note	identified by similarity of predicted tertiary structure to PDB:3couA,1u20A,1f3yA,1nqzA,1xscA
				inference	ab initio prediction:I-TASSER:5.1
				go_process	positive regulation of cell proliferation|0008284|ISS
				note	identified by similarity of predicted tertiary structure to PDB 3couA,1u20A
				inference	ab initio prediction:I-TASSER:5.1
				inference	alignment:TM-align:PDB:3couA,1u20A
				go_function	cobalt ion binding|0050897|ISS
				note	identified by similarity of predicted tertiary structure to PDB 3couA,1u20A
				inference	ab initio prediction:I-TASSER:5.1
				inference	alignment:TM-align:PDB:3couA,1u20A
				go_function	bis(5'-nucleosyl)-tetraphosphatase (symmetrical) activity|0008803|ISS
				note	identified by similarity of predicted tertiary structure to PDB 1xscA
				inference	ab initio prediction:I-TASSER:5.1
				inference	alignment:TM-align:PDB:1xscA
				go_function	IDP phosphatase activity|1990003|ISS
				note	identified by similarity of predicted tertiary structure to PDB 3couA
				inference	ab initio prediction:I-TASSER:5.1
				inference	alignment:TM-align:PDB:3couA
				go_process	dephosphorylation|0016311|ISS
				note	identified by similarity of predicted tertiary structure to PDB 3couA,1u20A
				inference	ab initio prediction:I-TASSER:5.1
				inference	alignment:TM-align:PDB:3couA,1u20A
				go_function	nucleotide phosphatase activity, acting on free nucleotides|0098519|ISS
				note	identified by similarity of predicted tertiary structure to PDB 3couA,1u20A
				inference	ab initio prediction:I-TASSER:5.1
				inference	alignment:TM-align:PDB:3couA,1u20A
				go_function	dIDP diphosphatase activity|0097383|ISS
				note	identified by similarity of predicted tertiary structure to PDB 3couA
				inference	ab initio prediction:I-TASSER:5.1
				inference	alignment:TM-align:PDB:3couA
				go_function	dITP diphosphatase activity|0035870|ISS
				note	identified by similarity of predicted tertiary structure to PDB 3couA,1u20A
				inference	ab initio prediction:I-TASSER:5.1
				inference	alignment:TM-align:PDB:3couA,1u20A
				go_function	metalloexopeptidase activity|0008235|ISS
				note	identified by similarity of predicted tertiary structure to PDB 3couA,1u20A
				inference	ab initio prediction:I-TASSER:5.1
				inference	alignment:TM-align:PDB:3couA,1u20A
				go_function	snoRNA binding|0030515|ISS
				note	identified by similarity of predicted tertiary structure to PDB 3couA,1u20A
				inference	ab initio prediction:I-TASSER:5.1
				inference	alignment:TM-align:PDB:3couA,1u20A
				go_process	XDP catabolic process|1901639|ISS
				note	identified by similarity of predicted tertiary structure to PDB 3couA,1u20A
				inference	ab initio prediction:I-TASSER:5.1
				inference	alignment:TM-align:PDB:3couA,1u20A
				go_component	cytoplasm|0005737|ISS
				note	identified by similarity of predicted tertiary structure to PDB 3couA,1u20A
				inference	ab initio prediction:I-TASSER:5.1
				inference	alignment:TM-align:PDB:3couA,1u20A
				go_process	nucleobase-containing compound metabolic process|0006139|ISS
				note	identified by similarity of predicted tertiary structure to PDB 1xscA
				inference	ab initio prediction:I-TASSER:5.1
				inference	alignment:TM-align:PDB:1xscA
				go_component	nucleolus|0005730|ISS
				note	identified by similarity of predicted tertiary structure to PDB 3couA,1u20A
				inference	ab initio prediction:I-TASSER:5.1
				inference	alignment:TM-align:PDB:3couA,1u20A
				go_component	nucleus|0005634|ISS
				note	identified by similarity of predicted tertiary structure to PDB 3couA,1u20A
				inference	ab initio prediction:I-TASSER:5.1
				inference	alignment:TM-align:PDB:3couA,1u20A
				go_function	magnesium ion binding|0000287|ISS
				note	identified by similarity of predicted tertiary structure to PDB 3couA,1u20A
				inference	ab initio prediction:I-TASSER:5.1
				inference	alignment:TM-align:PDB:3couA,1u20A
				go_component	mitochondrion|0005739|ISS
				note	identified by similarity of predicted tertiary structure to PDB 1xscA
				inference	ab initio prediction:I-TASSER:5.1
				inference	alignment:TM-align:PDB:1xscA
				go_function	nucleotide binding|0000166|ISS
				note	identified by similarity of predicted tertiary structure to PDB 3couA,1u20A,1xscA
				inference	ab initio prediction:I-TASSER:5.1
				inference	alignment:TM-align:PDB:3couA,1u20A,1xscA
				go_component	nucleoplasm|0005654|ISS
				note	identified by similarity of predicted tertiary structure to PDB 3couA,1u20A
				inference	ab initio prediction:I-TASSER:5.1
				inference	alignment:TM-align:PDB:3couA,1u20A
				go_function	bis(5'-nucleosyl)-tetraphosphatase (asymmetrical) activity|0004081|ISS
				note	identified by similarity of predicted tertiary structure to PDB 1xscA
				inference	ab initio prediction:I-TASSER:5.1
				inference	alignment:TM-align:PDB:1xscA
				go_function	m7G(5')pppN diphosphatase activity|0050072|ISS
				note	identified by similarity of predicted tertiary structure to PDB 3couA,1u20A
				inference	ab initio prediction:I-TASSER:5.1
				inference	alignment:TM-align:PDB:3couA,1u20A
				go_function	XTP binding|1901640|ISS
				note	identified by similarity of predicted tertiary structure to PDB 3couA,1u20A
				inference	ab initio prediction:I-TASSER:5.1
				inference	alignment:TM-align:PDB:3couA,1u20A
				go_component	mitochondrial matrix|0005759|ISS
				note	identified by similarity of predicted tertiary structure to PDB 1xscA
				inference	ab initio prediction:I-TASSER:5.1
				inference	alignment:TM-align:PDB:1xscA
				go_function	ITP binding|1901641|ISS
				note	identified by similarity of predicted tertiary structure to PDB 3couA,1u20A
				inference	ab initio prediction:I-TASSER:5.1
				inference	alignment:TM-align:PDB:3couA,1u20A
				go_process	mRNA catabolic process|0006402|ISS
				note	identified by similarity of predicted tertiary structure to PDB 3couA,1u20A
				inference	ab initio prediction:I-TASSER:5.1
				inference	alignment:TM-align:PDB:3couA,1u20A
				go_function	metal ion binding|0046872|ISS
				note	identified by similarity of predicted tertiary structure to PDB 3couA,1u20A
				inference	ab initio prediction:I-TASSER:5.1
				inference	alignment:TM-align:PDB:3couA,1u20A
				go_process	adenosine to inosine editing|0006382|ISS
				note	identified by similarity of predicted tertiary structure to PDB 3couA,1u20A
				inference	ab initio prediction:I-TASSER:5.1
				inference	alignment:TM-align:PDB:3couA,1u20A
				go_function	identical protein binding|0042802|ISS
				note	identified by similarity of predicted tertiary structure to PDB 3couA
				inference	ab initio prediction:I-TASSER:5.1
				inference	alignment:TM-align:PDB:3couA
				go_function	RNA binding|0003723|ISS
				note	identified by similarity of predicted tertiary structure to PDB 3couA,1u20A
				inference	ab initio prediction:I-TASSER:5.1
				inference	alignment:TM-align:PDB:3couA,1u20A
				go_function	hydrolase activity|0016787|ISS
				note	identified by similarity of predicted tertiary structure to PDB 3couA,1u20A,1f3yA,1nqzA,1xscA
				inference	ab initio prediction:I-TASSER:5.1
				inference	alignment:TM-align:PDB:3couA,1u20A,1f3yA,1nqzA,1xscA
				go_process	IDP catabolic process|0046709|ISS
				note	identified by similarity of predicted tertiary structure to PDB 3couA,1u20A
				inference	ab initio prediction:I-TASSER:5.1
				inference	alignment:TM-align:PDB:3couA,1u20A
				go_process	positive regulation of cell cycle process|0090068|ISS
				note	identified by similarity of predicted tertiary structure to PDB 3couA,1u20A
				inference	ab initio prediction:I-TASSER:5.1
				inference	alignment:TM-align:PDB:3couA,1u20A
				go_function	manganese ion binding|0030145|ISS
				note	identified by similarity of predicted tertiary structure to PDB 3couA,1u20A
				inference	ab initio prediction:I-TASSER:5.1
				inference	alignment:TM-align:PDB:3couA,1u20A
				go_function	protein homodimerization activity|0042803|ISS
				note	identified by similarity of predicted tertiary structure to PDB 3couA,1u20A
				inference	ab initio prediction:I-TASSER:5.1
				inference	alignment:TM-align:PDB:3couA,1u20A
				go_process	positive regulation of double-strand break repair|2000781|ISS
				note	identified by similarity of predicted tertiary structure to PDB 3couA,1u20A
				inference	ab initio prediction:I-TASSER:5.1
				inference	alignment:TM-align:PDB:3couA,1u20A
				go_process	nucleotide metabolic process|0009117|ISS
				note	identified by similarity of predicted tertiary structure to PDB 3couA,1u20A
				inference	ab initio prediction:I-TASSER:5.1
				inference	alignment:TM-align:PDB:3couA,1u20A
				go_process	dITP catabolic process|0035863|ISS
				note	identified by similarity of predicted tertiary structure to PDB 3couA,1u20A
				inference	ab initio prediction:I-TASSER:5.1
				inference	alignment:TM-align:PDB:3couA,1u20A
				go_process	nucleobase-containing small molecule catabolic process|0034656|ISS
				note	identified by similarity of predicted tertiary structure to PDB 3couA
				inference	ab initio prediction:I-TASSER:5.1
				inference	alignment:TM-align:PDB:3couA
				go_process	proteolysis|0006508|ISS
				note	identified by similarity of predicted tertiary structure to PDB 3couA,1u20A
				inference	ab initio prediction:I-TASSER:5.1
				inference	alignment:TM-align:PDB:3couA,1u20A
				go_process	cellular response to oxidative stress|0034599|ISS
				note	identified by similarity of predicted tertiary structure to PDB 1xscA
				inference	ab initio prediction:I-TASSER:5.1
				inference	alignment:TM-align:PDB:1xscA
				go_process	snoRNA catabolic process|0016077|ISS
				note	identified by similarity of predicted tertiary structure to PDB 3couA,1u20A
				inference	ab initio prediction:I-TASSER:5.1
				inference	alignment:TM-align:PDB:3couA,1u20A
				go_process	negative regulation of rRNA processing|2000233|ISS
				note	identified by similarity of predicted tertiary structure to PDB 3couA,1u20A
				inference	ab initio prediction:I-TASSER:5.1
				inference	alignment:TM-align:PDB:3couA,1u20A
				go_function	bis(5'-nucleosyl)-tetraphosphatase activity|0008796|ISS
				note	identified by similarity of predicted tertiary structure to PDB 1xscA
				inference	ab initio prediction:I-TASSER:5.1
				inference	alignment:TM-align:PDB:1xscA
				go_function	protein binding|0005515|ISS
				note	identified by similarity of predicted tertiary structure to PDB 1xscA
				inference	ab initio prediction:I-TASSER:5.1
				inference	alignment:TM-align:PDB:1xscA
				go_function	GTP binding|0005525|ISS
				note	identified by similarity of predicted tertiary structure to PDB 3couA,1u20A,1xscA
				inference	ab initio prediction:I-TASSER:5.1
				inference	alignment:TM-align:PDB:3couA,1u20A,1xscA
				go_process	apoptotic process|0006915|ISS
				note	identified by similarity of predicted tertiary structure to PDB 1xscA
				inference	ab initio prediction:I-TASSER:5.1
				inference	alignment:TM-align:PDB:1xscA
				go_function	mRNA binding|0003729|ISS
				note	identified by similarity of predicted tertiary structure to PDB 3couA,1u20A
				inference	ab initio prediction:I-TASSER:5.1
				inference	alignment:TM-align:PDB:3couA,1u20A
				
				gene	Rv3672c
