4047496	4046303	CDS
				locus_tag	Rv3604c
				product	Probable conserved transmembrane protein rich in alanine and arginine and proline
				note	FunctionalCategory: cell wall and cell processes
				
				gene	Rv3604c
