4206917	4205862	CDS
				locus_tag	Rv3761c
				product	Possible acyl-CoA dehydrogenase FadE36
				note	FunctionalCategory: lipid metabolism
				experiment	COORDINATES:N-terminal peptide mass spectrometry [PMID: 26536359]
				gene	fadE36
