4224985	4226985	CDS
				locus_tag	Rv3779
				product	bifunctional polyprenylphosphomannosyl synthase/galactosaminyltransferase	
				experiment	DESCRIPTION:gene knockout and complementation, capillary electrophoresis, enzymatic assays, MALDI-TOF/MS, MS/MS [PMID: 21030587]
				experiment	DESCRIPTION:plasmid transformation in M.smegmatis, overexpression, TLC autoradiography, enzyme activity assays [PMID: 19717608] 
				note	FunctionalCategory: cell wall and cell processes
				EC_number	2.4.1.-
				EC_number	2.4.1.-
				ncnote	These enzymes seem to be well-defined enough for full EC-numbers, but there exist no entries for them. Should two new 2.4.1.x be assigned for them?
				ncnote	both assigned EC numbers are 2.4.1.-; that is not a typo. 
				
				gene	Rv3779
