4359782	4357593	CDS
				locus_tag	Rv3879c
				product	ESX-1 secretion-associated protein EspK. Alanine and proline rich protein.
				note	FunctionalCategory: cell wall and cell processes
				gene	espK
