4313567	4313980	CDS
				locus_tag	Rv3840
				product	Possible transcriptional regulatory protein/Probable transcriptional regulator
				note	FunctionalCategory: regulatory proteins
				note	identified by similarity of predicted tertiary structure to PDB 3qfiA,3mejA
				inference	ab initio prediction:I-TASSER:5.1
				inference	alignment:TM-align:PDB:3qfiA,3mejA
				
				gene	Rv3840
