4299812	4301566	CDS
				locus_tag	Rv3826
				product	Probable fatty-acid-AMP ligase FadD23 (fatty-acid-AMP synthetase) (fatty-acid-AMP synthase)
				note	FunctionalCategory: lipid metabolism
				gene	fadD23
