4410069	4408969	CDS
				locus_tag	Rv3921c
				gene	yidC
				product	putative translocase
				experiment	DESCRIPTION:binding assay through immunoblotting and co-immunoprecipitation; gene knockout; global microarray and proteomics [PMID: 27166092]
				note	FunctionalCategory: cell wall and cell processes
				note	expression is dependent on membrane potential [PMID: 27166092]
				note	translocates respiratory proteins Rv0247, Rv0248, and QcrA [PMID: 27166092]
				note	knockout strains have greatly reduced ATP synthase mRNA and protein levels, as well as ATP concentration [PMID: 27166092]
				EC_number	3.6.3.-

